(module 1X08 (layer F.Cu) (tedit 0)
  (descr "<b>PIN HEADER</b>")
  (fp_text reference JP1 (at -10.2362 -1.8288) (layer F.SilkS)
    (effects (font (size 1.2065 1.2065) (thickness 0.127)) (justify right top))
  )
  (fp_text value Direction (at -10.16 3.175) (layer F.Fab)
    (effects (font (size 1.2065 1.2065) (thickness 0.1016)) (justify right top))
  )
  (fp_line (start 5.715 -1.27) (end 6.985 -1.27) (layer F.SilkS) (width 0.1524))
  (fp_line (start 6.985 -1.27) (end 7.62 -0.635) (layer F.SilkS) (width 0.1524))
  (fp_line (start 7.62 -0.635) (end 7.62 0.635) (layer F.SilkS) (width 0.1524))
  (fp_line (start 7.62 0.635) (end 6.985 1.27) (layer F.SilkS) (width 0.1524))
  (fp_line (start 2.54 -0.635) (end 3.175 -1.27) (layer F.SilkS) (width 0.1524))
  (fp_line (start 3.175 -1.27) (end 4.445 -1.27) (layer F.SilkS) (width 0.1524))
  (fp_line (start 4.445 -1.27) (end 5.08 -0.635) (layer F.SilkS) (width 0.1524))
  (fp_line (start 5.08 -0.635) (end 5.08 0.635) (layer F.SilkS) (width 0.1524))
  (fp_line (start 5.08 0.635) (end 4.445 1.27) (layer F.SilkS) (width 0.1524))
  (fp_line (start 4.445 1.27) (end 3.175 1.27) (layer F.SilkS) (width 0.1524))
  (fp_line (start 3.175 1.27) (end 2.54 0.635) (layer F.SilkS) (width 0.1524))
  (fp_line (start 5.715 -1.27) (end 5.08 -0.635) (layer F.SilkS) (width 0.1524))
  (fp_line (start 5.08 0.635) (end 5.715 1.27) (layer F.SilkS) (width 0.1524))
  (fp_line (start 6.985 1.27) (end 5.715 1.27) (layer F.SilkS) (width 0.1524))
  (fp_line (start -1.905 -1.27) (end -0.635 -1.27) (layer F.SilkS) (width 0.1524))
  (fp_line (start -0.635 -1.27) (end 0 -0.635) (layer F.SilkS) (width 0.1524))
  (fp_line (start 0 -0.635) (end 0 0.635) (layer F.SilkS) (width 0.1524))
  (fp_line (start 0 0.635) (end -0.635 1.27) (layer F.SilkS) (width 0.1524))
  (fp_line (start 0 -0.635) (end 0.635 -1.27) (layer F.SilkS) (width 0.1524))
  (fp_line (start 0.635 -1.27) (end 1.905 -1.27) (layer F.SilkS) (width 0.1524))
  (fp_line (start 1.905 -1.27) (end 2.54 -0.635) (layer F.SilkS) (width 0.1524))
  (fp_line (start 2.54 -0.635) (end 2.54 0.635) (layer F.SilkS) (width 0.1524))
  (fp_line (start 2.54 0.635) (end 1.905 1.27) (layer F.SilkS) (width 0.1524))
  (fp_line (start 1.905 1.27) (end 0.635 1.27) (layer F.SilkS) (width 0.1524))
  (fp_line (start 0.635 1.27) (end 0 0.635) (layer F.SilkS) (width 0.1524))
  (fp_line (start -5.08 -0.635) (end -4.445 -1.27) (layer F.SilkS) (width 0.1524))
  (fp_line (start -4.445 -1.27) (end -3.175 -1.27) (layer F.SilkS) (width 0.1524))
  (fp_line (start -3.175 -1.27) (end -2.54 -0.635) (layer F.SilkS) (width 0.1524))
  (fp_line (start -2.54 -0.635) (end -2.54 0.635) (layer F.SilkS) (width 0.1524))
  (fp_line (start -2.54 0.635) (end -3.175 1.27) (layer F.SilkS) (width 0.1524))
  (fp_line (start -3.175 1.27) (end -4.445 1.27) (layer F.SilkS) (width 0.1524))
  (fp_line (start -4.445 1.27) (end -5.08 0.635) (layer F.SilkS) (width 0.1524))
  (fp_line (start -1.905 -1.27) (end -2.54 -0.635) (layer F.SilkS) (width 0.1524))
  (fp_line (start -2.54 0.635) (end -1.905 1.27) (layer F.SilkS) (width 0.1524))
  (fp_line (start -0.635 1.27) (end -1.905 1.27) (layer F.SilkS) (width 0.1524))
  (fp_line (start -9.525 -1.27) (end -8.255 -1.27) (layer F.SilkS) (width 0.1524))
  (fp_line (start -8.255 -1.27) (end -7.62 -0.635) (layer F.SilkS) (width 0.1524))
  (fp_line (start -7.62 -0.635) (end -7.62 0.635) (layer F.SilkS) (width 0.1524))
  (fp_line (start -7.62 0.635) (end -8.255 1.27) (layer F.SilkS) (width 0.1524))
  (fp_line (start -7.62 -0.635) (end -6.985 -1.27) (layer F.SilkS) (width 0.1524))
  (fp_line (start -6.985 -1.27) (end -5.715 -1.27) (layer F.SilkS) (width 0.1524))
  (fp_line (start -5.715 -1.27) (end -5.08 -0.635) (layer F.SilkS) (width 0.1524))
  (fp_line (start -5.08 -0.635) (end -5.08 0.635) (layer F.SilkS) (width 0.1524))
  (fp_line (start -5.08 0.635) (end -5.715 1.27) (layer F.SilkS) (width 0.1524))
  (fp_line (start -5.715 1.27) (end -6.985 1.27) (layer F.SilkS) (width 0.1524))
  (fp_line (start -6.985 1.27) (end -7.62 0.635) (layer F.SilkS) (width 0.1524))
  (fp_line (start -10.16 -0.635) (end -10.16 0.635) (layer F.SilkS) (width 0.1524))
  (fp_line (start -9.525 -1.27) (end -10.16 -0.635) (layer F.SilkS) (width 0.1524))
  (fp_line (start -10.16 0.635) (end -9.525 1.27) (layer F.SilkS) (width 0.1524))
  (fp_line (start -8.255 1.27) (end -9.525 1.27) (layer F.SilkS) (width 0.1524))
  (fp_line (start 8.255 -1.27) (end 9.525 -1.27) (layer F.SilkS) (width 0.1524))
  (fp_line (start 9.525 -1.27) (end 10.16 -0.635) (layer F.SilkS) (width 0.1524))
  (fp_line (start 10.16 -0.635) (end 10.16 0.635) (layer F.SilkS) (width 0.1524))
  (fp_line (start 10.16 0.635) (end 9.525 1.27) (layer F.SilkS) (width 0.1524))
  (fp_line (start 8.255 -1.27) (end 7.62 -0.635) (layer F.SilkS) (width 0.1524))
  (fp_line (start 7.62 0.635) (end 8.255 1.27) (layer F.SilkS) (width 0.1524))
  (fp_line (start 9.525 1.27) (end 8.255 1.27) (layer F.SilkS) (width 0.1524))
  (fp_poly (pts (xy 6.096 0.254) (xy 6.604 0.254) (xy 6.604 -0.254) (xy 6.096 -0.254)) (layer F.Fab) (width 0))
  (fp_poly (pts (xy 3.556 0.254) (xy 4.064 0.254) (xy 4.064 -0.254) (xy 3.556 -0.254)) (layer F.Fab) (width 0))
  (fp_poly (pts (xy 1.016 0.254) (xy 1.524 0.254) (xy 1.524 -0.254) (xy 1.016 -0.254)) (layer F.Fab) (width 0))
  (fp_poly (pts (xy -1.524 0.254) (xy -1.016 0.254) (xy -1.016 -0.254) (xy -1.524 -0.254)) (layer F.Fab) (width 0))
  (fp_poly (pts (xy -4.064 0.254) (xy -3.556 0.254) (xy -3.556 -0.254) (xy -4.064 -0.254)) (layer F.Fab) (width 0))
  (fp_poly (pts (xy -6.604 0.254) (xy -6.096 0.254) (xy -6.096 -0.254) (xy -6.604 -0.254)) (layer F.Fab) (width 0))
  (fp_poly (pts (xy -9.144 0.254) (xy -8.636 0.254) (xy -8.636 -0.254) (xy -9.144 -0.254)) (layer F.Fab) (width 0))
  (fp_poly (pts (xy 8.636 0.254) (xy 9.144 0.254) (xy 9.144 -0.254) (xy 8.636 -0.254)) (layer F.Fab) (width 0))
  (pad 1 thru_hole oval (at -8.89 0 90) (size 3.048 1.524) (drill 1.016) (layers *.Cu *.Mask)
    (solder_mask_margin 0.1016))
  (pad 2 thru_hole oval (at -6.35 0 90) (size 3.048 1.524) (drill 1.016) (layers *.Cu *.Mask)
    (solder_mask_margin 0.1016))
  (pad 3 thru_hole oval (at -3.81 0 90) (size 3.048 1.524) (drill 1.016) (layers *.Cu *.Mask)
    (solder_mask_margin 0.1016))
  (pad 4 thru_hole oval (at -1.27 0 90) (size 3.048 1.524) (drill 1.016) (layers *.Cu *.Mask)
    (solder_mask_margin 0.1016))
  (pad 5 thru_hole oval (at 1.27 0 90) (size 3.048 1.524) (drill 1.016) (layers *.Cu *.Mask)
    (solder_mask_margin 0.1016))
  (pad 6 thru_hole oval (at 3.81 0 90) (size 3.048 1.524) (drill 1.016) (layers *.Cu *.Mask)
    (solder_mask_margin 0.1016))
  (pad 7 thru_hole oval (at 6.35 0 90) (size 3.048 1.524) (drill 1.016) (layers *.Cu *.Mask)
    (solder_mask_margin 0.1016))
  (pad 8 thru_hole oval (at 8.89 0 90) (size 3.048 1.524) (drill 1.016) (layers *.Cu *.Mask)
    (solder_mask_margin 0.1016))
)
