(module C050-024X044 (layer F.Cu) (tedit 0)
  (descr "<b>CAPACITOR</b><p>\ngrid 5 mm, outline 2.4 x 4.4 mm")
  (fp_text reference C8 (at -2.159 -1.397) (layer F.SilkS)
    (effects (font (size 1.2065 1.2065) (thickness 0.127)) (justify right top))
  )
  (fp_text value 100n (at -2.159 2.667) (layer F.Fab)
    (effects (font (size 1.2065 1.2065) (thickness 0.127)) (justify right top))
  )
  (fp_line (start -2.159 0.635) (end -2.159 -0.635) (layer F.Fab) (width 0.1524))
  (fp_arc (start -1.651 -0.635) (end -2.159 -0.635) (angle 90) (layer F.SilkS) (width 0.1524))
  (fp_arc (start -1.651 0.635) (end -2.159 0.635) (angle -90) (layer F.SilkS) (width 0.1524))
  (fp_line (start 1.651 -1.143) (end -1.651 -1.143) (layer F.SilkS) (width 0.1524))
  (fp_line (start 2.159 0.635) (end 2.159 -0.635) (layer F.Fab) (width 0.1524))
  (fp_line (start 1.651 1.143) (end -1.651 1.143) (layer F.SilkS) (width 0.1524))
  (fp_arc (start 1.651 -0.635) (end 1.651 -1.143) (angle 90) (layer F.SilkS) (width 0.1524))
  (fp_arc (start 1.651 0.635) (end 1.651 1.143) (angle -90) (layer F.SilkS) (width 0.1524))
  (fp_line (start -0.3048 -0.762) (end -0.3048 0) (layer F.SilkS) (width 0.3048))
  (fp_line (start -0.3048 0) (end -0.3048 0.762) (layer F.SilkS) (width 0.3048))
  (fp_line (start 0.3302 -0.762) (end 0.3302 0) (layer F.SilkS) (width 0.3048))
  (fp_line (start 0.3302 0) (end 0.3302 0.762) (layer F.SilkS) (width 0.3048))
  (fp_line (start 1.27 0) (end 0.3302 0) (layer F.SilkS) (width 0.1524))
  (fp_line (start -1.27 0) (end -0.3048 0) (layer F.SilkS) (width 0.1524))
  (fp_poly (pts (xy 2.159 0.381) (xy 2.54 0.381) (xy 2.54 -0.381) (xy 2.159 -0.381)) (layer F.Fab) (width 0))
  (fp_poly (pts (xy -2.54 0.381) (xy -2.159 0.381) (xy -2.159 -0.381) (xy -2.54 -0.381)) (layer F.Fab) (width 0))
  (pad 1 thru_hole circle (at -2.54 0) (size 1.3208 1.3208) (drill 0.8128) (layers *.Cu *.Mask)
    (solder_mask_margin 0.1016))
  (pad 2 thru_hole circle (at 2.54 0) (size 1.3208 1.3208) (drill 0.8128) (layers *.Cu *.Mask)
    (solder_mask_margin 0.1016))
)
