<?xml version="1.0" encoding="UTF-8" standalone="no"?>
<!-- Created with Inkscape (http://www.inkscape.org/) -->

<svg
   xmlns:dc="http://purl.org/dc/elements/1.1/"
   xmlns:cc="http://creativecommons.org/ns#"
   xmlns:rdf="http://www.w3.org/1999/02/22-rdf-syntax-ns#"
   xmlns:svg="http://www.w3.org/2000/svg"
   xmlns="http://www.w3.org/2000/svg"
   xmlns:xlink="http://www.w3.org/1999/xlink"
   xmlns:sodipodi="http://sodipodi.sourceforge.net/DTD/sodipodi-0.dtd"
   xmlns:inkscape="http://www.inkscape.org/namespaces/inkscape"
   width="210mm"
   height="297mm"
   viewBox="0 0 210 297"
   version="1.1"
   id="svg8"
   inkscape:version="0.92.4 (5da689c313, 2019-01-14)"
   sodipodi:docname="block_diag.svg"
   inkscape:export-filename="C:\Users\STZ001\Documents\eagle\wind_station\Docs\pics\block_diag.png"
   inkscape:export-xdpi="400"
   inkscape:export-ydpi="400">
  <defs
     id="defs2">
    <inkscape:path-effect
       effect="bspline"
       id="path-effect5147"
       is_visible="true"
       weight="33.333333"
       steps="2"
       helper_size="0"
       apply_no_weight="true"
       apply_with_weight="true"
       only_selected="false" />
    <inkscape:path-effect
       effect="bspline"
       id="path-effect5919"
       is_visible="true"
       weight="33.333333"
       steps="2"
       helper_size="0"
       apply_no_weight="true"
       apply_with_weight="true"
       only_selected="false" />
    <inkscape:path-effect
       effect="bspline"
       id="path-effect5783"
       is_visible="true"
       weight="33.333333"
       steps="2"
       helper_size="0"
       apply_no_weight="true"
       apply_with_weight="true"
       only_selected="false" />
    <marker
       inkscape:isstock="true"
       style="overflow:visible;"
       id="marker5661"
       refX="0.0"
       refY="0.0"
       orient="auto"
       inkscape:stockid="Arrow1Mend">
      <path
         transform="scale(0.4) rotate(180) translate(10,0)"
         style="fill-rule:evenodd;stroke:#000000;stroke-width:1pt;stroke-opacity:1;fill:#000000;fill-opacity:1"
         d="M 0.0,0.0 L 5.0,-5.0 L -12.5,0.0 L 5.0,5.0 L 0.0,0.0 z "
         id="path5659" />
    </marker>
    <marker
       inkscape:stockid="Arrow1Mend"
       orient="auto"
       refY="0.0"
       refX="0.0"
       id="marker5544"
       style="overflow:visible;"
       inkscape:isstock="true">
      <path
         id="path5542"
         d="M 0.0,0.0 L 5.0,-5.0 L -12.5,0.0 L 5.0,5.0 L 0.0,0.0 z "
         style="fill-rule:evenodd;stroke:#000000;stroke-width:1pt;stroke-opacity:1;fill:#000000;fill-opacity:1"
         transform="scale(0.4) rotate(180) translate(10,0)" />
    </marker>
    <marker
       inkscape:stockid="Arrow1Mend"
       orient="auto"
       refY="0.0"
       refX="0.0"
       id="marker5451"
       style="overflow:visible;"
       inkscape:isstock="true">
      <path
         id="path5449"
         d="M 0.0,0.0 L 5.0,-5.0 L -12.5,0.0 L 5.0,5.0 L 0.0,0.0 z "
         style="fill-rule:evenodd;stroke:#000000;stroke-width:1pt;stroke-opacity:1;fill:#000000;fill-opacity:1"
         transform="scale(0.4) rotate(180) translate(10,0)" />
    </marker>
    <marker
       inkscape:stockid="Arrow1Mend"
       orient="auto"
       refY="0.0"
       refX="0.0"
       id="marker5334"
       style="overflow:visible;"
       inkscape:isstock="true">
      <path
         id="path5332"
         d="M 0.0,0.0 L 5.0,-5.0 L -12.5,0.0 L 5.0,5.0 L 0.0,0.0 z "
         style="fill-rule:evenodd;stroke:#000000;stroke-width:1pt;stroke-opacity:1;fill:#000000;fill-opacity:1"
         transform="scale(0.4) rotate(180) translate(10,0)" />
    </marker>
    <inkscape:path-effect
       effect="bspline"
       id="path-effect5203"
       is_visible="true"
       weight="33.333333"
       steps="2"
       helper_size="0"
       apply_no_weight="true"
       apply_with_weight="true"
       only_selected="false" />
    <inkscape:path-effect
       effect="bspline"
       id="path-effect5188"
       is_visible="true"
       weight="33.333333"
       steps="2"
       helper_size="0"
       apply_no_weight="true"
       apply_with_weight="true"
       only_selected="false" />
    <inkscape:path-effect
       effect="bspline"
       id="path-effect5173"
       is_visible="true"
       weight="33.333333"
       steps="2"
       helper_size="0"
       apply_no_weight="true"
       apply_with_weight="true"
       only_selected="false" />
    <inkscape:path-effect
       effect="bspline"
       id="path-effect5158"
       is_visible="true"
       weight="33.333333"
       steps="2"
       helper_size="0"
       apply_no_weight="true"
       apply_with_weight="true"
       only_selected="false" />
    <marker
       inkscape:isstock="true"
       style="overflow:visible;"
       id="marker5488"
       refX="0.0"
       refY="0.0"
       orient="auto"
       inkscape:stockid="Arrow1Mend"
       inkscape:collect="always">
      <path
         transform="scale(0.4) rotate(180) translate(10,0)"
         style="fill-rule:evenodd;stroke:#000000;stroke-width:1pt;stroke-opacity:1;fill:#000000;fill-opacity:1"
         d="M 0.0,0.0 L 5.0,-5.0 L -12.5,0.0 L 5.0,5.0 L 0.0,0.0 z "
         id="path5486" />
    </marker>
    <marker
       inkscape:stockid="Arrow1Mstart"
       orient="auto"
       refY="0.0"
       refX="0.0"
       id="marker5395"
       style="overflow:visible"
       inkscape:isstock="true">
      <path
         id="path5393"
         d="M 0.0,0.0 L 5.0,-5.0 L -12.5,0.0 L 5.0,5.0 L 0.0,0.0 z "
         style="fill-rule:evenodd;stroke:#000000;stroke-width:1pt;stroke-opacity:1;fill:#000000;fill-opacity:1"
         transform="scale(0.4) translate(10,0)" />
    </marker>
    <marker
       inkscape:stockid="Arrow1Mstart"
       orient="auto"
       refY="0.0"
       refX="0.0"
       id="marker5314"
       style="overflow:visible"
       inkscape:isstock="true">
      <path
         id="path5312"
         d="M 0.0,0.0 L 5.0,-5.0 L -12.5,0.0 L 5.0,5.0 L 0.0,0.0 z "
         style="fill-rule:evenodd;stroke:#000000;stroke-width:1pt;stroke-opacity:1;fill:#000000;fill-opacity:1"
         transform="scale(0.4) translate(10,0)" />
    </marker>
    <marker
       inkscape:isstock="true"
       style="overflow:visible"
       id="marker5083"
       refX="0.0"
       refY="0.0"
       orient="auto"
       inkscape:stockid="Arrow1Mstart"
       inkscape:collect="always">
      <path
         transform="scale(0.4) translate(10,0)"
         style="fill-rule:evenodd;stroke:#000000;stroke-width:1pt;stroke-opacity:1;fill:#000000;fill-opacity:1"
         d="M 0.0,0.0 L 5.0,-5.0 L -12.5,0.0 L 5.0,5.0 L 0.0,0.0 z "
         id="path5081" />
    </marker>
    <marker
       inkscape:isstock="true"
       style="overflow:visible;"
       id="marker5007"
       refX="0.0"
       refY="0.0"
       orient="auto"
       inkscape:stockid="Arrow1Mend"
       inkscape:collect="always">
      <path
         transform="scale(0.4) rotate(180) translate(10,0)"
         style="fill-rule:evenodd;stroke:#000000;stroke-width:1pt;stroke-opacity:1;fill:#000000;fill-opacity:1"
         d="M 0.0,0.0 L 5.0,-5.0 L -12.5,0.0 L 5.0,5.0 L 0.0,0.0 z "
         id="path5005" />
    </marker>
    <marker
       inkscape:stockid="Arrow1Mend"
       orient="auto"
       refY="0.0"
       refX="0.0"
       id="marker12111"
       style="overflow:visible;"
       inkscape:isstock="true"
       inkscape:collect="always">
      <path
         id="path12109"
         d="M 0.0,0.0 L 5.0,-5.0 L -12.5,0.0 L 5.0,5.0 L 0.0,0.0 z "
         style="fill-rule:evenodd;stroke:#000000;stroke-width:1pt;stroke-opacity:1;fill:#000000;fill-opacity:1"
         transform="scale(0.4) rotate(180) translate(10,0)" />
    </marker>
    <marker
       inkscape:stockid="Arrow1Mstart"
       orient="auto"
       refY="0.0"
       refX="0.0"
       id="marker12077"
       style="overflow:visible"
       inkscape:isstock="true"
       inkscape:collect="always">
      <path
         id="path12075"
         d="M 0.0,0.0 L 5.0,-5.0 L -12.5,0.0 L 5.0,5.0 L 0.0,0.0 z "
         style="fill-rule:evenodd;stroke:#000000;stroke-width:1pt;stroke-opacity:1;fill:#000000;fill-opacity:1"
         transform="scale(0.4) translate(10,0)" />
    </marker>
    <marker
       inkscape:stockid="Arrow1Mend"
       orient="auto"
       refY="0.0"
       refX="0.0"
       id="Arrow1Mend"
       style="overflow:visible;"
       inkscape:isstock="true"
       inkscape:collect="always">
      <path
         id="path10543"
         d="M 0.0,0.0 L 5.0,-5.0 L -12.5,0.0 L 5.0,5.0 L 0.0,0.0 z "
         style="fill-rule:evenodd;stroke:#000000;stroke-width:1pt;stroke-opacity:1;fill:#000000;fill-opacity:1"
         transform="scale(0.4) rotate(180) translate(10,0)" />
    </marker>
    <marker
       inkscape:stockid="Arrow1Mstart"
       orient="auto"
       refY="0.0"
       refX="0.0"
       id="Arrow1Mstart"
       style="overflow:visible"
       inkscape:isstock="true">
      <path
         id="path10540"
         d="M 0.0,0.0 L 5.0,-5.0 L -12.5,0.0 L 5.0,5.0 L 0.0,0.0 z "
         style="fill-rule:evenodd;stroke:#000000;stroke-width:1pt;stroke-opacity:1;fill:#000000;fill-opacity:1"
         transform="scale(0.4) translate(10,0)" />
    </marker>
    <symbol
       id="Buffer_Small">
      <title
         id="title3130">Buffer Small</title>
      <path
         style="stroke-width:0.26458332"
         inkscape:connector-curvature="0"
         d="M 9.9778537,10.583333 16.592437,13.229167 9.9778537,15.875 Z"
         id="path3132" />
    </symbol>
    <symbol
       id="AuxillaryOp">
      <title
         id="title2803">Auxiliary Operation</title>
      <desc
         id="desc2805">Offline operation.</desc>
      <rect
         x="9.260417"
         y="9.260417"
         width="21.166666"
         height="21.166666"
         style="stroke-width:0.52916664"
         id="rect2807" />
    </symbol>
    <symbol
       id="Not_Gate_Small">
      <title
         id="title3135">Not Gate Small</title>
      <path
         style="stroke-width:0.26458332"
         inkscape:connector-curvature="0"
         d="m 17.859375,13.229167 c 0,0.365313 -0.296145,0.661458 -0.661458,0.661458 -0.365314,0 -0.661459,-0.296145 -0.661459,-0.661458 0,-0.365314 0.296145,-0.661459 0.661459,-0.661459 0.365313,0 0.661458,0.296145 0.661458,0.661459 z"
         id="path3137" />
      <path
         inkscape:connector-curvature="0"
         d="M 9.9778537,10.583333 16.592437,13.229167 9.9778537,15.875 Z"
         style="stroke-width:0.26458332;stroke-miterlimit:2"
         id="path3139" />
    </symbol>
    <inkscape:path-effect
       effect="bspline"
       id="path-effect5188-3"
       is_visible="true"
       weight="33.333333"
       steps="2"
       helper_size="0"
       apply_no_weight="true"
       apply_with_weight="true"
       only_selected="false" />
    <inkscape:path-effect
       effect="bspline"
       id="path-effect5783-7"
       is_visible="true"
       weight="33.333333"
       steps="2"
       helper_size="0"
       apply_no_weight="true"
       apply_with_weight="true"
       only_selected="false" />
  </defs>
  <sodipodi:namedview
     id="base"
     pagecolor="#ffffff"
     bordercolor="#666666"
     borderopacity="1.0"
     inkscape:pageopacity="0.0"
     inkscape:pageshadow="2"
     inkscape:zoom="0.49497475"
     inkscape:cx="-22.373539"
     inkscape:cy="652.75072"
     inkscape:document-units="mm"
     inkscape:current-layer="layer1"
     showgrid="false"
     inkscape:window-width="1365"
     inkscape:window-height="718"
     inkscape:window-x="1"
     inkscape:window-y="25"
     inkscape:window-maximized="1"
     inkscape:measure-start="0,0"
     inkscape:measure-end="0,0" />
  <metadata
     id="metadata5">
    <rdf:RDF>
      <cc:Work
         rdf:about="">
        <dc:format>image/svg+xml</dc:format>
        <dc:type
           rdf:resource="http://purl.org/dc/dcmitype/StillImage" />
        <dc:title></dc:title>
        <cc:license
           rdf:resource="http://creativecommons.org/licenses/by/4.0/" />
      </cc:Work>
      <cc:License
         rdf:about="http://creativecommons.org/licenses/by/4.0/">
        <cc:permits
           rdf:resource="http://creativecommons.org/ns#Reproduction" />
        <cc:permits
           rdf:resource="http://creativecommons.org/ns#Distribution" />
        <cc:requires
           rdf:resource="http://creativecommons.org/ns#Notice" />
        <cc:requires
           rdf:resource="http://creativecommons.org/ns#Attribution" />
        <cc:permits
           rdf:resource="http://creativecommons.org/ns#DerivativeWorks" />
      </cc:License>
    </rdf:RDF>
  </metadata>
  <g
     inkscape:label="Layer 1"
     inkscape:groupmode="layer"
     id="layer1">
    <path
       style="fill:none;fill-rule:evenodd;stroke:#000000;stroke-width:0.26458332px;stroke-linecap:butt;stroke-linejoin:miter;stroke-opacity:1"
       d="M 51.90594,54.466038 67.694711,54.5133"
       id="path10456"
       inkscape:connector-type="polyline"
       inkscape:connector-curvature="0"
       inkscape:connection-start="#use9066"
       inkscape:connection-end="#g8968-2"
       inkscape:export-xdpi="400"
       inkscape:export-ydpi="400" />
    <g
       style="fill:#ffffff"
       transform="translate(-71.005949,-13.560913)"
       id="g8968-2"
       inkscape:export-xdpi="400"
       inkscape:export-ydpi="400">
      <use
         transform="matrix(2.041127,0,0,1.8390469,114.50811,43.754592)"
         height="100%"
         width="100%"
         y="0"
         x="0"
         xlink:href="#Buffer_Small"
         style="fill:#ffffff;stroke:#000000;stroke-width:2"
         id="use8776-8" />
      <path
         inkscape:connector-curvature="0"
         id="path6308-9"
         d="m 137.41917,69.240534 h 2.56298 v -2.600161 h 1.28149 -2.56298 v 2.600161 z"
         style="fill:#ffffff;fill-rule:evenodd;stroke:#000000;stroke-width:0.40328601;stroke-linecap:round;stroke-linejoin:round;stroke-miterlimit:4;stroke-dasharray:none;stroke-opacity:1" />
    </g>
    <path
       style="fill:none;stroke:#000000;stroke-width:0.25346822;stroke-linecap:butt;stroke-linejoin:miter;stroke-miterlimit:4;stroke-dasharray:none;stroke-opacity:1;marker-start:url(#Arrow1Mstart);marker-end:url(#Arrow1Mend)"
       d="m 104.46228,62.723453 h 12.92149"
       id="path10532"
       inkscape:connector-curvature="0"
       inkscape:export-xdpi="400"
       inkscape:export-ydpi="400" />
    <path
       style="fill:none;stroke:#000000;stroke-width:0.32558653px;stroke-linecap:butt;stroke-linejoin:miter;stroke-opacity:1"
       d="m 164.927,43.635658 h 10.01637"
       id="path11322"
       inkscape:connector-curvature="0"
       inkscape:export-xdpi="400"
       inkscape:export-ydpi="400" />
    <path
       style="fill:none;stroke:#000000;stroke-width:0.76200002;stroke-linecap:butt;stroke-linejoin:miter;stroke-miterlimit:4;stroke-dasharray:none;stroke-opacity:1"
       d="M 133.28692,63.520659 H 150.8599"
       id="path10481"
       inkscape:connector-curvature="0"
       inkscape:export-xdpi="400"
       inkscape:export-ydpi="400" />
    <use
       id="use8497"
       style="fill:#ffffff;stroke:#000000;stroke-width:2"
       xlink:href="#Buffer_Small"
       x="0"
       y="0"
       width="100%"
       height="100%"
       transform="matrix(2.2020204,0,0,2.2589153,130.84708,31.453603)"
       inkscape:export-xdpi="400"
       inkscape:export-ydpi="400" />
    <use
       id="use8497-4"
       style="fill:#ffffff;stroke:#000000;stroke-width:2"
       xlink:href="#Buffer_Small"
       x="0"
       y="0"
       width="100%"
       height="100%"
       transform="matrix(2.2020204,0,0,2.2589153,129.78875,33.617518)"
       inkscape:export-xdpi="400"
       inkscape:export-ydpi="400" />
    <use
       id="use8497-1"
       style="fill:#ffffff;stroke:#000000;stroke-width:2"
       xlink:href="#Buffer_Small"
       x="0"
       y="0"
       width="100%"
       height="100%"
       transform="matrix(2.2020204,0,0,2.2589153,128.71152,35.790881)"
       inkscape:export-xdpi="400"
       inkscape:export-ydpi="400" />
    <path
       style="fill:none;stroke:#000000;stroke-width:0.235;stroke-linecap:butt;stroke-linejoin:miter;stroke-opacity:1;stroke-miterlimit:4;stroke-dasharray:none;marker-end:url(#marker5007)"
       d="M 99.537112,50.43923 H 117.60911"
       id="path10458"
       inkscape:connector-curvature="0"
       inkscape:export-xdpi="400"
       inkscape:export-ydpi="400" />
    <path
       style="fill:none;stroke:#000000;stroke-width:0.26458332px;stroke-linecap:butt;stroke-linejoin:miter;stroke-opacity:1"
       d="m 136.82824,49.945986 h 7.61719 v -6.280832 h 8.75308"
       id="path10479"
       inkscape:connector-curvature="0"
       inkscape:export-xdpi="400"
       inkscape:export-ydpi="400" />
    <use
       id="use8712-5"
       style="fill:#ffffff;stroke:#000000"
       xlink:href="#AuxillaryOp"
       x="0"
       y="0"
       width="100%"
       height="100%"
       transform="matrix(0.89934003,0,0,1.0893224,109.50164,36.06747)"
       inkscape:export-xdpi="400"
       inkscape:export-ydpi="400" />
    <text
       xml:space="preserve"
       style="font-style:normal;font-weight:normal;font-size:4.23333311px;line-height:1.25;font-family:sans-serif;letter-spacing:0px;word-spacing:0px;fill:#000000;fill-opacity:1;stroke:none;stroke-width:0.26458332"
       x="122.43738"
       y="58.939285"
       id="text8994-3"
       inkscape:export-xdpi="400"
       inkscape:export-ydpi="400"><tspan
         sodipodi:role="line"
         id="tspan8992-6"
         x="122.43738"
         y="58.939285"
         style="stroke-width:0.26458332">DAC</tspan></text>
    <text
       xml:space="preserve"
       style="font-style:normal;font-weight:normal;font-size:3.02915478px;line-height:1.25;font-family:sans-serif;letter-spacing:0px;word-spacing:0px;fill:#000000;fill-opacity:1;stroke:none;stroke-width:0.18932217"
       x="104.85119"
       y="50.104309"
       id="text10462"
       transform="scale(1.0207493,0.97967249)"
       inkscape:export-xdpi="400"
       inkscape:export-ydpi="400"><tspan
         sodipodi:role="line"
         id="tspan10460"
         x="104.85119"
         y="50.104309"
         style="stroke-width:0.18932217">Sync</tspan></text>
    <path
       style="fill:none;stroke:#000000;stroke-width:0.13358396px;stroke-linecap:butt;stroke-linejoin:miter;stroke-opacity:1"
       d="m 107.8215,46.404667 h 5.82913"
       id="path10458-6"
       inkscape:connector-curvature="0"
       inkscape:export-xdpi="400"
       inkscape:export-ydpi="400" />
    <use
       id="use9418"
       style="fill:#ffffff;stroke:#000000;stroke-width:2"
       xlink:href="#Buffer_Small"
       x="0"
       y="0"
       width="100%"
       height="100%"
       transform="matrix(1.4986992,0,0,1.6428919,136.48546,21.968946)"
       inkscape:export-xdpi="400"
       inkscape:export-ydpi="400" />
    <g
       style="fill:#ffffff"
       id="g10357"
       transform="matrix(0,-0.82801696,0.82801696,0,82.407797,99.460707)"
       inkscape:export-xdpi="400"
       inkscape:export-ydpi="400">
      <circle
         r="2.0045214"
         cy="97.015572"
         cx="67.415222"
         id="path10338"
         style="opacity:1;fill:#ffffff;fill-opacity:1;stroke:#000000;stroke-width:0.26458332;stroke-miterlimit:4;stroke-dasharray:none;stroke-opacity:1" />
      <circle
         r="2.0045214"
         cy="98.886467"
         cx="67.415222"
         id="path10338-8"
         style="opacity:1;fill:#ffffff;fill-opacity:1;stroke:#000000;stroke-width:0.26458332;stroke-miterlimit:4;stroke-dasharray:none;stroke-opacity:1" />
    </g>
    <text
       xml:space="preserve"
       style="font-style:normal;font-weight:normal;font-size:4.23333311px;line-height:1.25;font-family:sans-serif;letter-spacing:0px;word-spacing:0px;fill:#000000;fill-opacity:1;stroke:none;stroke-width:0.26458332"
       x="107.71085"
       y="62.274593"
       id="text11134"
       inkscape:export-xdpi="400"
       inkscape:export-ydpi="400"><tspan
         sodipodi:role="line"
         id="tspan11132"
         x="107.71085"
         y="62.274593"
         style="stroke-width:0.26458332">I2C</tspan></text>
    <path
       style="fill:none;stroke:#000000;stroke-width:0.762;stroke-linecap:butt;stroke-linejoin:miter;stroke-opacity:1;stroke-miterlimit:4;stroke-dasharray:none"
       d="m 166.32564,63.501083 h 8.80671"
       id="path11324"
       inkscape:connector-curvature="0"
       inkscape:export-xdpi="400"
       inkscape:export-ydpi="400" />
    <text
       xml:space="preserve"
       style="font-style:normal;font-weight:normal;font-size:4.23333311px;line-height:1.25;font-family:sans-serif;letter-spacing:0px;word-spacing:0px;fill:#000000;fill-opacity:1;stroke:none;stroke-width:0.26458332"
       x="170.73839"
       y="40.800842"
       id="text11328"
       inkscape:export-xdpi="400"
       inkscape:export-ydpi="400"><tspan
         sodipodi:role="line"
         id="tspan11326"
         x="170.73839"
         y="40.800842"
         style="stroke-width:0.26458332">mA_out</tspan></text>
    <text
       xml:space="preserve"
       style="font-style:normal;font-weight:normal;font-size:4.23333311px;line-height:1.25;font-family:sans-serif;letter-spacing:0px;word-spacing:0px;fill:#000000;fill-opacity:1;stroke:none;stroke-width:0.26458332"
       x="168.23428"
       y="61.117054"
       id="text11332"
       inkscape:export-xdpi="400"
       inkscape:export-ydpi="400"><tspan
         sodipodi:role="line"
         id="tspan11330"
         x="168.23428"
         y="61.117054"
         style="stroke-width:0.26458332">Synchro_out</tspan></text>
    <text
       xml:space="preserve"
       style="font-style:normal;font-weight:normal;font-size:4.23333311px;line-height:1.25;font-family:sans-serif;text-align:center;letter-spacing:0px;word-spacing:0px;text-anchor:middle;fill:#000000;fill-opacity:1;stroke:none;stroke-width:0.26458332"
       x="165.54602"
       y="74.09922"
       id="text11564"
       inkscape:export-xdpi="400"
       inkscape:export-ydpi="400"><tspan
         sodipodi:role="line"
         id="tspan11562"
         x="166.21988"
         y="74.09922"
         style="text-align:center;text-anchor:middle;stroke-width:0.26458332">3x Amp </tspan><tspan
         sodipodi:role="line"
         x="165.54602"
         y="79.390884"
         style="text-align:center;text-anchor:middle;stroke-width:0.26458332"
         id="tspan11566">Gain=1.6 V/V</tspan></text>
    <text
       xml:space="preserve"
       style="font-style:normal;font-weight:normal;font-size:4.23333311px;line-height:1.25;font-family:sans-serif;letter-spacing:0px;word-spacing:0px;fill:#000000;fill-opacity:1;stroke:none;stroke-width:0.26458332"
       x="148.87985"
       y="37.61694"
       id="text11576"
       inkscape:export-xdpi="400"
       inkscape:export-ydpi="400"><tspan
         sodipodi:role="line"
         id="tspan11574"
         x="148.87985"
         y="37.61694"
         style="stroke-width:0.26458332">2.34m℧</tspan></text>
    <use
       id="use8712-5-6"
       style="fill:#ffffff;stroke:#000000"
       xlink:href="#AuxillaryOp"
       x="0"
       y="0"
       width="100%"
       height="100%"
       transform="matrix(-1.6805891,0,0,0.76185971,127.9967,8.0005262)"
       inkscape:export-xdpi="400"
       inkscape:export-ydpi="400" />
    <use
       height="100%"
       width="100%"
       y="0"
       x="0"
       xlink:href="#Buffer_Small"
       style="fill:none;stroke:#000000;stroke-width:2"
       transform="matrix(0,-0.4139772,-0.51002726,0,96.164147,35.302741)"
       id="use9358"
       inkscape:export-xdpi="400"
       inkscape:export-ydpi="400" />
    <g
       id="g10437"
       transform="translate(-96.508803,-68.603922)"
       inkscape:export-xdpi="400"
       inkscape:export-ydpi="400">
      <g
         transform="translate(2.5152222,-1.1053389)"
         id="g10431">
        <use
           id="use10391"
           style="fill:none;stroke:#000000;stroke-width:2"
           xlink:href="#Not_Gate_Small"
           x="0"
           y="0"
           width="100%"
           height="100%"
           transform="translate(148.31399,140.38073)" />
        <use
           id="use10415"
           style="fill:none;stroke:#000000;stroke-width:2"
           xlink:href="#Not_Gate_Small"
           x="0"
           y="0"
           width="100%"
           height="100%"
           transform="matrix(-1,0,0,1,176.15122,135.24355)" />
      </g>
      <rect
         y="143.55878"
         x="158.26598"
         height="12.75437"
         width="12.963696"
         id="rect10427"
         style="opacity:1;fill:none;fill-opacity:1;stroke:#000000;stroke-width:0.1611345;stroke-miterlimit:4;stroke-dasharray:none;stroke-opacity:1" />
    </g>
    <image
       y="91.890854"
       x="88.714539"
       id="image10447"
       xlink:href="data:image/png;base64,iVBORw0KGgoAAAANSUhEUgAAAj8AAAGQCAYAAABBDgGRAAAABmJLR0QA/wD/AP+gvaeTAAAHHklE QVR4nO3cQWrbUBhG0T8l+7J2ZmVn8sraQTPIINSGtn4y9xzQTJgPbOQLgjcDAAAAAAAAAAAAAAAA AAAAAAAAAAAAAAAAAAAAAAAAAAAAAAAAAAAAAAAAAAAAAAAAAAAAAAAAAAAAAAAAAAAAAAAAAACw zNvqAcBsnxcNx+cFLPK+egAw28xcV4/gqY7VA6Dsx+oBAADPJH4AgBTxAwCkiB8AIEX8AAAp4gcA SBE/AECKc37gNdzG2TCvYJuZy+oRAPAv7DPz8861n/Czea59/E7g9Lz2AgBSxA8AkCJ+AIAU8QMA pIgfACBF/AAAKeIHAEgRPwBAivgBAFLEDwCQIn4AgBTxAwCkiB8AIEX8AAAp4gcASBE/AECK+AEA UsQPAJAifgCAFPEDAKSIHwAgRfwAACniBwBIET8AQIr4AQBSxA8AkCJ+AIAU8QMApIgfACBF/AAA KeIHAEgRPwBAivgBAFLEDwCQIn4AgBTxAwCkiB8AIEX8AAAp4gcASBE/AECK+AEAUsQPAJAifgCA FPEDAKSIHwAgRfwAACniBwBIET8AQIr4AQBSxA8AkCJ+AIAU8QMApIgfACBF/AAAKeIHAEgRPwBA ivgBAFLEDwCQIn4AgBTxAwCkiB8AIEX8AAAp4gcASBE/AECK+AEAUsQPAJAifgCAFPEDAKSIHwAg RfwAACniBwBIET8AQIr4AQBSxA8AkCJ+AIAU8QMApIgfACBF/AAAKeIHAEgRPwBAivgBAFLEDwCQ In4AgBTxAwCkiB8AIEX8AAAp4gcASBE/AECK+AEAUsQPAJAifgCAFPEDAKSIHwAgRfwAACniBwBI ET8AQIr4AQBSxA8AkCJ+AIAU8QMApIgfACBF/AAAKeIHAEgRPwBAivgBAFLEDwCQIn4AgBTxAwCk iB8AIEX8AAAp4gcASBE/AECK+AEAUsQPAJAifgCAFPEDAKSIHwAgRfwAACniBwBIET8AQIr4AQBS xA8AkCJ+AIAU8QMApIgfACBF/AAAKeIHAEgRPwBAivgBAFLEDwCQIn4AgBTxAwCkiB8AIEX8AAAp 4gcASBE/AECK+AEAUsQPAJAifgCAFPEDAKSIHwAgRfwAACniBwBIET8AQIr4AQBSxA8AkCJ+AIAU 8QMApIgfACBF/AAAKeIHAEgRPwBAivgBAFLeVw/4g331APhiWz0AHrCNZyfnsq8e8J0zx8919QCA F3P5vOAs9tUDvuO1FwCQIn4AgBTxAwCkiB8AIEX8AAAp4gcASBE/AEDKmc/5+Vg9AL7YxvkpnN9t Zo7VI+Dszhw/++oB8MU+4ofzO8azE+7y2gsASBE/AECK+AEAUsQPAJAifgCAFPEDAKSIHwAgRfwA ACniBwBIET8AQIr4AQBSxA8AkCJ+AIAU8QMApIgfACBF/AAAKeIHAEgRPwBAivgBAFLEDwCQIn4A gBTxAwCkiB8AIEX8AAAp4gcASBE/AECK+AEAUsQPAJAifgCAFPEDAKSIHwAgRfwAACniBwBIET8A QIr4AQBSxA8AkCJ+AIAU8QMApIgfACBF/AAAKeIHAEgRPwBAivgBAFLEDwCQIn4AgBTxAwCkiB8A IEX8AAAp4gcASBE/AECK+AEAUsQPAJAifgCAFPEDAKSIHwAgRfwAACniBwBIET8AQIr4AQBSxA8A kCJ+AIAU8QMApIgfACBF/AAAKeIHAEgRPwBAivgBAFLEDwCQIn4AgBTxAwCkiB8AIEX8AAAp4gcA SBE/AECK+AEAUsQPAJAifgCAFPEDAKSIHwAgRfwAACniBwBIET8AQIr4AQBSxA8AkCJ+AIAU8QMA pIgfACBF/AAAKeIHAEgRPwBAivgBAFLEDwCQIn4AgBTxAwCkiB8AIEX8AAAp4gcASBE/AECK+AEA UsQPAJAifgCAFPEDAKSIHwAgRfwAACniBwBIET8AQIr4AQBSxA8AkCJ+AIAU8QMApIgfACBF/AAA KeIHAEgRPwBAivgBAFLEDwCQIn4AgBTxAwCkiB8AIEX8AAAp4gcASBE/AECK+AEAUsQPAJAifgCA FPEDAKSIHwAgRfwAACniBwBIET8AQIr4AQBSxA8AkCJ+AIAU8QMApIgfACBF/AAAKeIHAEgRPwBA ivgBAFLEDwCQIn4AgBTxAwCkiB8AIEX8AAAp4gcASBE/AECK+AEAUsQPAJAifgCAFPEDAKSIHwAg RfwAACniBwBIeVs9AJh9Zq537rnNzPHfl/C3tpm53LnnY35/58Ai76sHAA+5zP0/VQAe4LUXAJAi fgCAFPEDAKSIHwAgRfwAACniBwBIET8AQIpzfmC9Y/UAnupYPQAAAAAAAAAAAAAAAAAAAAAAAAAA AAAAAAAAAAAAAAAAAAAAAAAAAAAAAAAAAAAAAAAAAAAAAAAAAAAAAAAAAAAAAAAAAABY5hfTdzqL VKMgGwAAAABJRU5ErkJggg== "
       preserveAspectRatio="none"
       height="8.2826128"
       width="11.906255"
       inkscape:export-xdpi="400"
       inkscape:export-ydpi="400" />
    <use
       id="use9066"
       style="fill:#ffffff;stroke:#000000;stroke-width:2"
       xlink:href="#Not_Gate_Small"
       x="0"
       y="0"
       width="100%"
       height="100%"
       transform="matrix(1.5228256,0,0,1.4810695,30.710318,34.872723)"
       inkscape:export-xdpi="400"
       inkscape:export-ydpi="400" />
    <text
       xml:space="preserve"
       style="font-style:normal;font-weight:normal;font-size:4.23333311px;line-height:1.25;font-family:sans-serif;letter-spacing:0px;word-spacing:0px;fill:#000000;fill-opacity:1;stroke:none;stroke-width:0.26458332"
       x="-44.331074"
       y="88.687401"
       id="text10489"
       transform="rotate(-90)"
       inkscape:export-xdpi="400"
       inkscape:export-ydpi="400"><tspan
         sodipodi:role="line"
         id="tspan10487"
         x="-44.331074"
         y="88.687401"
         style="stroke-width:0.26458332">sCLK</tspan></text>
    <text
       xml:space="preserve"
       style="font-style:normal;font-weight:normal;font-size:4.23333311px;line-height:1.25;font-family:sans-serif;letter-spacing:0px;word-spacing:0px;fill:#000000;fill-opacity:1;stroke:none;stroke-width:0.26458332"
       x="-45.791912"
       y="94.754684"
       id="text10509"
       transform="rotate(-90)"
       inkscape:export-xdpi="400"
       inkscape:export-ydpi="400"><tspan
         sodipodi:role="line"
         id="tspan10507"
         x="-45.791912"
         y="94.754684"
         style="stroke-width:0.26458332">LOAD</tspan></text>
    <text
       xml:space="preserve"
       style="font-style:normal;font-weight:normal;font-size:4.23333311px;line-height:1.25;font-family:sans-serif;letter-spacing:0px;word-spacing:0px;fill:#000000;fill-opacity:1;stroke:none;stroke-width:0.26458332"
       x="-45.862667"
       y="100.63007"
       id="text10515"
       transform="rotate(-90)"
       inkscape:export-xdpi="400"
       inkscape:export-ydpi="400"><tspan
         sodipodi:role="line"
         id="tspan10513"
         x="-45.862667"
         y="100.63007"
         style="stroke-width:0.26458332">DOUT</tspan></text>
    <path
       style="fill:none;stroke:#000000;stroke-width:0.26458332px;stroke-linecap:butt;stroke-linejoin:miter;stroke-opacity:1"
       d="M 85.194303,78.707479 H 74.61097"
       id="path11136"
       inkscape:connector-curvature="0"
       inkscape:export-xdpi="400"
       inkscape:export-ydpi="400" />
    <path
       style="fill:none;stroke:#000000;stroke-width:0.26458332px;stroke-linecap:butt;stroke-linejoin:miter;stroke-opacity:1"
       d="M 74.752713,84.046396 H 85.24155"
       id="path11138"
       inkscape:connector-curvature="0"
       inkscape:export-xdpi="400"
       inkscape:export-ydpi="400" />
    <text
       xml:space="preserve"
       style="font-style:normal;font-weight:normal;font-size:4.23333311px;line-height:1.25;font-family:sans-serif;letter-spacing:0px;word-spacing:0px;fill:#000000;fill-opacity:1;stroke:none;stroke-width:0.26458332"
       x="76.97332"
       y="78.376778"
       id="text11142"
       inkscape:export-xdpi="400"
       inkscape:export-ydpi="400"><tspan
         sodipodi:role="line"
         id="tspan11140"
         x="76.97332"
         y="78.376778"
         style="stroke-width:0.26458332">TX</tspan></text>
    <text
       xml:space="preserve"
       style="font-style:normal;font-weight:normal;font-size:4.23333311px;line-height:1.25;font-family:sans-serif;letter-spacing:0px;word-spacing:0px;fill:#000000;fill-opacity:1;stroke:none;stroke-width:0.26458332"
       x="76.689842"
       y="83.621185"
       id="text11146"
       inkscape:export-xdpi="400"
       inkscape:export-ydpi="400"><tspan
         sodipodi:role="line"
         id="tspan11144"
         x="76.689842"
         y="83.621185"
         style="stroke-width:0.26458332">RX</tspan></text>
    <path
       style="fill:none;stroke:#000000;stroke-width:0.26458332px;stroke-linecap:butt;stroke-linejoin:miter;stroke-opacity:1"
       d="M 61.736158,78.766989 H 51.152825"
       id="path11136-5"
       inkscape:connector-curvature="0"
       inkscape:export-xdpi="400"
       inkscape:export-ydpi="400" />
    <path
       style="fill:none;stroke:#000000;stroke-width:0.26458332px;stroke-linecap:butt;stroke-linejoin:miter;stroke-opacity:1"
       d="M 51.294568,84.105906 H 61.783405"
       id="path11138-5"
       inkscape:connector-curvature="0"
       inkscape:export-xdpi="400"
       inkscape:export-ydpi="400" />
    <text
       xml:space="preserve"
       style="font-style:normal;font-weight:normal;font-size:4.23333311px;line-height:1.25;font-family:sans-serif;letter-spacing:0px;word-spacing:0px;fill:#000000;fill-opacity:1;stroke:none;stroke-width:0.26458332"
       x="53.515175"
       y="78.436272"
       id="text11142-6"
       inkscape:export-xdpi="400"
       inkscape:export-ydpi="400"><tspan
         sodipodi:role="line"
         id="tspan11140-1"
         x="53.515175"
         y="78.436272"
         style="stroke-width:0.26458332">TX</tspan></text>
    <text
       xml:space="preserve"
       style="font-style:normal;font-weight:normal;font-size:4.23333311px;line-height:1.25;font-family:sans-serif;letter-spacing:0px;word-spacing:0px;fill:#000000;fill-opacity:1;stroke:none;stroke-width:0.26458332"
       x="53.231697"
       y="83.680679"
       id="text11146-8"
       inkscape:export-xdpi="400"
       inkscape:export-ydpi="400"><tspan
         sodipodi:role="line"
         id="tspan11144-1"
         x="53.231697"
         y="83.680679"
         style="stroke-width:0.26458332">RX</tspan></text>
    <text
       xml:space="preserve"
       style="font-style:normal;font-weight:normal;font-size:4.23333311px;line-height:1.25;font-family:sans-serif;text-align:center;letter-spacing:0px;word-spacing:0px;text-anchor:middle;fill:#000000;fill-opacity:1;stroke:none;stroke-width:0.26458332"
       x="41.889896"
       y="79.038216"
       id="text11180"
       inkscape:export-xdpi="400"
       inkscape:export-ydpi="400"><tspan
         sodipodi:role="line"
         x="41.889896"
         y="79.038216"
         style="text-align:center;text-anchor:middle;stroke-width:0.26458332"
         id="tspan11182">RS-232</tspan><tspan
         sodipodi:role="line"
         x="41.889896"
         y="84.32988"
         style="text-align:center;text-anchor:middle;stroke-width:0.26458332"
         id="tspan11186">PORT</tspan></text>
    <path
       style="fill:none;stroke:#000000;stroke-width:0.26458332px;stroke-linecap:butt;stroke-linejoin:miter;stroke-opacity:1"
       d="M 89.588278,95.952634 V 89.149073"
       id="path11188"
       inkscape:connector-curvature="0"
       inkscape:export-xdpi="400"
       inkscape:export-ydpi="400" />
    <path
       style="fill:none;stroke:#000000;stroke-width:0.26458332px;stroke-linecap:butt;stroke-linejoin:miter;stroke-opacity:1"
       d="M 99.746387,96.047124 V 88.960083"
       id="path11190"
       inkscape:connector-curvature="0"
       inkscape:export-xdpi="400"
       inkscape:export-ydpi="400" />
    <text
       xml:space="preserve"
       style="font-style:normal;font-weight:normal;font-size:4.23333311px;line-height:1.25;font-family:sans-serif;text-align:center;letter-spacing:0px;word-spacing:0px;text-anchor:middle;fill:#000000;fill-opacity:1;stroke:none;stroke-width:0.26458332"
       x="94.227089"
       y="103.65398"
       id="text11194"
       inkscape:export-xdpi="400"
       inkscape:export-ydpi="400"><tspan
         sodipodi:role="line"
         id="tspan11192"
         x="94.900948"
         y="103.65398"
         style="text-align:center;text-anchor:middle;stroke-width:0.26458332">11.0592 </tspan><tspan
         sodipodi:role="line"
         x="94.227089"
         y="108.94564"
         style="text-align:center;text-anchor:middle;stroke-width:0.26458332"
         id="tspan13331">MHz</tspan></text>
    <text
       xml:space="preserve"
       style="font-style:normal;font-weight:normal;font-size:4.23333311px;line-height:1.25;font-family:sans-serif;letter-spacing:0px;word-spacing:0px;fill:#000000;fill-opacity:1;stroke:none;stroke-width:0.26458332"
       x="24.616838"
       y="16.119501"
       id="text11198"
       inkscape:export-xdpi="400"
       inkscape:export-ydpi="400"><tspan
         sodipodi:role="line"
         id="tspan11196"
         x="24.616838"
         y="16.119501"
         style="stroke-width:0.26458332">DIRECTION </tspan><tspan
         sodipodi:role="line"
         x="24.616838"
         y="21.411169"
         style="stroke-width:0.26458332"
         id="tspan12360">INPUT BUS</tspan></text>
    <path
       style="fill:none;stroke:#000000;stroke-width:0.26458332px;stroke-linecap:butt;stroke-linejoin:miter;stroke-opacity:1"
       d="m 77.369431,54.522736 h 8.132313"
       id="path11236"
       inkscape:connector-curvature="0"
       inkscape:export-xdpi="400"
       inkscape:export-ydpi="400" />
    <path
       style="fill:none;stroke:#000000;stroke-width:0.26458332px;stroke-linecap:butt;stroke-linejoin:miter;stroke-opacity:1"
       d="M 45.945853,54.670884 H 36.457787"
       id="path11238"
       inkscape:connector-curvature="0"
       inkscape:export-xdpi="400"
       inkscape:export-ydpi="400" />
    <text
       xml:space="preserve"
       style="font-style:normal;font-weight:normal;font-size:4.23333311px;line-height:1.25;font-family:sans-serif;text-align:center;letter-spacing:0px;word-spacing:0px;text-anchor:middle;fill:#000000;fill-opacity:1;stroke:none;stroke-width:0.26458332"
       x="29.358635"
       y="53.601807"
       id="text11242"
       inkscape:export-xdpi="400"
       inkscape:export-ydpi="400"><tspan
         sodipodi:role="line"
         id="tspan11240"
         x="29.358635"
         y="53.601807"
         style="text-align:center;text-anchor:middle;stroke-width:0.26458332">SPEED</tspan><tspan
         sodipodi:role="line"
         x="29.358635"
         y="58.893475"
         style="text-align:center;text-anchor:middle;stroke-width:0.26458332"
         id="tspan11244">INPUT</tspan></text>
    <g
       id="g11286"
       transform="translate(-0.55904287,-31.052554)"
       inkscape:export-xdpi="400"
       inkscape:export-ydpi="400">
      <g
         transform="translate(-9.5438988,13.985119)"
         id="g8999">
        <use
           id="use8712"
           style="fill:#ffffff;stroke:#000000"
           xlink:href="#AuxillaryOp"
           x="0"
           y="0"
           width="100%"
           height="100%"
           transform="matrix(0.89101716,0,0,1.9516774,87.089487,46.592982)" />
        <text
           xml:space="preserve"
           style="font-style:normal;font-weight:normal;font-size:4.23333311px;line-height:1.25;font-family:sans-serif;letter-spacing:0px;word-spacing:0px;fill:#000000;fill-opacity:1;stroke:none;stroke-width:0.26458332"
           x="101.86459"
           y="84.104912"
           id="text8994"><tspan
             sodipodi:role="line"
             id="tspan8992"
             x="101.86459"
             y="84.104912"
             style="stroke-width:0.26458332">µC</tspan></text>
      </g>
      <use
         transform="matrix(0.31365814,0,0,0.47905692,82.861742,79.285629)"
         height="100%"
         width="100%"
         y="0"
         x="0"
         xlink:href="#Buffer_Small"
         style="fill:#ffffff;stroke:#000000;stroke-width:2"
         id="use11270" />
    </g>
    <text
       xml:space="preserve"
       style="font-style:normal;font-weight:normal;font-size:2.47988963px;line-height:1.25;font-family:sans-serif;letter-spacing:0px;word-spacing:0px;fill:#000000;fill-opacity:1;stroke:none;stroke-width:0.1549931"
       x="74.888748"
       y="54.264523"
       id="text11290"
       transform="scale(1.0138887,0.98630155)"
       inkscape:export-xdpi="400"
       inkscape:export-ydpi="400"><tspan
         sodipodi:role="line"
         x="74.888748"
         y="54.264523"
         style="stroke-width:0.1549931"
         id="tspan11292">TMR1G</tspan></text>
    <path
       style="fill:none;stroke:#000000;stroke-width:0.26458332px;stroke-linecap:butt;stroke-linejoin:miter;stroke-opacity:1;marker-start:;marker-end:url(#marker5488)"
       d="m 141.33382,23.073187 h -8.12649"
       id="path11306"
       inkscape:connector-curvature="0"
       inkscape:export-xdpi="400"
       inkscape:export-ydpi="400" />
    <g
       id="g11234"
       transform="translate(99.126928,-23.301737)"
       inkscape:export-xdpi="400"
       inkscape:export-ydpi="400">
      <use
         transform="matrix(0.89101716,0,0,0.71062181,33.233723,32.371715)"
         height="100%"
         width="100%"
         y="0"
         x="0"
         xlink:href="#AuxillaryOp"
         style="fill:#ffffff;stroke:#000000"
         id="use8712-1" />
      <text
         id="text8994-8"
         y="45.368275"
         x="50.769115"
         style="font-style:normal;font-weight:normal;font-size:4.23333311px;line-height:1.25;font-family:sans-serif;text-align:center;letter-spacing:0px;word-spacing:0px;text-anchor:middle;fill:#000000;fill-opacity:1;stroke:none;stroke-width:0.26458332"
         xml:space="preserve"><tspan
           style="text-align:center;text-anchor:middle;stroke-width:0.26458332"
           y="45.368275"
           x="50.769115"
           id="tspan8992-69"
           sodipodi:role="line">POWER</tspan><tspan
           style="text-align:center;text-anchor:middle;stroke-width:0.26458332"
           y="50.659943"
           x="50.769115"
           sodipodi:role="line"
           id="tspan11224">SUPPLY</tspan></text>
    </g>
    <path
       style="fill:none;stroke:#000000;stroke-width:0.25678357px;stroke-linecap:butt;stroke-linejoin:miter;stroke-opacity:1;marker-start:url(#marker5083)"
       d="m 160.01461,22.770805 h 8.72248"
       id="path11308"
       inkscape:connector-curvature="0"
       inkscape:export-xdpi="400"
       inkscape:export-ydpi="400" />
    <text
       xml:space="preserve"
       style="font-style:normal;font-weight:normal;font-size:4.23333311px;line-height:1.25;font-family:sans-serif;letter-spacing:0px;word-spacing:0px;fill:#000000;fill-opacity:1;stroke:none;stroke-width:0.26458332"
       x="133.51657"
       y="22.004107"
       id="text11312"
       inkscape:export-xdpi="400"
       inkscape:export-ydpi="400"><tspan
         sodipodi:role="line"
         id="tspan11310"
         x="133.51657"
         y="22.004107"
         style="stroke-width:0.26458332">5V </tspan></text>
    <text
       xml:space="preserve"
       style="font-style:normal;font-weight:normal;font-size:4.23333311px;line-height:1.25;font-family:sans-serif;letter-spacing:0px;word-spacing:0px;fill:#000000;fill-opacity:1;stroke:none;stroke-width:0.26458332"
       x="169.25432"
       y="19.689003"
       id="text11316"
       inkscape:export-xdpi="400"
       inkscape:export-ydpi="400"><tspan
         sodipodi:role="line"
         id="tspan11314"
         x="169.25432"
         y="19.689003"
         style="stroke-width:0.26458332">DC</tspan><tspan
         sodipodi:role="line"
         x="169.25432"
         y="24.980669"
         style="stroke-width:0.26458332"
         id="tspan11318">or</tspan><tspan
         sodipodi:role="line"
         x="169.25432"
         y="30.272335"
         style="stroke-width:0.26458332"
         id="tspan11320">AC</tspan></text>
    <rect
       style="opacity:1;fill:none;fill-opacity:1;stroke:#000000;stroke-width:0.22868232;stroke-miterlimit:4;stroke-dasharray:none;stroke-opacity:1"
       id="rect11446"
       width="176.1665"
       height="106.40917"
       x="20.561802"
       y="8.0636902"
       inkscape:export-xdpi="400"
       inkscape:export-ydpi="400" />
    <text
       xml:space="preserve"
       style="font-style:normal;font-weight:normal;font-size:3.87179542px;line-height:1.25;font-family:sans-serif;text-align:center;letter-spacing:0px;word-spacing:0px;text-anchor:middle;fill:#000000;fill-opacity:1;stroke:none;stroke-width:0.24198721"
       x="94.764801"
       y="21.406067"
       id="text8994-3-9"
       inkscape:export-xdpi="400"
       inkscape:export-ydpi="400"><tspan
         sodipodi:role="line"
         id="tspan8992-6-1"
         x="94.764801"
         y="21.406067"
         style="text-align:center;text-anchor:middle;stroke-width:0.24198721">Parallel to Serial</tspan><tspan
         id="tspan9295"
         sodipodi:role="line"
         x="94.764801"
         y="26.245811"
         style="text-align:center;text-anchor:middle;stroke-width:0.24198721">Shift Register</tspan></text>
    <path
       style="fill:none;stroke:#000000;stroke-width:0.762;stroke-linecap:butt;stroke-linejoin:miter;stroke-opacity:1;stroke-miterlimit:4;stroke-dasharray:none"
       d="M 64.765219,23.071365 H 76.482482"
       id="path10483"
       inkscape:connector-curvature="0"
       inkscape:export-xdpi="400"
       inkscape:export-ydpi="400" />
    <path
       style="fill:none;stroke:#000000;stroke-width:0.762;stroke-linecap:butt;stroke-linejoin:miter;stroke-opacity:1;stroke-miterlimit:4;stroke-dasharray:none"
       d="M 45.055209,23.033858 H 56.772472"
       id="path10483-1"
       inkscape:connector-curvature="0"
       inkscape:export-xdpi="400"
       inkscape:export-ydpi="400" />
    <g
       id="g9038"
       transform="translate(-89.695107,-40.42347)"
       style="fill:#ffffff"
       inkscape:export-xdpi="400"
       inkscape:export-ydpi="400">
      <use
         transform="matrix(2.041127,0,0,1.8390469,125.04317,37.391788)"
         height="100%"
         width="100%"
         y="0"
         x="0"
         xlink:href="#Buffer_Small"
         style="fill:#ffffff;stroke:#000000;stroke-width:2"
         id="use8776-0-6" />
      <use
         transform="matrix(2.041127,0,0,1.8390469,123.50511,38.987162)"
         height="100%"
         width="100%"
         y="0"
         x="0"
         xlink:href="#Buffer_Small"
         style="fill:#ffffff;stroke:#000000;stroke-width:2"
         id="use8776-0" />
      <g
         id="g8968"
         transform="translate(7.7669147,-3.1830435)"
         style="fill:#ffffff">
        <use
           id="use8776"
           style="fill:#ffffff;stroke:#000000;stroke-width:2"
           xlink:href="#Buffer_Small"
           x="0"
           y="0"
           width="100%"
           height="100%"
           transform="matrix(2.041127,0,0,1.8390469,114.50811,43.754592)" />
        <path
           style="fill:#ffffff;fill-rule:evenodd;stroke:#000000;stroke-width:0.40328601;stroke-linecap:round;stroke-linejoin:round;stroke-miterlimit:4;stroke-dasharray:none;stroke-opacity:1"
           d="m 137.41917,69.240534 h 2.56298 v -2.600161 h 1.28149 -2.56298 v 2.600161 z"
           id="path6308"
           inkscape:connector-curvature="0" />
      </g>
    </g>
    <text
       xml:space="preserve"
       style="font-style:normal;font-weight:normal;font-size:4.23333311px;line-height:1.25;font-family:sans-serif;letter-spacing:0px;word-spacing:0px;fill:#000000;fill-opacity:1;stroke:none;stroke-width:0.26458332"
       x="58.304836"
       y="15.887031"
       id="text11570"
       inkscape:export-xdpi="400"
       inkscape:export-ydpi="400"><tspan
         sodipodi:role="line"
         id="tspan11568"
         x="58.304836"
         y="15.887031"
         style="stroke-width:0.26458332">x8</tspan><tspan
         sodipodi:role="line"
         x="58.304836"
         y="21.178698"
         style="stroke-width:0.26458332"
         id="tspan11572" /></text>
    <flowRoot
       xml:space="preserve"
       id="flowRoot11578"
       style="fill:black;fill-opacity:1;stroke:none;font-family:sans-serif;font-style:normal;font-weight:normal;font-size:16px;line-height:1.25;letter-spacing:0px;word-spacing:0px"><flowRegion
         id="flowRegion11580"><rect
           id="rect11582"
           width="59.598999"
           height="66.670067"
           x="775.79718"
           y="356.82407" /></flowRegion><flowPara
         id="flowPara11584" /></flowRoot>    <path
       style="fill:none;stroke:#000000;stroke-width:0.31866047px;stroke-linecap:butt;stroke-linejoin:miter;stroke-opacity:1"
       d="M 89.334839,31.325818 V 47.754042"
       id="path12067"
       inkscape:connector-curvature="0"
       inkscape:export-xdpi="400"
       inkscape:export-ydpi="400" />
    <path
       style="fill:none;stroke:#000000;stroke-width:0.31382009;stroke-linecap:butt;stroke-linejoin:miter;stroke-miterlimit:4;stroke-dasharray:none;stroke-opacity:1;marker-start:url(#marker12077)"
       d="M 95.281585,31.891244 V 47.620409"
       id="path12071"
       inkscape:connector-curvature="0"
       inkscape:export-xdpi="400"
       inkscape:export-ydpi="400" />
    <path
       style="fill:none;stroke:#000000;stroke-width:0.31024164px;stroke-linecap:butt;stroke-linejoin:miter;stroke-opacity:1;marker-end:url(#marker12111)"
       d="M 101.69605,31.163274 V 46.551183"
       id="path12073"
       inkscape:connector-curvature="0"
       inkscape:export-xdpi="400"
       inkscape:export-ydpi="400" />
    <g
       id="g5154"
       inkscape:export-xdpi="400"
       inkscape:export-ydpi="400">
      <g
         id="g5109">
        <use
           id="use12536"
           style="fill:none;stroke:#000000;stroke-width:2"
           xlink:href="#Not_Gate_Small"
           x="0"
           y="0"
           width="100%"
           height="100%"
           transform="translate(99.951949,62.076722)"
           inkscape:export-xdpi="400"
           inkscape:export-ydpi="400" />
        <path
           style="fill:none;stroke:#000000;stroke-width:0.20857297px;stroke-linecap:butt;stroke-linejoin:miter;stroke-opacity:1"
           d="m 109.91459,75.342902 h -5.81311"
           id="path13333"
           inkscape:connector-curvature="0"
           inkscape:export-xdpi="400"
           inkscape:export-ydpi="400" />
        <text
           xml:space="preserve"
           style="font-style:normal;font-weight:normal;font-size:2.43823123px;line-height:1.25;font-family:sans-serif;text-align:center;letter-spacing:0px;word-spacing:0px;text-anchor:middle;fill:#000000;fill-opacity:1;stroke:none;stroke-width:0.15238945"
           x="140.70735"
           y="101.67302"
           id="text13337"
           inkscape:export-xdpi="400"
           inkscape:export-ydpi="400"><tspan
             sodipodi:role="line"
             id="tspan13335"
             x="141.09547"
             y="101.67302"
             style="text-align:center;text-anchor:middle;stroke-width:0.15238945">Range </tspan><tspan
             sodipodi:role="line"
             x="141.09547"
             y="104.72081"
             style="text-align:center;text-anchor:middle;stroke-width:0.15238945"
             id="tspan13405">indicator </tspan></text>
        <g
           id="g13395"
           transform="translate(-0.70275698,-7.4405679)"
           inkscape:export-xdpi="400"
           inkscape:export-ydpi="400">
          <g
             transform="matrix(0.54844418,0,0,0.54844418,19.374248,90.668523)"
             id="g13291">
            <g
               style="display:inline"
               id="g4007"
               transform="matrix(0,0.52916666,-0.52916666,0,309.75461,-87.090207)">
              <path
                 sodipodi:nodetypes="ccccccccc"
                 d="m 212.59842,178.84396 h -3.54331 c -0.021,-8.23279 -7.10766,-8.23279 -7.09714,0 -0.0105,-8.2328 -7.09713,-8.2328 -7.07622,-0.0293 -1.3e-4,-8.26204 -7.08675,-8.26204 -7.06557,0 1.4e-4,-8.20354 -7.08648,-8.20354 -7.097,0.0293 -0.0316,-8.23279 -0.0105,0 -0.0105,0 -0.021,-8.23279 -7.10766,-8.23279 -7.10766,0 h -3.52226"
                 style="fill:none;stroke:#000000;stroke-width:1.77165353;stroke-linecap:square;stroke-linejoin:round;stroke-miterlimit:4;stroke-dasharray:none;stroke-opacity:1"
                 id="path4009"
                 inkscape:connector-curvature="0" />
              <path
                 id="path4011"
                 d="m 173.62576,168.18895 35.42944,0.10932"
                 style="fill:none;stroke:#000000;stroke-width:2.60000086;stroke-linecap:butt;stroke-linejoin:miter;stroke-miterlimit:4;stroke-dasharray:none;stroke-dashoffset:0;stroke-opacity:1"
                 inkscape:connector-curvature="0" />
            </g>
            <g
               transform="matrix(0,0.0713018,-0.0713018,0,230.03425,2.6120988)"
               id="layer1-0"
               style="stroke-width:13.31956863;stroke-miterlimit:4;stroke-dasharray:none">
              <g
                 transform="translate(-9.449579,-154.724)"
                 id="g3070"
                 style="stroke-width:13.31956863;stroke-miterlimit:4;stroke-dasharray:none">
                <path
                   inkscape:connector-curvature="0"
                   d="m 242.85714,269.50504 a 34.285715,34.285715 0 1 1 -68.57143,0 34.285715,34.285715 0 1 1 68.57143,0 z"
                   transform="matrix(0.558077,0,0,0.558077,14.06064,70.25447)"
                   style="fill:#ffffff;fill-opacity:1;fill-rule:evenodd;stroke:#000000;stroke-width:23.56007195;stroke-linecap:butt;stroke-linejoin:miter;stroke-miterlimit:4;stroke-dasharray:none;stroke-dashoffset:0;stroke-opacity:1"
                   id="path1307" />
                <path
                   inkscape:connector-curvature="0"
                   d="m 238.21281,220.65917 h 93.1246"
                   style="color:#000000;display:inline;overflow:visible;visibility:visible;fill:none;stroke:#000000;stroke-width:13.14833546;stroke-linecap:butt;stroke-linejoin:round;stroke-miterlimit:4;stroke-dasharray:none;stroke-dashoffset:0;stroke-opacity:1;marker:none"
                   id="path2184" />
                <path
                   inkscape:connector-curvature="0"
                   d="M 11.472093,220.65917 H 108.54829"
                   style="color:#000000;display:inline;overflow:visible;visibility:visible;fill:none;stroke:#000000;stroke-width:13.14833546;stroke-linecap:butt;stroke-linejoin:round;stroke-miterlimit:4;stroke-dasharray:none;stroke-dashoffset:0;stroke-opacity:1;marker:none"
                   id="path3059"
                   sodipodi:nodetypes="cc" />
                <path
                   inkscape:connector-curvature="0"
                   d="m 130.36418,162.78665 93.51114,61.20986"
                   style="color:#000000;display:inline;overflow:visible;visibility:visible;fill:none;stroke:#000000;stroke-width:13.14833546;stroke-linecap:butt;stroke-linejoin:round;stroke-miterlimit:4;stroke-dasharray:none;stroke-dashoffset:0;stroke-opacity:1;marker:none"
                   id="path3061" />
                <path
                   inkscape:connector-curvature="0"
                   d="m 242.85714,269.50504 a 34.285715,34.285715 0 1 1 -68.57143,0 34.285715,34.285715 0 1 1 68.57143,0 z"
                   transform="matrix(0.558077,0,0,0.558077,102.3219,70.25447)"
                   style="fill:#ffffff;fill-opacity:1;fill-rule:evenodd;stroke:#000000;stroke-width:23.56007385;stroke-linecap:butt;stroke-linejoin:miter;stroke-miterlimit:4;stroke-dasharray:none;stroke-dashoffset:0;stroke-opacity:1"
                   id="path2182" />
              </g>
            </g>
          </g>
          <rect
             y="91.002014"
             x="135.23837"
             height="14.967093"
             width="11.693042"
             id="rect13339"
             style="opacity:1;fill:none;fill-opacity:1;stroke:#000000;stroke-width:0.32100001;stroke-miterlimit:4;stroke-dasharray:none;stroke-opacity:1" />
        </g>
        <g
           id="g13363"
           transform="translate(2.7395127,-10.578117)"
           inkscape:export-xdpi="400"
           inkscape:export-ydpi="400">
          <g
             transform="matrix(-0.53815799,0,0,0.53815799,269.79472,81.363722)"
             id="g13307">
            <g
               style="stroke-width:12.64237881;stroke-miterlimit:4;stroke-dasharray:none"
               id="layer1-7"
               transform="matrix(0,0.07415535,-0.07415535,0,285.09995,26.219651)">
              <g
                 style="stroke-width:12.64237881;stroke-miterlimit:4;stroke-dasharray:none"
                 id="g3108"
                 transform="translate(-8.189903,-47.8677)">
                <path
                   id="path1307-4"
                   style="fill:#ffffff;fill-opacity:1;fill-rule:evenodd;stroke:#000000;stroke-width:22.65346527;stroke-linecap:butt;stroke-linejoin:miter;stroke-miterlimit:4;stroke-dasharray:none;stroke-dashoffset:0;stroke-opacity:1"
                   transform="matrix(0.558077,0,0,0.558077,12.19143,-75.54353)"
                   d="m 242.85714,269.50504 a 34.285715,34.285715 0 1 1 -68.57143,0 34.285715,34.285715 0 1 1 68.57143,0 z"
                   inkscape:connector-curvature="0" />
                <path
                   id="path3059-9"
                   style="color:#000000;display:inline;overflow:visible;visibility:visible;fill:none;stroke:#000000;stroke-width:12.64237881;stroke-linecap:butt;stroke-linejoin:round;stroke-miterlimit:4;stroke-dasharray:none;stroke-dashoffset:0;stroke-opacity:1;marker:none"
                   d="M 14.079392,74.86117 H 107.20401"
                   inkscape:connector-curvature="0" />
              </g>
              <path
                 id="path3061-4"
                 style="color:#000000;display:inline;overflow:visible;visibility:visible;fill:none;stroke:#000000;stroke-width:12.64237881;stroke-linecap:butt;stroke-linejoin:round;stroke-miterlimit:4;stroke-dasharray:none;stroke-dashoffset:0;stroke-opacity:1;marker:none"
                 d="m 111.7158,49.239797 101.888,29.6419"
                 inkscape:connector-curvature="0" />
              <g
                 style="stroke-width:12.64237881;stroke-miterlimit:4;stroke-dasharray:none"
                 id="g3100"
                 transform="translate(-8.189903,-49.737)">
                <path
                   id="path2184-2"
                   style="color:#000000;display:inline;overflow:visible;visibility:visible;fill:none;stroke:#000000;stroke-width:12.64237881;stroke-linecap:butt;stroke-linejoin:round;stroke-miterlimit:4;stroke-dasharray:none;stroke-dashoffset:0;stroke-opacity:1;marker:none"
                   d="M 236.34361,127.1989 H 329.4682"
                   inkscape:connector-curvature="0" />
                <path
                   id="path2182-9"
                   style="fill:#ffffff;fill-opacity:1;fill-rule:evenodd;stroke:#000000;stroke-width:22.65346527;stroke-linecap:butt;stroke-linejoin:miter;stroke-miterlimit:4;stroke-dasharray:none;stroke-dashoffset:0;stroke-opacity:1"
                   transform="matrix(0.558077,0,0,0.558077,100.4527,-23.2058)"
                   d="m 242.85714,269.50504 a 34.285715,34.285715 0 1 1 -68.57143,0 34.285715,34.285715 0 1 1 68.57143,0 z"
                   inkscape:connector-curvature="0" />
              </g>
              <g
                 style="stroke-width:12.64237881;stroke-miterlimit:4;stroke-dasharray:none"
                 id="g3104"
                 transform="translate(-8.189903,-47.8677)">
                <path
                   id="path3096"
                   style="fill:#ffffff;fill-opacity:1;fill-rule:evenodd;stroke:#000000;stroke-width:22.65346527;stroke-linecap:butt;stroke-linejoin:miter;stroke-miterlimit:4;stroke-dasharray:none;stroke-dashoffset:0;stroke-opacity:1"
                   transform="matrix(0.558077,0,0,0.558077,12.19143,25.39352)"
                   d="m 242.85714,269.50504 a 34.285715,34.285715 0 1 1 -68.57143,0 34.285715,34.285715 0 1 1 68.57143,0 z"
                   inkscape:connector-curvature="0" />
                <path
                   id="path3098"
                   style="color:#000000;display:inline;overflow:visible;visibility:visible;fill:none;stroke:#000000;stroke-width:12.64237881;stroke-linecap:butt;stroke-linejoin:round;stroke-miterlimit:4;stroke-dasharray:none;stroke-dashoffset:0;stroke-opacity:1;marker:none"
                   d="M 14.079392,175.79822 H 107.20401"
                   inkscape:connector-curvature="0" />
              </g>
            </g>
            <g
               style="display:inline"
               id="g4007-3"
               transform="matrix(0,0.52916666,-0.52916666,0,360.45106,-62.899729)">
              <path
                 sodipodi:nodetypes="ccccccccc"
                 d="m 212.59842,178.84396 h -3.54331 c -0.021,-8.23279 -7.10766,-8.23279 -7.09714,0 -0.0105,-8.2328 -7.09713,-8.2328 -7.07622,-0.0293 -1.3e-4,-8.26204 -7.08675,-8.26204 -7.06557,0 1.4e-4,-8.20354 -7.08648,-8.20354 -7.097,0.0293 -0.0316,-8.23279 -0.0105,0 -0.0105,0 -0.021,-8.23279 -7.10766,-8.23279 -7.10766,0 h -3.52226"
                 style="fill:none;stroke:#000000;stroke-width:1.77165353;stroke-linecap:square;stroke-linejoin:round;stroke-miterlimit:4;stroke-dasharray:none;stroke-opacity:1"
                 id="path4009-3"
                 inkscape:connector-curvature="0" />
              <path
                 id="path4011-2"
                 d="m 173.62576,168.18895 35.42944,0.10932"
                 style="fill:none;stroke:#000000;stroke-width:2.60000086;stroke-linecap:butt;stroke-linejoin:miter;stroke-miterlimit:4;stroke-dasharray:none;stroke-dashoffset:0;stroke-opacity:1"
                 inkscape:connector-curvature="0" />
            </g>
          </g>
          <g
             id="g13344">
            <rect
               style="opacity:1;fill:none;fill-opacity:1;stroke:#000000;stroke-width:0.28859085;stroke-miterlimit:4;stroke-dasharray:none;stroke-opacity:1"
               id="rect13341"
               width="12.784989"
               height="14.71001"
               x="115.64024"
               y="94.268105" />
          </g>
        </g>
        <text
           xml:space="preserve"
           style="font-style:normal;font-weight:normal;font-size:2.43823123px;line-height:1.25;font-family:sans-serif;text-align:center;letter-spacing:0px;word-spacing:0px;text-anchor:middle;fill:#000000;fill-opacity:1;stroke:none;stroke-width:0.15238945"
           x="124.58728"
           y="101.61536"
           id="text13337-3"
           inkscape:export-xdpi="400"
           inkscape:export-ydpi="400"><tspan
             sodipodi:role="line"
             id="tspan13335-7"
             x="124.9754"
             y="101.61536"
             style="text-align:center;text-anchor:middle;stroke-width:0.15238945">Range </tspan><tspan
             sodipodi:role="line"
             x="124.9754"
             y="104.66315"
             style="text-align:center;text-anchor:middle;stroke-width:0.15238945"
             id="tspan13403">Switch </tspan></text>
        <path
           style="fill:none;stroke:#000000;stroke-width:0.2672888px;stroke-linecap:butt;stroke-linejoin:miter;stroke-opacity:1"
           d="M 124.49591,83.604088 V 75.310556"
           id="path13397"
           inkscape:connector-curvature="0"
           inkscape:export-xdpi="400"
           inkscape:export-ydpi="400" />
        <path
           style="fill:none;stroke:#000000;stroke-width:0.26458332px;stroke-linecap:butt;stroke-linejoin:miter;stroke-opacity:1"
           d="m 117.81132,75.305887 h 6.71957 16.07625 v 8.250955"
           id="path13399"
           inkscape:connector-curvature="0"
           inkscape:export-xdpi="400"
           inkscape:export-ydpi="400" />
      </g>
      <circle
         inkscape:export-ydpi="400"
         inkscape:export-xdpi="400"
         r="0.25806686"
         cy="75.300423"
         cx="124.4959"
         id="path13401"
         style="opacity:1;fill:none;fill-opacity:1;stroke:#000000;stroke-width:0.5844422;stroke-miterlimit:4;stroke-dasharray:none;stroke-opacity:1" />
    </g>
    <text
       xml:space="preserve"
       style="font-style:normal;font-weight:normal;font-size:2.45917034px;line-height:1.25;font-family:sans-serif;text-align:center;letter-spacing:0px;word-spacing:0px;text-anchor:middle;fill:#000000;fill-opacity:1;stroke:none;stroke-width:0.15369815"
       x="68.101364"
       y="90.316475"
       id="text13409"
       inkscape:export-xdpi="400"
       inkscape:export-ydpi="400"><tspan
         sodipodi:role="line"
         id="tspan13407"
         x="68.492813"
         y="90.316475"
         style="text-align:center;text-anchor:middle;stroke-width:0.15369815">Level </tspan><tspan
         sodipodi:role="line"
         x="68.492813"
         y="93.390434"
         style="text-align:center;text-anchor:middle;stroke-width:0.15369815"
         id="tspan13411">Shifter </tspan></text>
    <g
       id="g5909"
       transform="translate(-49.51488,-8.2965772)"
       inkscape:export-xdpi="400"
       inkscape:export-ydpi="400">
      <path
         transform="translate(-4.836689,-0.23623512)"
         inkscape:original-d="m 163.3802,95.160715 h -1.98437 l 1.0491,1.817089 z"
         inkscape:path-effect="#path-effect5158"
         inkscape:connector-curvature="0"
         id="path5156"
         d="m 163.3802,95.160715 c 0,0 -1.98437,0 -1.98437,0 0,0 1.0491,1.817089 1.0491,1.817089 0,0 0.93527,-1.817089 0.93527,-1.817089 z"
         style="fill:none;stroke:#000000;stroke-width:0.26458332px;stroke-linecap:butt;stroke-linejoin:miter;stroke-opacity:1" />
      <path
         transform="translate(-4.7955729,-0.23623512)"
         inkscape:original-d="m 161.04148,97.192337 h 2.59858"
         inkscape:path-effect="#path-effect5173"
         inkscape:connector-curvature="0"
         id="path5171"
         d="m 161.04148,97.192337 c 0,0 2.59858,0 2.59858,0"
         style="fill:none;stroke:#000000;stroke-width:0.26458332px;stroke-linecap:butt;stroke-linejoin:miter;stroke-opacity:1" />
      <path
         transform="translate(0.51263207,-0.52916667)"
         inkscape:original-d="m 158.49014,95.822173 h 1.13392"
         inkscape:path-effect="#path-effect5188"
         inkscape:connector-curvature="0"
         id="path5186"
         d="m 158.49014,95.822173 c 0,0 1.13392,0 1.13392,0"
         style="fill:none;stroke:#000000;stroke-width:0.25400001;stroke-linecap:butt;stroke-linejoin:miter;stroke-miterlimit:0.1;stroke-dasharray:none;stroke-opacity:1" />
      <path
         transform="translate(0.51263207,0.49609582)"
         inkscape:original-d="m 158.49014,95.822173 h 1.13392"
         inkscape:path-effect="#path-effect5188-3"
         inkscape:connector-curvature="0"
         id="path5186-6"
         d="m 158.49014,95.822173 c 0,0 1.13392,0 1.13392,0"
         style="fill:none;stroke:#000000;stroke-width:0.25400001;stroke-linecap:butt;stroke-linejoin:miter;stroke-miterlimit:0.1;stroke-dasharray:none;stroke-opacity:1" />
      <path
         transform="translate(-0.27285793,0.00826733)"
         inkscape:original-d="m 159.95479,94.829986 0.45476,0.454753 -0.39569,0.395694"
         inkscape:path-effect="#path-effect5783"
         inkscape:connector-curvature="0"
         id="path5781"
         d="m 159.95479,94.829986 c 0,0 0.45476,0.454753 0.45476,0.454753 0,0 -0.39569,0.395694 -0.39569,0.395694"
         style="fill:none;stroke:#000000;stroke-width:0.26458332px;stroke-linecap:butt;stroke-linejoin:miter;stroke-opacity:1" />
      <path
         inkscape:original-d="m 159.95479,94.829986 0.45476,0.454753 -0.39569,0.395694"
         inkscape:path-effect="#path-effect5783-7"
         inkscape:connector-curvature="0"
         id="path5781-5"
         d="m 159.95479,94.829986 c 0,0 0.45476,0.454753 0.45476,0.454753 0,0 -0.39569,0.395694 -0.39569,0.395694"
         style="fill:none;stroke:#000000;stroke-width:0.26458332px;stroke-linecap:butt;stroke-linejoin:miter;stroke-opacity:1"
         transform="translate(-0.27285793,1.0335298)" />
    </g>
    <text
       xml:space="preserve"
       style="font-style:normal;font-weight:normal;font-size:1.7844162px;line-height:1.25;font-family:sans-serif;text-align:center;letter-spacing:0px;word-spacing:0px;text-anchor:middle;fill:#000000;fill-opacity:1;stroke:none;stroke-width:0.0446104"
       x="108.72795"
       y="91.37513"
       id="text5913"
       inkscape:export-xdpi="400"
       inkscape:export-ydpi="400"><tspan
         sodipodi:role="line"
         id="tspan5911"
         x="109.01199"
         y="91.37513"
         style="text-align:center;text-anchor:middle;stroke-width:0.0446104">Error/Excecution </tspan><tspan
         sodipodi:role="line"
         x="108.72795"
         y="93.605652"
         style="text-align:center;text-anchor:middle;stroke-width:0.0446104"
         id="tspan5915">LED</tspan></text>
    <path
       style="fill:none;stroke:#000000;stroke-width:0.26458332px;stroke-linecap:butt;stroke-linejoin:miter;stroke-opacity:1"
       d="m 104.10148,83.117562 c 0,0 4.00904,0 4.00904,0 0,0 0,2.405427 0,2.405427"
       id="path5917"
       inkscape:connector-curvature="0"
       inkscape:path-effect="#path-effect5919"
       inkscape:original-d="m 104.10148,83.117562 h 4.00904 v 2.405427"
       transform="matrix(0.99338701,0,0,1.4505617,0.70211542,-37.406532)"
       inkscape:export-xdpi="400"
       inkscape:export-ydpi="400" />
    <path
       style="fill:none;stroke:#000000;stroke-width:0.265;stroke-linecap:butt;stroke-linejoin:miter;stroke-opacity:1;stroke-miterlimit:4;stroke-dasharray:none;marker-start:url(#marker5395)"
       d="m 160.92336,40.590401 c 0,0 5.00819,0 5.00819,0"
       id="path5145"
       inkscape:connector-curvature="0"
       inkscape:path-effect="#path-effect5147"
       inkscape:original-d="m 160.92336,40.590401 h 5.00819"
       inkscape:export-xdpi="400"
       inkscape:export-ydpi="400" />
  </g>
</svg>
