Version 4
SHEET 1 1032 680
WIRE -32 -128 -512 -128
WIRE 720 -128 448 -128
WIRE 448 -96 448 -128
WIRE 400 -32 336 -32
WIRE 400 0 400 -32
WIRE 448 0 448 -16
WIRE 448 0 400 0
WIRE 128 16 80 16
WIRE 272 16 208 16
WIRE 448 16 448 0
WIRE -32 32 -32 -128
WIRE 720 32 720 -128
WIRE -64 48 -112 48
WIRE -512 64 -512 -128
WIRE 80 64 80 16
WIRE 80 64 0 64
WIRE 384 64 336 64
WIRE -368 80 -416 80
WIRE -272 80 -288 80
WIRE -192 80 -272 80
WIRE -64 80 -192 80
WIRE -416 128 -416 80
WIRE -272 128 -272 80
WIRE -192 144 -192 80
WIRE -112 144 -112 48
WIRE 448 144 448 112
WIRE 448 144 -112 144
WIRE 448 160 448 144
WIRE -512 256 -512 144
WIRE -416 256 -416 208
WIRE -416 256 -512 256
WIRE -272 256 -272 192
WIRE -272 256 -416 256
WIRE -192 256 -192 224
WIRE -192 256 -272 256
WIRE -32 256 -32 96
WIRE -32 256 -192 256
WIRE 448 256 448 240
WIRE 448 256 -32 256
WIRE 720 256 720 112
WIRE 720 256 448 256
WIRE 448 272 448 256
FLAG 448 272 0
SYMBOL res 432 144 R0
SYMATTR InstName R1
SYMATTR Value 120
SYMBOL npn 384 16 R0
SYMATTR InstName Q1
SYMATTR Value 2N2219A
SYMBOL voltage 720 16 R0
WINDOW 123 0 0 Left 2
WINDOW 39 0 0 Left 2
SYMATTR InstName V1
SYMATTR Value 5
SYMBOL res -272 64 R90
WINDOW 0 0 56 VBottom 2
WINDOW 3 32 56 VTop 2
SYMATTR InstName R2
SYMATTR Value 10k
SYMBOL voltage -416 112 R0
WINDOW 3 -17 190 Left 2
WINDOW 123 24 124 Left 2
WINDOW 39 0 0 Left 2
SYMATTR Value SINE(1.25 1.25 100)
SYMATTR Value2 AC 1
SYMATTR InstName V2
SYMBOL Opamps\\LT1366 -32 0 R0
SYMATTR InstName U2
SYMBOL voltage -512 48 R0
WINDOW 123 0 0 Left 2
WINDOW 39 0 0 Left 2
SYMATTR InstName V3
SYMATTR Value 5
SYMBOL cap -288 128 R0
SYMATTR InstName C1
SYMATTR Value 100n
SYMBOL res 432 -112 R0
SYMATTR InstName R3
SYMATTR Value 100
SYMBOL npn 272 -32 R0
SYMATTR InstName Q2
SYMATTR Value BC547B
SYMBOL res 224 0 R90
WINDOW 0 0 56 VBottom 2
WINDOW 3 32 56 VTop 2
SYMATTR InstName R4
SYMATTR Value 22
SYMBOL res -208 128 R0
SYMATTR InstName R5
SYMATTR Value 3.9k
TEXT -216 336 Left 2 !.dc V2 0 2.5 1m
TEXT -16 336 Left 2 ;.tran 5 startup
TEXT 224 336 Left 2 ;.ac dec 100 1 1k
