Version 4
SHEET 1 880 680
WIRE 256 -64 -32 -64
WIRE 480 -64 256 -64
WIRE -32 -16 -32 -64
WIRE 480 32 480 -64
WIRE 256 48 256 -64
WIRE -32 96 -32 64
WIRE 48 96 -32 96
WIRE 192 96 128 96
WIRE -32 128 -32 96
WIRE 256 176 256 144
WIRE -32 240 -32 208
FLAG 256 256 0
FLAG 480 112 0
FLAG -32 240 0
SYMBOL pnp 192 144 M180
SYMATTR InstName Q1
SYMATTR Value BC557B
SYMBOL res 240 160 R0
SYMATTR InstName R1
SYMATTR Value 5k
SYMBOL res 144 80 R90
WINDOW 0 0 56 VBottom 2
WINDOW 3 32 56 VTop 2
SYMATTR InstName R2
SYMATTR Value 4.7k
SYMBOL voltage 480 16 R0
WINDOW 123 0 0 Left 0
WINDOW 39 0 0 Left 0
SYMATTR InstName V1
SYMATTR Value 5
SYMBOL res -48 -32 R0
SYMATTR InstName R3
SYMATTR Value 10k
SYMBOL voltage -32 112 M0
WINDOW 123 0 0 Left 0
WINDOW 39 0 0 Left 0
SYMATTR InstName V2
SYMATTR Value PULSE(1 5 0 10n 10n .5m 1m)
TEXT -406 280 Left 2 !.tran 10m startup
