EESchema Schematic File Version 4
EELAYER 29 0
EELAYER END
$Descr User 16774 10868
encoding utf-8
Sheet 1 1
Title ""
Date ""
Rev ""
Comp ""
Comment1 ""
Comment2 ""
Comment3 ""
Comment4 ""
$EndDescr
Wire Wire Line
	7300 3000 7600 3000
Wire Wire Line
	7600 3000 7600 3100
Wire Wire Line
	7600 2900 7600 3000
Wire Wire Line
	10000 2600 10000 3000
Wire Wire Line
	10000 3000 9500 3000
Wire Wire Line
	9500 3000 7600 3000
Wire Wire Line
	10300 2600 10300 2700
Wire Wire Line
	10300 2700 10300 3000
Wire Wire Line
	10300 3000 10000 3000
Wire Wire Line
	10300 2700 10600 2700
Wire Wire Line
	10600 2700 10600 2300
Wire Wire Line
	10600 2300 10900 2300
Wire Wire Line
	7000 800  7000 700 
Wire Wire Line
	7000 700  10600 700 
Wire Wire Line
	10600 700  10600 2300
Wire Wire Line
	9500 2900 9500 3000
Connection ~ 7600 3000
Connection ~ 10000 3000
Connection ~ 10300 2700
Connection ~ 10600 2300
Connection ~ 9500 3000
Text Label 7300 3000 0    10   ~ 0
GND
Wire Wire Line
	9900 4500 9900 4300
Wire Wire Line
	9900 4300 10550 4300
Wire Wire Line
	10550 4300 11400 4300
Wire Wire Line
	11400 4300 11400 5100
Wire Wire Line
	11400 5100 11300 5100
Wire Wire Line
	11400 5100 11600 5100
Wire Wire Line
	11600 5100 11600 5200
Wire Wire Line
	10400 3575 10400 3800
Wire Wire Line
	10400 3800 10550 3800
Wire Wire Line
	10700 3800 10700 3700
Wire Wire Line
	10700 3800 10550 3800
Wire Wire Line
	10550 3800 10550 4300
Connection ~ 11400 5100
Connection ~ 10550 3800
Connection ~ 10550 4300
Text Label 9900 4500 0    10   ~ 0
GND
Wire Wire Line
	4100 2200 4400 2200
Wire Wire Line
	4400 2200 4400 2700
Text Label 4100 2200 0    10   ~ 0
GND
Wire Wire Line
	8300 2600 8300 2550
Wire Wire Line
	8300 2550 8300 2400
Wire Wire Line
	8300 2400 8400 2400
Wire Wire Line
	8150 2525 8150 2550
Wire Wire Line
	8150 2550 8300 2550
Connection ~ 8300 2550
Text Label 8300 2600 0    10   ~ 0
GND
Wire Wire Line
	13100 2600 12200 2600
Wire Wire Line
	12200 2600 12200 2400
Wire Wire Line
	12200 2700 12200 2600
Wire Wire Line
	13400 2400 13100 2400
Wire Wire Line
	13100 2400 13100 2600
Connection ~ 12200 2600
Text Label 13100 2600 0    10   ~ 0
GND
Wire Wire Line
	3800 6100 4300 6100
Wire Wire Line
	4300 6100 4300 6275
Wire Wire Line
	4300 6275 4300 6300
Wire Wire Line
	4500 6225 4500 6275
Wire Wire Line
	4500 6275 4300 6275
Connection ~ 4300 6275
Text Label 3800 6100 0    10   ~ 0
GND
Wire Wire Line
	3850 4800 4200 4800
Wire Wire Line
	4200 4800 5200 4800
Wire Wire Line
	5200 4800 5200 3400
Wire Wire Line
	5200 3400 5900 3400
Wire Wire Line
	4200 4500 4200 4800
Connection ~ 4200 4800
Wire Wire Line
	3850 4900 4300 4900
Wire Wire Line
	4300 4900 5300 4900
Wire Wire Line
	5300 4900 5300 4200
Wire Wire Line
	5300 4200 5900 4200
Wire Wire Line
	4300 4500 4300 4900
Connection ~ 4300 4900
Wire Wire Line
	3850 5000 4400 5000
Wire Wire Line
	4400 5000 5900 5000
Wire Wire Line
	4400 4500 4400 5000
Connection ~ 4400 5000
Wire Wire Line
	3850 5500 4900 5500
Wire Wire Line
	4900 5500 5000 5500
Wire Wire Line
	5000 5500 5000 9000
Wire Wire Line
	5000 9000 5900 9000
Wire Wire Line
	4900 4500 4900 5500
Connection ~ 4900 5500
Wire Wire Line
	3850 5400 4800 5400
Wire Wire Line
	4800 5400 5100 5400
Wire Wire Line
	5100 5400 5100 8200
Wire Wire Line
	5100 8200 5900 8200
Wire Wire Line
	4800 4500 4800 5400
Connection ~ 4800 5400
Wire Wire Line
	3850 5300 4700 5300
Wire Wire Line
	4700 5300 5200 5300
Wire Wire Line
	5200 5300 5200 7400
Wire Wire Line
	5200 7400 5900 7400
Wire Wire Line
	4700 4500 4700 5300
Connection ~ 4700 5300
Wire Wire Line
	3850 5200 4600 5200
Wire Wire Line
	4600 5200 5300 5200
Wire Wire Line
	5300 5200 5300 6600
Wire Wire Line
	5300 6600 5900 6600
Wire Wire Line
	4600 4500 4600 5200
Connection ~ 4600 5200
Wire Wire Line
	3850 5100 4500 5100
Wire Wire Line
	4500 5100 5400 5100
Wire Wire Line
	5400 5100 5400 5800
Wire Wire Line
	5400 5800 5900 5800
Wire Wire Line
	4500 4500 4500 5100
Connection ~ 4500 5100
Wire Wire Line
	4200 4100 4200 3900
Text Label 4200 4100 0    10   ~ 0
+5V
Wire Wire Line
	4900 2800 4900 3100
Wire Wire Line
	4900 3100 5100 3100
Text Label 4900 2800 0    10   ~ 0
+5V
Wire Wire Line
	9200 2400 9300 2400
Wire Wire Line
	9300 2400 9400 2400
Wire Wire Line
	8400 2000 7800 2000
Wire Wire Line
	7800 2000 7800 2900
Wire Wire Line
	7800 2900 9300 2900
Wire Wire Line
	9300 2900 9300 2500
Wire Wire Line
	9300 2500 9300 2400
Wire Wire Line
	9500 2600 9500 2500
Wire Wire Line
	9500 2500 9300 2500
Connection ~ 9300 2400
Connection ~ 9300 2500
Text Label 9200 2400 0    10   ~ 0
+5V
Wire Wire Line
	10400 3275 10400 3000
Wire Wire Line
	10400 3000 10550 3000
Wire Wire Line
	10550 3000 10700 3000
Wire Wire Line
	10700 3000 10700 3100
Wire Wire Line
	10550 2875 10550 3000
Connection ~ 10550 3000
Text Label 10400 3275 0    10   ~ 0
+5V
Wire Wire Line
	7600 1100 7600 1200
Wire Wire Line
	7600 1200 7600 1300
Wire Wire Line
	8600 1200 7600 1200
Connection ~ 7600 1200
Text Label 7600 1100 0    10   ~ 0
+5V
Wire Wire Line
	11600 1800 11600 2100
Wire Wire Line
	11600 2100 11800 2100
Text Label 11600 1800 0    10   ~ 0
+5V
Wire Wire Line
	3800 6000 4300 6000
Wire Wire Line
	4300 6000 4300 5850
Wire Wire Line
	4300 5850 4300 5800
Wire Wire Line
	4500 5925 4500 5850
Wire Wire Line
	4500 5850 4300 5850
Connection ~ 4300 5850
Text Label 3800 6000 0    10   ~ 0
+5V
Wire Wire Line
	5500 1200 5500 1100
Text Label 5500 1200 0    10   ~ 0
+5V
Wire Wire Line
	6900 9100 8100 9100
Wire Wire Line
	6900 8300 8100 8300
Wire Wire Line
	6900 7500 8100 7500
Wire Wire Line
	6900 6700 8100 6700
Wire Wire Line
	6900 5900 8100 5900
Wire Wire Line
	6900 5100 8100 5100
Wire Wire Line
	6900 3500 8100 3500
Wire Wire Line
	6900 4300 8100 4300
Wire Wire Line
	8400 3500 9600 3500
Wire Wire Line
	9600 3500 9600 5100
Wire Wire Line
	9600 5100 9900 5100
Wire Wire Line
	9900 5100 10900 5100
Wire Wire Line
	9900 4900 9900 5100
Connection ~ 9900 5100
Wire Wire Line
	8400 4300 9500 4300
Wire Wire Line
	9500 4300 9500 5200
Wire Wire Line
	9500 5200 10000 5200
Wire Wire Line
	10000 5200 10900 5200
Wire Wire Line
	10000 4900 10000 5200
Connection ~ 10000 5200
Wire Wire Line
	8400 5100 9400 5100
Wire Wire Line
	9400 5100 9400 5300
Wire Wire Line
	9400 5300 10100 5300
Wire Wire Line
	10100 5300 10900 5300
Wire Wire Line
	10100 4900 10100 5300
Connection ~ 10100 5300
Wire Wire Line
	8400 5900 9400 5900
Wire Wire Line
	9400 5900 9400 5400
Wire Wire Line
	9400 5400 10200 5400
Wire Wire Line
	10200 5400 10900 5400
Wire Wire Line
	10200 4900 10200 5400
Connection ~ 10200 5400
Wire Wire Line
	10900 5500 10300 5500
Wire Wire Line
	10300 5500 9500 5500
Wire Wire Line
	9500 5500 9500 6700
Wire Wire Line
	9500 6700 8400 6700
Wire Wire Line
	10300 4900 10300 5500
Connection ~ 10300 5500
Wire Wire Line
	8400 7500 9600 7500
Wire Wire Line
	9600 7500 9600 5600
Wire Wire Line
	9600 5600 10400 5600
Wire Wire Line
	10400 5600 10900 5600
Wire Wire Line
	10400 4900 10400 5600
Connection ~ 10400 5600
Wire Wire Line
	8400 8300 9700 8300
Wire Wire Line
	9700 8300 9700 5700
Wire Wire Line
	9700 5700 10500 5700
Wire Wire Line
	10500 5700 10900 5700
Wire Wire Line
	10500 4900 10500 5700
Connection ~ 10500 5700
Wire Wire Line
	8400 9100 9800 9100
Wire Wire Line
	9800 9100 9800 5800
Wire Wire Line
	9800 5800 10600 5800
Wire Wire Line
	10600 5800 10900 5800
Wire Wire Line
	10600 4900 10600 5800
Connection ~ 10600 5800
Wire Wire Line
	4100 2100 5500 2100
Wire Wire Line
	5500 2100 5500 1800
Wire Wire Line
	5500 1800 5900 1800
Wire Wire Line
	5900 2400 5500 2400
Wire Wire Line
	5500 2400 5500 2100
Wire Wire Line
	5500 1600 5500 1800
Connection ~ 5500 2100
Connection ~ 5500 1800
Wire Wire Line
	8150 2225 8150 2200
Wire Wire Line
	8150 2200 8400 2200
Wire Wire Line
	6700 2400 7000 2400
Wire Wire Line
	7300 2400 7600 2400
Wire Wire Line
	7600 2400 7600 1800
Wire Wire Line
	7600 1800 8400 1800
Wire Wire Line
	7600 2500 7600 2400
Wire Wire Line
	7600 1700 7600 1800
Connection ~ 7600 1800
Connection ~ 7600 2400
Wire Wire Line
	9200 2200 9300 2200
Wire Wire Line
	9300 2200 9300 2100
Wire Wire Line
	9300 2100 9300 2000
Wire Wire Line
	9300 2000 9200 2000
Wire Wire Line
	9300 2100 10000 2100
Wire Wire Line
	10000 2100 10000 2300
Wire Wire Line
	9000 1200 10000 1200
Wire Wire Line
	10000 1200 10000 2100
Connection ~ 9300 2100
Connection ~ 10000 2100
Wire Wire Line
	10300 2300 10300 2200
Wire Wire Line
	10300 2200 10300 1800
Wire Wire Line
	10300 1800 9800 1800
Wire Wire Line
	10900 2200 10300 2200
Connection ~ 10300 2200
Wire Wire Line
	9200 1800 9400 1800
Wire Wire Line
	6700 1800 7000 1800
Wire Wire Line
	7000 1800 7000 1600
Wire Wire Line
	7000 1200 7000 1300
Wire Wire Line
	13400 2300 13100 2300
Wire Wire Line
	13100 2300 13100 2100
Wire Wire Line
	13100 2100 12600 2100
$Comp
L sensor's_tester-eagle-import:SN74LV8151PW IC1
U 1 1 06F92037
P 6200 2800
F 0 "IC1" H 6150 2775 59  0000 L BNN
F 1 "SN74LV8151PW" H 6000 -3800 59  0001 L BNN
F 2 "sensor's_tester:TSSOP24" H 6200 2800 50  0001 C CNN
F 3 "" H 6200 2800 50  0001 C CNN
	1    6200 2800
	1    0    0    -1  
$EndComp
$Comp
L sensor's_tester-eagle-import:SN74LV8151PW IC1
U 2 1 06F9203B
P 10700 3400
F 0 "IC1" H 10650 3375 59  0000 L BNN
F 1 "SN74LV8151PW" H 10500 -3200 59  0001 L BNN
F 2 "sensor's_tester:TSSOP24" H 10700 3400 50  0001 C CNN
F 3 "" H 10700 3400 50  0001 C CNN
	2    10700 3400
	1    0    0    -1  
$EndComp
$Comp
L sensor's_tester-eagle-import:555N IC2
U 1 1 541775CA
P 8800 2100
F 0 "IC2" H 8500 2530 59  0000 L BNN
F 1 "555N" H 8500 1595 59  0000 L BNN
F 2 "sensor's_tester:DIL08" H 8800 2100 50  0001 C CNN
F 3 "" H 8800 2100 50  0001 C CNN
	1    8800 2100
	1    0    0    -1  
$EndComp
$Comp
L sensor's_tester-eagle-import:GND #GND01
U 1 1 DB8695AC
P 7600 3200
F 0 "#GND01" H 7600 3200 50  0001 C CNN
F 1 "GND" H 7500 3100 59  0000 L BNN
F 2 "" H 7600 3200 50  0001 C CNN
F 3 "" H 7600 3200 50  0001 C CNN
	1    7600 3200
	1    0    0    -1  
$EndComp
$Comp
L sensor's_tester-eagle-import:PINHD-1X8 JP1
U 1 1 CC685AF6
P 3750 5200
F 0 "JP1" H 3500 5725 59  0000 L BNN
F 1 "Direction" H 3500 4700 59  0000 L BNN
F 2 "sensor's_tester:1X08" H 3750 5200 50  0001 C CNN
F 3 "" H 3750 5200 50  0001 C CNN
	1    3750 5200
	-1   0    0    -1  
$EndComp
$Comp
L sensor's_tester-eagle-import:RN08 RN1
U 1 1 DC7690A4
P 4200 4300
F 0 "RN1" V 4000 4400 59  0000 L BNN
F 1 "4.7k" H 4100 4130 59  0000 L BNN
F 2 "sensor's_tester:RN-9" H 4200 4300 50  0001 C CNN
F 3 "" H 4200 4300 50  0001 C CNN
	1    4200 4300
	0    1    1    0   
$EndComp
$Comp
L sensor's_tester-eagle-import:+5V #P+01
U 1 1 BCDF72C5
P 4200 3800
F 0 "#P+01" H 4200 3800 50  0001 C CNN
F 1 "+5V" V 4100 3600 59  0000 L BNN
F 2 "" H 4200 3800 50  0001 C CNN
F 3 "" H 4200 3800 50  0001 C CNN
	1    4200 3800
	1    0    0    -1  
$EndComp
$Comp
L sensor's_tester-eagle-import:+5V #P+02
U 1 1 339DE9D3
P 4900 2700
F 0 "#P+02" H 4900 2700 50  0001 C CNN
F 1 "+5V" V 4800 2500 59  0000 L BNN
F 2 "" H 4900 2700 50  0001 C CNN
F 3 "" H 4900 2700 50  0001 C CNN
	1    4900 2700
	1    0    0    -1  
$EndComp
$Comp
L sensor's_tester-eagle-import:C-US050-024X044 C1
U 1 1 1DCB5B6A
P 7100 2400
F 0 "C1" H 7140 2425 59  0000 L BNN
F 1 "100p" H 7140 2235 59  0000 L BNN
F 2 "sensor's_tester:C050-024X044" H 7100 2400 50  0001 C CNN
F 3 "" H 7100 2400 50  0001 C CNN
	1    7100 2400
	0    -1   -1   0   
$EndComp
$Comp
L sensor's_tester-eagle-import:R-US_0207_7 R1
U 1 1 AFCB4C19
P 8800 1200
F 0 "R1" H 8650 1259 59  0000 L BNN
F 1 "6.8K" H 8650 1070 59  0000 L BNN
F 2 "sensor's_tester:0207_7" H 8800 1200 50  0001 C CNN
F 3 "" H 8800 1200 50  0001 C CNN
	1    8800 1200
	1    0    0    -1  
$EndComp
$Comp
L sensor's_tester-eagle-import:PINHD-1X2 POWER1
U 1 1 825D369A
P 3700 6100
F 0 "POWER1" H 3450 6325 59  0000 L BNN
F 1 "PINHD-1X2" H 3450 5900 59  0000 L BNN
F 2 "sensor's_tester:1X02" H 3700 6100 50  0001 C CNN
F 3 "" H 3700 6100 50  0001 C CNN
	1    3700 6100
	-1   0    0    -1  
$EndComp
$Comp
L sensor's_tester-eagle-import:PINHD-1X2 JP3
U 1 1 B12CBF38
P 4000 2100
F 0 "JP3" H 3750 2325 59  0000 L BNN
F 1 "SPEED" H 3750 1900 59  0000 L BNN
F 2 "sensor's_tester:1X02" H 4000 2100 50  0001 C CNN
F 3 "" H 4000 2100 50  0001 C CNN
	1    4000 2100
	-1   0    0    1   
$EndComp
$Comp
L sensor's_tester-eagle-import:PINHD-1X2 JP4
U 1 1 99467003
P 11000 2300
F 0 "JP4" H 10750 2525 59  0000 L BNN
F 1 "Speed_out" H 10750 2100 59  0000 L BNN
F 2 "sensor's_tester:1X02" H 11000 2300 50  0001 C CNN
F 3 "" H 11000 2300 50  0001 C CNN
	1    11000 2300
	1    0    0    -1  
$EndComp
$Comp
L sensor's_tester-eagle-import:+5V #P+03
U 1 1 00F05DF6
P 9500 2400
F 0 "#P+03" H 9500 2400 50  0001 C CNN
F 1 "+5V" V 9400 2200 59  0000 L BNN
F 2 "" H 9500 2400 50  0001 C CNN
F 3 "" H 9500 2400 50  0001 C CNN
	1    9500 2400
	0    1    1    0   
$EndComp
$Comp
L sensor's_tester-eagle-import:LED3MM LED1
U 1 1 D5D4A691
P 8200 3500
F 0 "LED1" V 8340 3320 59  0000 L BNN
F 1 "LED3MM" V 8425 3320 59  0000 L BNN
F 2 "sensor's_tester:LED3MM" H 8200 3500 50  0001 C CNN
F 3 "" H 8200 3500 50  0001 C CNN
	1    8200 3500
	0    -1   -1   0   
$EndComp
$Comp
L sensor's_tester-eagle-import:LED3MM LED2
U 1 1 6A31474D
P 8200 4300
F 0 "LED2" V 8340 4120 59  0000 L BNN
F 1 "LED3MM" V 8425 4120 59  0000 L BNN
F 2 "sensor's_tester:LED3MM" H 8200 4300 50  0001 C CNN
F 3 "" H 8200 4300 50  0001 C CNN
	1    8200 4300
	0    -1   -1   0   
$EndComp
$Comp
L sensor's_tester-eagle-import:LED3MM LED3
U 1 1 57046BE5
P 8200 5100
F 0 "LED3" V 8340 4920 59  0000 L BNN
F 1 "LED3MM" V 8425 4920 59  0000 L BNN
F 2 "sensor's_tester:LED3MM" H 8200 5100 50  0001 C CNN
F 3 "" H 8200 5100 50  0001 C CNN
	1    8200 5100
	0    -1   -1   0   
$EndComp
$Comp
L sensor's_tester-eagle-import:LED3MM LED4
U 1 1 0D206A19
P 8200 5900
F 0 "LED4" V 8340 5720 59  0000 L BNN
F 1 "LED3MM" V 8425 5720 59  0000 L BNN
F 2 "sensor's_tester:LED3MM" H 8200 5900 50  0001 C CNN
F 3 "" H 8200 5900 50  0001 C CNN
	1    8200 5900
	0    -1   -1   0   
$EndComp
$Comp
L sensor's_tester-eagle-import:LED3MM LED5
U 1 1 9BD6F4E6
P 8200 6700
F 0 "LED5" V 8340 6520 59  0000 L BNN
F 1 "LED3MM" V 8425 6520 59  0000 L BNN
F 2 "sensor's_tester:LED3MM" H 8200 6700 50  0001 C CNN
F 3 "" H 8200 6700 50  0001 C CNN
	1    8200 6700
	0    -1   -1   0   
$EndComp
$Comp
L sensor's_tester-eagle-import:LED3MM LED6
U 1 1 3A04D24D
P 8200 7500
F 0 "LED6" V 8340 7320 59  0000 L BNN
F 1 "LED3MM" V 8425 7320 59  0000 L BNN
F 2 "sensor's_tester:LED3MM" H 8200 7500 50  0001 C CNN
F 3 "" H 8200 7500 50  0001 C CNN
	1    8200 7500
	0    -1   -1   0   
$EndComp
$Comp
L sensor's_tester-eagle-import:LED3MM LED7
U 1 1 2B69AC82
P 8200 8300
F 0 "LED7" V 8340 8120 59  0000 L BNN
F 1 "LED3MM" V 8425 8120 59  0000 L BNN
F 2 "sensor's_tester:LED3MM" H 8200 8300 50  0001 C CNN
F 3 "" H 8200 8300 50  0001 C CNN
	1    8200 8300
	0    -1   -1   0   
$EndComp
$Comp
L sensor's_tester-eagle-import:LED3MM LED8
U 1 1 31B7593B
P 8200 9100
F 0 "LED8" V 8340 8920 59  0000 L BNN
F 1 "LED3MM" V 8425 8920 59  0000 L BNN
F 2 "sensor's_tester:LED3MM" H 8200 9100 50  0001 C CNN
F 3 "" H 8200 9100 50  0001 C CNN
	1    8200 9100
	0    -1   -1   0   
$EndComp
$Comp
L sensor's_tester-eagle-import:RN08 RN2
U 1 1 4F38CC1E
P 11100 5100
F 0 "RN2" V 10900 5200 59  0000 L BNN
F 1 "1K" H 11000 4930 59  0000 L BNN
F 2 "sensor's_tester:RN-9" H 11100 5100 50  0001 C CNN
F 3 "" H 11100 5100 50  0001 C CNN
	1    11100 5100
	-1   0    0    1   
$EndComp
$Comp
L sensor's_tester-eagle-import:RN08 RN3
U 1 1 7745EDC2
P 9900 4700
F 0 "RN3" V 9700 4800 59  0000 L BNN
F 1 "1K" H 9800 4530 59  0000 L BNN
F 2 "sensor's_tester:RN-9" H 9900 4700 50  0001 C CNN
F 3 "" H 9900 4700 50  0001 C CNN
	1    9900 4700
	0    1    1    0   
$EndComp
$Comp
L sensor's_tester-eagle-import:GND #GND02
U 1 1 13A376EC
P 11600 5300
F 0 "#GND02" H 11600 5300 50  0001 C CNN
F 1 "GND" H 11500 5200 59  0000 L BNN
F 2 "" H 11600 5300 50  0001 C CNN
F 3 "" H 11600 5300 50  0001 C CNN
	1    11600 5300
	1    0    0    -1  
$EndComp
$Comp
L sensor's_tester-eagle-import:GND #GND03
U 1 1 7679BDCC
P 4400 2800
F 0 "#GND03" H 4400 2800 50  0001 C CNN
F 1 "GND" H 4300 2700 59  0000 L BNN
F 2 "" H 4400 2800 50  0001 C CNN
F 3 "" H 4400 2800 50  0001 C CNN
	1    4400 2800
	1    0    0    -1  
$EndComp
$Comp
L sensor's_tester-eagle-import:GND #GND04
U 1 1 D896219B
P 8300 2700
F 0 "#GND04" H 8300 2700 50  0001 C CNN
F 1 "GND" H 8200 2600 59  0000 L BNN
F 2 "" H 8300 2700 50  0001 C CNN
F 3 "" H 8300 2700 50  0001 C CNN
	1    8300 2700
	1    0    0    -1  
$EndComp
$Comp
L sensor's_tester-eagle-import:C-US050-024X044 C3
U 1 1 0AE61553
P 8150 2325
F 0 "C3" H 8190 2350 59  0000 L BNN
F 1 "100n" H 8190 2160 59  0000 L BNN
F 2 "sensor's_tester:C050-024X044" H 8150 2325 50  0001 C CNN
F 3 "" H 8150 2325 50  0001 C CNN
	1    8150 2325
	-1   0    0    -1  
$EndComp
$Comp
L sensor's_tester-eagle-import:C-USC1206K C4
U 1 1 327B8ADF
P 10400 3375
F 0 "C4" H 10440 3400 59  0000 L BNN
F 1 "C-USC1206K" H 10440 3210 59  0000 L BNN
F 2 "sensor's_tester:C1206K" H 10400 3375 50  0001 C CNN
F 3 "" H 10400 3375 50  0001 C CNN
	1    10400 3375
	1    0    0    -1  
$EndComp
$Comp
L sensor's_tester-eagle-import:+5V #P+04
U 1 1 A7FDB2D8
P 10550 2775
F 0 "#P+04" H 10550 2775 50  0001 C CNN
F 1 "+5V" V 10450 2575 59  0000 L BNN
F 2 "" H 10550 2775 50  0001 C CNN
F 3 "" H 10550 2775 50  0001 C CNN
	1    10550 2775
	1    0    0    -1  
$EndComp
$Comp
L sensor's_tester-eagle-import:R-US_0207_7 R2
U 1 1 56DD6A94
P 7600 1500
F 0 "R2" H 7450 1559 59  0000 L BNN
F 1 "2.2M" H 7450 1370 59  0000 L BNN
F 2 "sensor's_tester:0207_7" H 7600 1500 50  0001 C CNN
F 3 "" H 7600 1500 50  0001 C CNN
	1    7600 1500
	0    -1   -1   0   
$EndComp
$Comp
L sensor's_tester-eagle-import:R-US_0207_7 R3
U 1 1 098ED7EF
P 7600 2700
F 0 "R3" H 7450 2759 59  0000 L BNN
F 1 "1.5M" H 7450 2570 59  0000 L BNN
F 2 "sensor's_tester:0207_7" H 7600 2700 50  0001 C CNN
F 3 "" H 7600 2700 50  0001 C CNN
	1    7600 2700
	0    -1   -1   0   
$EndComp
$Comp
L sensor's_tester-eagle-import:+5V #P+05
U 1 1 33ACA7EC
P 7600 1000
F 0 "#P+05" H 7600 1000 50  0001 C CNN
F 1 "+5V" V 7500 800 59  0000 L BNN
F 2 "" H 7600 1000 50  0001 C CNN
F 3 "" H 7600 1000 50  0001 C CNN
	1    7600 1000
	1    0    0    -1  
$EndComp
$Comp
L sensor's_tester-eagle-import:C-US050-024X044 C5
U 1 1 F9108C4C
P 10000 2400
F 0 "C5" H 10040 2425 59  0000 L BNN
F 1 "100n" H 10040 2235 59  0000 L BNN
F 2 "sensor's_tester:C050-024X044" H 10000 2400 50  0001 C CNN
F 3 "" H 10000 2400 50  0001 C CNN
	1    10000 2400
	-1   0    0    -1  
$EndComp
$Comp
L sensor's_tester-eagle-import:R-US_0207_7 R4
U 1 1 6DEE1610
P 9600 1800
F 0 "R4" H 9450 1859 59  0000 L BNN
F 1 "10K" H 9450 1670 59  0000 L BNN
F 2 "sensor's_tester:0207_7" H 9600 1800 50  0001 C CNN
F 3 "" H 9600 1800 50  0001 C CNN
	1    9600 1800
	1    0    0    -1  
$EndComp
$Comp
L sensor's_tester-eagle-import:CPOL-USE2-4 C6
U 1 1 E451E4D4
P 10300 2400
F 0 "C6" H 10340 2425 59  0000 L BNN
F 1 "CPOL-USE2-4" H 10340 2235 59  0000 L BNN
F 2 "sensor's_tester:E2-4" H 10300 2400 50  0001 C CNN
F 3 "" H 10300 2400 50  0001 C CNN
	1    10300 2400
	1    0    0    -1  
$EndComp
$Comp
L sensor's_tester-eagle-import:LED5MM LED9
U 1 1 92A95AED
P 7000 1500
F 0 "LED9" V 7140 1320 59  0000 L BNN
F 1 "LED5MM" V 7225 1320 59  0000 L BNN
F 2 "sensor's_tester:LED5MM" H 7000 1500 50  0001 C CNN
F 3 "" H 7000 1500 50  0001 C CNN
	1    7000 1500
	-1   0    0    1   
$EndComp
$Comp
L sensor's_tester-eagle-import:R-US_0207_7 R5
U 1 1 6637B0E6
P 7000 1000
F 0 "R5" H 6850 1059 59  0000 L BNN
F 1 "330" H 6850 870 59  0000 L BNN
F 2 "sensor's_tester:0207_7" H 7000 1000 50  0001 C CNN
F 3 "" H 7000 1000 50  0001 C CNN
	1    7000 1000
	0    -1   -1   0   
$EndComp
$Comp
L sensor's_tester-eagle-import:78L IC3
U 1 1 5ED25CA7
P 12200 2100
F 0 "IC3" H 11900 2325 59  0000 L BNN
F 1 "78L" H 11900 2225 59  0000 L BNN
F 2 "sensor's_tester:TO92" H 12200 2100 50  0001 C CNN
F 3 "" H 12200 2100 50  0001 C CNN
	1    12200 2100
	-1   0    0    -1  
$EndComp
$Comp
L sensor's_tester-eagle-import:C-US050-024X044 C7
U 1 1 B9E0DE35
P 9500 2700
F 0 "C7" H 9540 2725 59  0000 L BNN
F 1 "100n" H 9540 2535 59  0000 L BNN
F 2 "sensor's_tester:C050-024X044" H 9500 2700 50  0001 C CNN
F 3 "" H 9500 2700 50  0001 C CNN
	1    9500 2700
	1    0    0    -1  
$EndComp
$Comp
L sensor's_tester-eagle-import:+5V #P+06
U 1 1 B0F39303
P 11600 1700
F 0 "#P+06" H 11600 1700 50  0001 C CNN
F 1 "+5V" V 11500 1500 59  0000 L BNN
F 2 "" H 11600 1700 50  0001 C CNN
F 3 "" H 11600 1700 50  0001 C CNN
	1    11600 1700
	1    0    0    -1  
$EndComp
$Comp
L sensor's_tester-eagle-import:GND #GND05
U 1 1 EF27308A
P 12200 2800
F 0 "#GND05" H 12200 2800 50  0001 C CNN
F 1 "GND" H 12100 2700 59  0000 L BNN
F 2 "" H 12200 2800 50  0001 C CNN
F 3 "" H 12200 2800 50  0001 C CNN
	1    12200 2800
	1    0    0    -1  
$EndComp
$Comp
L sensor's_tester-eagle-import:PINHD-1X2 JP5
U 1 1 C7F812DB
P 13500 2400
F 0 "JP5" H 13250 2625 59  0000 L BNN
F 1 "Batt" H 13250 2200 59  0000 L BNN
F 2 "sensor's_tester:1X02" H 13500 2400 50  0001 C CNN
F 3 "" H 13500 2400 50  0001 C CNN
	1    13500 2400
	1    0    0    -1  
$EndComp
$Comp
L sensor's_tester-eagle-import:+5V #P+07
U 1 1 BC2DCEA9
P 4300 5700
F 0 "#P+07" H 4300 5700 50  0001 C CNN
F 1 "+5V" V 4200 5500 59  0000 L BNN
F 2 "" H 4300 5700 50  0001 C CNN
F 3 "" H 4300 5700 50  0001 C CNN
	1    4300 5700
	1    0    0    -1  
$EndComp
$Comp
L sensor's_tester-eagle-import:GND #GND06
U 1 1 A07C0193
P 4300 6400
F 0 "#GND06" H 4300 6400 50  0001 C CNN
F 1 "GND" H 4200 6300 59  0000 L BNN
F 2 "" H 4300 6400 50  0001 C CNN
F 3 "" H 4300 6400 50  0001 C CNN
	1    4300 6400
	1    0    0    -1  
$EndComp
$Comp
L sensor's_tester-eagle-import:C-US050-024X044 C8
U 1 1 621C301E
P 4500 6025
F 0 "C8" H 4540 6050 59  0000 L BNN
F 1 "100n" H 4540 5860 59  0000 L BNN
F 2 "sensor's_tester:C050-024X044" H 4500 6025 50  0001 C CNN
F 3 "" H 4500 6025 50  0001 C CNN
	1    4500 6025
	1    0    0    -1  
$EndComp
$Comp
L sensor's_tester-eagle-import:R-US_M0805 R6
U 1 1 96E7E6D7
P 5500 1400
F 0 "R6" H 5350 1459 59  0000 L BNN
F 1 "10k" H 5350 1270 59  0000 L BNN
F 2 "sensor's_tester:M0805" H 5500 1400 50  0001 C CNN
F 3 "" H 5500 1400 50  0001 C CNN
	1    5500 1400
	0    -1   -1   0   
$EndComp
$Comp
L sensor's_tester-eagle-import:+5V #P+08
U 1 1 B54CCCBB
P 5500 1000
F 0 "#P+08" H 5500 1000 50  0001 C CNN
F 1 "+5V" V 5400 800 59  0000 L BNN
F 2 "" H 5500 1000 50  0001 C CNN
F 3 "" H 5500 1000 50  0001 C CNN
	1    5500 1000
	1    0    0    -1  
$EndComp
$Comp
L sensor's_tester-eagle-import:A3L-LOC #FRAME1
U 1 1 73DA64CA
P 900 10000
F 0 "#FRAME1" H 900 10000 50  0001 C CNN
F 1 "A3L-LOC" H 900 10000 50  0001 C CNN
F 2 "" H 900 10000 50  0001 C CNN
F 3 "" H 900 10000 50  0001 C CNN
	1    900  10000
	1    0    0    -1  
$EndComp
$EndSCHEMATC
