EESchema Schematic File Version 4
EELAYER 29 0
EELAYER END
$Descr User 16839 11668
encoding utf-8
Sheet 1 1
Title ""
Date ""
Rev ""
Comp ""
Comment1 ""
Comment2 ""
Comment3 ""
Comment4 ""
$EndDescr
Wire Wire Line
	6200 3500 6200 3600
Wire Wire Line
	5900 3500 6200 3500
Text Label 6200 3500 0    10   ~ 0
GND
Wire Wire Line
	11000 1775 11000 2000
Wire Wire Line
	11000 2000 11300 2000
Wire Wire Line
	11300 2000 11300 1900
Wire Wire Line
	11500 2000 11500 2100
Wire Wire Line
	11700 2000 11500 2000
Wire Wire Line
	11500 2000 11300 2000
Wire Wire Line
	11700 2000 12000 2000
Wire Wire Line
	12000 2000 12000 1775
Wire Wire Line
	11500 1875 11500 2000
Wire Wire Line
	12000 2000 12400 2000
Wire Wire Line
	12400 2000 12400 1775
Connection ~ 11500 2000
Connection ~ 11700 2000
Connection ~ 11300 2000
Connection ~ 12000 2000
Text Label 11000 1775 0    10   ~ 0
GND
Wire Wire Line
	2400 2500 2800 2500
Wire Wire Line
	2800 2500 2800 2700
Text Label 2400 2500 0    10   ~ 0
GND
Wire Wire Line
	2900 6500 2900 6650
Wire Wire Line
	2900 6650 2900 6700
Wire Wire Line
	2600 6500 2900 6500
Wire Wire Line
	2900 6650 3100 6650
Wire Wire Line
	3100 6650 3100 6600
Connection ~ 2900 6650
Text Label 2900 6500 0    10   ~ 0
GND
Wire Wire Line
	9300 1500 9300 1800
Wire Wire Line
	9825 1500 9300 1500
Text Label 9300 1500 0    10   ~ 0
GND
Wire Wire Line
	8100 5400 8000 5400
Wire Wire Line
	8000 5400 8000 5500
Wire Wire Line
	8000 5350 8000 5400
Connection ~ 8000 5400
Text Label 8100 5400 0    10   ~ 0
GND
Wire Wire Line
	7000 4200 6900 4200
Wire Wire Line
	6900 4200 6900 4800
Wire Wire Line
	6900 5000 6900 4800
Wire Wire Line
	6900 4800 7000 4800
Connection ~ 6900 4800
Text Label 7000 4200 0    10   ~ 0
GND
Wire Wire Line
	12900 8800 13100 8800
Wire Wire Line
	13100 8800 13100 8900
Text Label 12900 8800 0    10   ~ 0
GND
Wire Wire Line
	15200 1400 15300 1400
Wire Wire Line
	15300 1400 15300 2000
Wire Wire Line
	15300 2000 14500 2000
Wire Wire Line
	14500 2000 13900 2000
Wire Wire Line
	13900 2000 13900 2075
Wire Wire Line
	14500 1775 14500 2000
Wire Wire Line
	13900 1700 13900 2000
Wire Wire Line
	13900 2000 13500 2000
Wire Wire Line
	13500 1900 13500 2000
Wire Wire Line
	13500 2000 13300 2000
Wire Wire Line
	13300 2000 13300 1900
Wire Wire Line
	13300 2000 13100 2000
Wire Wire Line
	13100 2000 13100 1900
Wire Wire Line
	13100 2000 12900 2000
Wire Wire Line
	12900 2000 12900 1900
Connection ~ 13900 2000
Connection ~ 14500 2000
Connection ~ 13300 2000
Connection ~ 13500 2000
Connection ~ 13100 2000
Text Label 15200 1400 0    10   ~ 0
GND
Wire Wire Line
	11600 5400 11400 5400
Wire Wire Line
	11400 5400 11100 5400
Wire Wire Line
	11100 5400 11100 5325
Wire Wire Line
	11100 5400 11100 5500
Wire Wire Line
	11600 5200 11400 5200
Wire Wire Line
	11400 5100 11400 5200
Wire Wire Line
	11600 4100 11400 4100
Wire Wire Line
	11400 4100 11400 4200
Wire Wire Line
	11400 4200 11400 5100
Wire Wire Line
	11400 5200 11400 5400
Wire Wire Line
	11600 4200 11400 4200
Wire Wire Line
	11600 5100 11400 5100
Connection ~ 11100 5400
Connection ~ 11400 5400
Connection ~ 11400 5200
Connection ~ 11400 4200
Connection ~ 11400 5100
Text Label 11600 5400 0    10   ~ 0
GND
Wire Wire Line
	10800 3450 10800 3400
Text Label 10800 3450 0    10   ~ 0
GND
Wire Wire Line
	13725 4700 13825 4700
Wire Wire Line
	13825 4700 14425 4700
Wire Wire Line
	14425 4700 14525 4700
Wire Wire Line
	14525 4700 15125 4700
Wire Wire Line
	15125 4700 15225 4700
Wire Wire Line
	15225 4700 15800 4700
Wire Wire Line
	15800 4700 15800 4800
Wire Wire Line
	13725 4700 13325 4700
Wire Wire Line
	13825 4900 13825 4700
Wire Wire Line
	14525 4900 14525 4700
Wire Wire Line
	15225 4900 15225 4700
Connection ~ 14425 4700
Connection ~ 15125 4700
Connection ~ 15800 4700
Connection ~ 13725 4700
Connection ~ 14525 4700
Connection ~ 13825 4700
Connection ~ 15225 4700
Text Label 13725 4700 0    10   ~ 0
GND
Wire Wire Line
	12250 8250 12250 8150
Text Label 12250 8250 0    10   ~ 0
GND
Wire Wire Line
	9400 9800 9300 9800
Wire Wire Line
	9300 9800 9300 9950
Wire Wire Line
	9300 9950 9300 10000
Wire Wire Line
	9300 9950 9000 9950
Wire Wire Line
	9000 9950 9000 9900
Wire Wire Line
	9000 9950 8900 9950
Connection ~ 9300 9950
Connection ~ 9000 9950
Text Label 9400 9800 0    10   ~ 0
GND
Wire Wire Line
	7100 1100 6900 1100
Wire Wire Line
	6900 1100 6900 1400
Wire Wire Line
	6900 1400 6900 1700
Wire Wire Line
	6900 1700 6900 2000
Wire Wire Line
	6900 2000 7100 2000
Wire Wire Line
	7100 1700 6900 1700
Wire Wire Line
	7100 1400 6900 1400
Wire Wire Line
	6900 1700 6650 1700
Wire Wire Line
	6650 1700 6650 1800
Wire Wire Line
	7100 2300 6900 2300
Wire Wire Line
	6900 2300 6900 2000
Connection ~ 6900 1400
Connection ~ 6900 1700
Connection ~ 6900 2000
Text Label 7100 1100 0    10   ~ 0
GND
Wire Wire Line
	9400 8400 9325 8400
Wire Wire Line
	9325 8400 9325 8600
Wire Wire Line
	9325 8600 9325 8800
Wire Wire Line
	9325 8800 9400 8800
Wire Wire Line
	9250 8600 9325 8600
Connection ~ 9325 8600
Text Label 9400 8400 0    10   ~ 0
GND
Wire Wire Line
	2900 5300 3800 5300
Wire Wire Line
	3800 5300 3800 3900
Wire Wire Line
	3800 3900 4500 3900
Wire Wire Line
	2900 5000 2900 5300
Connection ~ 2900 5300
Wire Wire Line
	2900 5400 3000 5400
Wire Wire Line
	3000 5400 3900 5400
Wire Wire Line
	3900 5400 3900 4700
Wire Wire Line
	3900 4700 4500 4700
Wire Wire Line
	3000 5000 3000 5400
Connection ~ 3000 5400
Wire Wire Line
	2900 5500 3100 5500
Wire Wire Line
	3100 5500 4500 5500
Wire Wire Line
	3100 5000 3100 5500
Connection ~ 3100 5500
Wire Wire Line
	2900 6000 3600 6000
Wire Wire Line
	3600 6000 3600 9500
Wire Wire Line
	3600 9500 4500 9500
Wire Wire Line
	3600 5000 3600 6000
Connection ~ 3600 6000
Wire Wire Line
	2900 5900 3500 5900
Wire Wire Line
	3500 5900 3700 5900
Wire Wire Line
	3700 5900 3700 8700
Wire Wire Line
	3700 8700 4500 8700
Wire Wire Line
	3500 5000 3500 5900
Connection ~ 3500 5900
Wire Wire Line
	2900 5800 3400 5800
Wire Wire Line
	3400 5800 3800 5800
Wire Wire Line
	3800 5800 3800 7900
Wire Wire Line
	3800 7900 4500 7900
Wire Wire Line
	3400 5000 3400 5800
Connection ~ 3400 5800
Wire Wire Line
	2900 5700 3300 5700
Wire Wire Line
	3300 5700 3900 5700
Wire Wire Line
	3900 5700 3900 7100
Wire Wire Line
	3900 7100 4500 7100
Wire Wire Line
	3300 5000 3300 5700
Connection ~ 3300 5700
Wire Wire Line
	2900 5600 3200 5600
Wire Wire Line
	3200 5600 4000 5600
Wire Wire Line
	4000 5600 4000 6300
Wire Wire Line
	4000 6300 4500 6300
Wire Wire Line
	3200 5000 3200 5600
Connection ~ 3200 5600
Wire Wire Line
	2900 4600 2900 4400
Text Label 2900 4600 0    10   ~ 0
+5V
Wire Wire Line
	3500 3300 3500 3600
Wire Wire Line
	3500 3600 3700 3600
Text Label 3500 3300 0    10   ~ 0
+5V
Wire Wire Line
	11000 1475 11000 1200
Wire Wire Line
	11000 1200 11300 1200
Wire Wire Line
	11300 1200 11300 1300
Wire Wire Line
	11500 1000 11500 1200
Wire Wire Line
	11700 1200 11500 1200
Wire Wire Line
	11500 1200 11300 1200
Wire Wire Line
	11700 1200 12000 1200
Wire Wire Line
	12000 1200 12000 1475
Wire Wire Line
	11500 1275 11500 1200
Wire Wire Line
	12000 1200 12400 1200
Wire Wire Line
	12400 1200 12400 1475
Connection ~ 11500 1200
Connection ~ 11700 1200
Connection ~ 11300 1200
Connection ~ 12000 1200
Text Label 11000 1475 0    10   ~ 0
+5V
Wire Wire Line
	9300 1400 9300 1000
Wire Wire Line
	9825 1400 9300 1400
Text Label 9300 1400 0    10   ~ 0
+5V
Wire Wire Line
	7900 3400 7900 3500
Wire Wire Line
	7900 3500 7900 4100
Wire Wire Line
	7900 4100 8100 4100
Wire Wire Line
	7900 3500 7600 3500
Wire Wire Line
	7600 3500 7600 3600
Connection ~ 7900 3500
Text Label 7900 3400 0    10   ~ 0
+5V
Wire Wire Line
	13100 1400 13100 1200
Wire Wire Line
	13100 1400 13300 1400
Wire Wire Line
	13300 1400 13500 1400
Wire Wire Line
	13500 1600 13500 1400
Wire Wire Line
	13300 1600 13300 1400
Wire Wire Line
	13100 1600 13100 1400
Wire Wire Line
	13100 1400 12900 1400
Wire Wire Line
	12900 1400 12900 1600
Connection ~ 13100 1400
Connection ~ 13300 1400
Connection ~ 13500 1400
Text Label 13100 1400 0    10   ~ 0
+5V
Wire Wire Line
	6500 7025 6500 7100
Wire Wire Line
	6500 7100 6875 7100
Wire Wire Line
	6875 7500 6500 7500
Wire Wire Line
	6500 7500 6500 7100
Connection ~ 6500 7100
Text Label 6500 7025 0    10   ~ 0
+5V
Wire Wire Line
	10500 4000 10500 3900
Wire Wire Line
	10500 3900 10650 3900
Wire Wire Line
	10650 3900 10800 3900
Wire Wire Line
	10800 3900 10800 4000
Wire Wire Line
	10650 3800 10650 3900
Connection ~ 10650 3900
Text Label 10500 4000 0    10   ~ 0
+5V
Wire Wire Line
	11600 3800 11400 3800
Wire Wire Line
	11400 3800 11200 3800
Wire Wire Line
	11200 3800 11000 3800
Wire Wire Line
	11000 3800 11000 3000
Wire Wire Line
	11000 3000 10800 3000
Wire Wire Line
	10800 3000 10800 3100
Wire Wire Line
	11600 3900 11400 3900
Wire Wire Line
	11400 3900 11400 3800
Wire Wire Line
	10800 2900 10800 3000
Wire Wire Line
	11600 4800 11200 4800
Wire Wire Line
	11200 4800 11200 3800
Connection ~ 11400 3800
Connection ~ 10800 3000
Connection ~ 11200 3800
Text Label 11600 3800 0    10   ~ 0
+5V
Wire Wire Line
	9400 8000 9300 8000
Wire Wire Line
	9300 8000 9300 7800
Wire Wire Line
	9300 7800 9300 7700
Wire Wire Line
	9300 7800 8900 7800
Wire Wire Line
	8900 7800 8600 7800
Wire Wire Line
	8600 7800 8600 7900
Wire Wire Line
	9000 8200 8900 8200
Wire Wire Line
	8900 8200 8900 7800
Connection ~ 9300 7800
Connection ~ 8900 7800
Text Label 9400 8000 0    10   ~ 0
+5V
Wire Wire Line
	7375 5000 7400 5000
Text Label 7375 5000 0    10   ~ 0
+5V
Wire Wire Line
	12250 6650 12250 6575
Text Label 12250 6650 0    10   ~ 0
+5V
Wire Wire Line
	2400 2100 2500 2100
Wire Wire Line
	2500 2100 2500 1800
Wire Wire Line
	2500 1800 2500 1700
Wire Wire Line
	2800 1800 2500 1800
Connection ~ 2500 1800
Text Label 2400 2100 0    10   ~ 0
+5V
Wire Wire Line
	2900 6400 2900 6250
Wire Wire Line
	2900 6250 2900 6200
Wire Wire Line
	2600 6400 2900 6400
Wire Wire Line
	2900 6250 3100 6250
Wire Wire Line
	3100 6250 3100 6300
Connection ~ 2900 6250
Text Label 2900 6400 0    10   ~ 0
+5V
Wire Wire Line
	4100 1700 4100 1400
Wire Wire Line
	4100 1400 4100 1200
Wire Wire Line
	3300 1700 3300 1400
Wire Wire Line
	3300 1400 4100 1400
Connection ~ 4100 1400
Text Label 4100 1700 0    10   ~ 0
+5V
Wire Wire Line
	4100 2300 4500 2300
Wire Wire Line
	4100 2100 4100 2300
Wire Wire Line
	4100 2300 3950 2300
Wire Wire Line
	3950 2300 3950 2400
Connection ~ 4100 2300
Wire Wire Line
	6875 6200 6500 6200
Wire Wire Line
	6500 6200 6500 4000
Wire Wire Line
	6500 4000 5500 4000
Wire Wire Line
	5500 4800 6400 4800
Wire Wire Line
	6400 4800 6400 6300
Wire Wire Line
	6400 6300 6875 6300
Wire Wire Line
	6875 6400 6200 6400
Wire Wire Line
	6200 6400 6200 5600
Wire Wire Line
	6200 5600 5500 5600
Wire Wire Line
	5500 6400 6100 6400
Wire Wire Line
	6100 6400 6100 6500
Wire Wire Line
	6100 6500 6875 6500
Wire Wire Line
	6875 6600 6000 6600
Wire Wire Line
	6000 6600 6000 7200
Wire Wire Line
	6000 7200 5500 7200
Wire Wire Line
	5500 8000 6100 8000
Wire Wire Line
	6100 8000 6100 6700
Wire Wire Line
	6100 6700 6875 6700
Wire Wire Line
	6875 6800 6200 6800
Wire Wire Line
	6200 6800 6200 8800
Wire Wire Line
	6200 8800 5500 8800
Wire Wire Line
	5500 9600 6300 9600
Wire Wire Line
	6300 9600 6300 6900
Wire Wire Line
	6300 6900 6875 6900
Wire Wire Line
	9825 1600 9425 1600
Text Label 9425 1600 0    70   ~ 0
PGD
Wire Wire Line
	9100 4100 9400 4100
Text Label 9100 4100 0    70   ~ 0
PGD
Wire Wire Line
	9825 1700 9425 1700
Text Label 9425 1700 0    70   ~ 0
PGC
Wire Wire Line
	9100 4200 9400 4200
Text Label 9150 4200 0    70   ~ 0
PGC
Wire Wire Line
	9825 1300 9425 1300
Text Label 9425 1300 0    70   ~ 0
VPP
Wire Wire Line
	8100 4800 8000 4800
Wire Wire Line
	8000 4800 8000 5000
Wire Wire Line
	7800 5000 8000 5000
Wire Wire Line
	8000 5050 8000 5000
Connection ~ 8000 5000
Text Label 8100 4800 1    70   ~ 0
VPP
Wire Wire Line
	8100 4400 7800 4400
Wire Wire Line
	7800 4400 7800 4200
Wire Wire Line
	7800 4200 7500 4200
Wire Wire Line
	7500 4200 7500 4300
Wire Wire Line
	7500 4200 7300 4200
Connection ~ 7500 4200
Wire Wire Line
	7500 4700 7500 4800
Wire Wire Line
	7500 4800 7800 4800
Wire Wire Line
	7800 4800 7800 4600
Wire Wire Line
	7800 4600 8100 4600
Wire Wire Line
	7300 4800 7500 4800
Connection ~ 7500 4800
Wire Wire Line
	12600 8800 12500 8800
Wire Wire Line
	15000 1600 15000 1775
Wire Wire Line
	15000 1775 15400 1775
Wire Wire Line
	15000 1200 15000 1075
Wire Wire Line
	15000 1075 15400 1075
Wire Wire Line
	14300 1400 14500 1400
Wire Wire Line
	14500 1400 14800 1400
Wire Wire Line
	14500 1475 14500 1400
Wire Wire Line
	14500 1100 14500 1400
Connection ~ 14500 1400
Text Label 14300 1400 0    10   ~ 0
+12V
Wire Wire Line
	10000 5000 10000 5050
Wire Wire Line
	10000 5050 10000 5100
Wire Wire Line
	10000 5050 9700 5050
Wire Wire Line
	9700 5050 9700 5200
Connection ~ 10000 5050
Text Label 10000 5000 0    10   ~ 0
+12V
Wire Wire Line
	6600 7600 6875 7600
Wire Wire Line
	6600 7600 6600 7900
Wire Wire Line
	6600 7900 7925 7900
Text Label 7675 7900 0    70   ~ 0
LOAD
Wire Wire Line
	9100 5000 9500 5000
Text Label 9150 5000 0    70   ~ 0
LOAD
Wire Wire Line
	4200 2900 4500 2900
Text Label 4200 2900 0    70   ~ 0
LOAD
Wire Wire Line
	6875 7300 6400 7300
Wire Wire Line
	6400 7300 6400 8000
Wire Wire Line
	6400 8000 7925 8000
Text Label 7675 8000 0    70   ~ 0
SCLK
Wire Wire Line
	9100 5200 9500 5200
Text Label 9150 5200 0    70   ~ 0
SCLK
Wire Wire Line
	7875 6200 8000 6200
Text Label 7875 6200 0    70   ~ 0
DIR_DATA
Wire Wire Line
	9100 5100 9500 5100
Text Label 9150 5100 0    70   ~ 0
DIR_DATA
Wire Wire Line
	5300 2300 5400 2300
Text Label 5400 2300 0    70   ~ 0
SPEED_PULSE
Wire Wire Line
	9100 4800 9900 4800
Text Label 9125 4800 0    70   ~ 0
SPEED_PULSE
Wire Wire Line
	9100 4400 9400 4400
Text Label 9150 4400 0    70   ~ 0
SCL
Wire Wire Line
	11600 4600 10500 4600
Wire Wire Line
	10500 4600 10500 4400
Text Label 10800 4600 0    70   ~ 0
SCL
Wire Wire Line
	9100 4700 9400 4700
Text Label 9150 4700 0    70   ~ 0
SDA
Wire Wire Line
	11600 4500 10800 4500
Wire Wire Line
	10800 4500 10800 4400
Text Label 10800 4500 0    70   ~ 0
SDA
Wire Wire Line
	9100 4600 9400 4600
Text Label 9150 4600 0    70   ~ 0
RX
Wire Wire Line
	10800 8100 11100 8100
Text Label 11100 8100 0    70   ~ 0
RX
Wire Wire Line
	9100 4300 9400 4300
Text Label 9150 4300 0    70   ~ 0
TX
Wire Wire Line
	9400 8500 9000 8500
Text Label 9000 8500 2    70   ~ 0
TX
Wire Wire Line
	9100 4500 9400 4500
Text Label 9150 4500 0    70   ~ 0
DAC_L
Wire Wire Line
	11600 4900 10650 4900
Text Label 10650 4900 0    70   ~ 0
DAC_L
Wire Wire Line
	11100 5025 11100 4300
Wire Wire Line
	11100 4300 11600 4300
Wire Wire Line
	13100 4000 13000 4000
Wire Wire Line
	13100 3900 13000 3900
Wire Wire Line
	13100 3800 13000 3800
Wire Wire Line
	13100 4100 13000 4100
Wire Wire Line
	13500 5550 13500 4300
Wire Wire Line
	13500 4300 13500 4100
Wire Wire Line
	13500 4300 13725 4300
Wire Wire Line
	13725 4300 13725 4400
Wire Wire Line
	13500 4300 13325 4300
Connection ~ 13500 4300
Wire Wire Line
	13500 4000 14200 4000
Wire Wire Line
	14200 4000 14200 4300
Wire Wire Line
	14200 4300 14200 5550
Wire Wire Line
	14200 4300 14425 4300
Wire Wire Line
	14425 4300 14425 4400
Connection ~ 14200 4300
Wire Wire Line
	13500 3900 14900 3900
Wire Wire Line
	14900 3900 14900 4300
Wire Wire Line
	14900 4300 14900 5550
Wire Wire Line
	14900 4300 15125 4300
Wire Wire Line
	15125 4300 15125 4400
Connection ~ 14900 4300
Wire Wire Line
	13500 3800 15600 3800
Wire Wire Line
	15600 3800 15600 4300
Wire Wire Line
	15600 4300 15600 5550
Wire Wire Line
	15600 4300 15800 4300
Wire Wire Line
	15800 4300 15800 4400
Connection ~ 15600 4300
Wire Wire Line
	13825 6950 13825 7150
Wire Wire Line
	13825 7150 13825 7250
Wire Wire Line
	13825 6950 13825 6775
Wire Wire Line
	13525 7650 13525 7150
Wire Wire Line
	13825 7150 13525 7150
Wire Wire Line
	14100 6775 14100 6950
Wire Wire Line
	13825 6950 14100 6950
Connection ~ 13825 6950
Connection ~ 13825 7150
Wire Wire Line
	14525 6950 14525 7150
Wire Wire Line
	14525 7150 14525 7250
Wire Wire Line
	14525 6950 14525 6775
Wire Wire Line
	14525 7150 14225 7150
Wire Wire Line
	14225 7150 14225 7650
Wire Wire Line
	14800 6800 14800 6950
Wire Wire Line
	14525 6950 14800 6950
Connection ~ 14525 6950
Connection ~ 14525 7150
Wire Wire Line
	15225 6950 15225 7150
Wire Wire Line
	15225 7150 15225 7250
Wire Wire Line
	15225 6950 15225 6775
Wire Wire Line
	15225 7150 14925 7150
Wire Wire Line
	14925 7150 14925 7650
Wire Wire Line
	15225 6950 15500 6950
Wire Wire Line
	15500 6950 15500 6800
Connection ~ 15225 6950
Connection ~ 15225 7150
Wire Wire Line
	13400 7150 13400 6775
Wire Wire Line
	12900 7150 13400 7150
Wire Wire Line
	13300 5550 13300 5450
Wire Wire Line
	13300 5450 13125 5450
Wire Wire Line
	13125 5450 13125 7650
Wire Wire Line
	13125 7650 12250 7650
Wire Wire Line
	12250 7550 12250 7650
Wire Wire Line
	12250 7650 12250 7750
Connection ~ 12250 7650
Wire Wire Line
	12250 7150 12250 6950
Wire Wire Line
	12250 6950 12700 6950
Connection ~ 12250 6950
Wire Wire Line
	9300 8200 9400 8200
Wire Wire Line
	9400 9100 9000 9100
Wire Wire Line
	9000 9100 9000 9000
Wire Wire Line
	9000 9000 9100 9000
Wire Wire Line
	9400 9300 9000 9300
Wire Wire Line
	9000 9300 9000 9400
Wire Wire Line
	9000 9400 9100 9400
Wire Wire Line
	9400 9600 9000 9600
Wire Wire Line
	10800 8400 11100 8400
Wire Wire Line
	9000 8700 9400 8700
Wire Wire Line
	10000 5500 10000 5550
Wire Wire Line
	10000 5550 10000 5600
Wire Wire Line
	9700 5400 9700 5550
Wire Wire Line
	9700 5550 10000 5550
Connection ~ 10000 5550
Text Label 10000 5600 0    70   ~ 0
RELAY_EN
Wire Wire Line
	8800 6450 8800 6600
Wire Wire Line
	8700 6600 8800 6600
Text Label 8700 6600 2    70   ~ 0
RELAY_EN
Wire Wire Line
	9100 5400 9200 5400
Wire Wire Line
	9200 5400 9200 5800
Wire Wire Line
	9400 5800 9200 5800
Text Label 9100 5400 0    70   ~ 0
SPEED_HI/LO
Wire Wire Line
	10500 6300 10500 6200
Connection ~ 10500 6300
Wire Wire Line
	14100 6150 14100 6375
Wire Wire Line
	14800 6150 14800 6400
Wire Wire Line
	15500 6150 15500 6400
Wire Wire Line
	13400 6375 13400 6150
Wire Wire Line
	5300 2900 5400 2900
Text Label 5400 2900 0    70   ~ 0
SLD
Wire Wire Line
	6875 7400 6800 7400
Text Label 6800 7400 0    70   ~ 0
SLD
Wire Wire Line
	9100 5300 9500 5300
Text Label 9100 5300 0    70   ~ 0
ERROR
Wire Wire Line
	12100 8800 11900 8800
Text Label 11900 8800 0    70   ~ 0
ERROR
Wire Wire Line
	2400 2300 3300 2300
Wire Wire Line
	3300 2300 3375 2300
Wire Wire Line
	3300 2300 3300 2100
Connection ~ 3300 2300
Wire Wire Line
	3900 1900 3800 1900
Wire Wire Line
	3800 1900 3800 2300
Wire Wire Line
	3775 2300 3800 2300
Wire Wire Line
	12450 7350 12700 7350
Wire Wire Line
	9900 6900 9800 6900
Wire Wire Line
	9800 7000 9900 7000
Wire Wire Line
	9900 7000 9900 6950
Wire Wire Line
	9900 6950 9900 6900
Wire Wire Line
	9900 6950 10000 6950
Connection ~ 9900 6950
Wire Wire Line
	9300 6900 9200 6900
Wire Wire Line
	9200 6900 9200 7000
Wire Wire Line
	9300 7000 9200 7000
Wire Wire Line
	9200 7000 9200 7150
Wire Wire Line
	10000 7150 9200 7150
Connection ~ 9200 7000
Wire Wire Line
	14000 5450 14000 5550
Wire Wire Line
	13825 5450 14000 5450
Wire Wire Line
	13825 6375 13825 5450
Wire Wire Line
	13825 5450 13825 5300
Connection ~ 13825 5450
Wire Wire Line
	14700 5450 14700 5550
Wire Wire Line
	14525 5450 14700 5450
Wire Wire Line
	14525 6375 14525 5450
Wire Wire Line
	14525 5450 14525 5300
Connection ~ 14525 5450
Wire Wire Line
	15225 6375 15225 5450
Wire Wire Line
	15225 5450 15400 5450
Wire Wire Line
	15400 5450 15400 5550
Wire Wire Line
	15225 5300 15225 5450
Connection ~ 15225 5450
$Comp
L Datalogger-eagle-import:74597N IC1
U 1 1 06F92037
P 7375 6800
F 0 "IC1" H 7350 6775 59  0000 L BNN
F 1 "74597N" H 7075 5800 59  0001 L BNN
F 2 "Datalogger:DIL16" H 7375 6800 50  0001 C CNN
F 3 "" H 7375 6800 50  0001 C CNN
	1    7375 6800
	1    0    0    -1  
$EndComp
$Comp
L Datalogger-eagle-import:PIC16F8P IC2
U 1 1 1E1AB8CA
P 8600 4700
F 0 "IC2" H 8200 5450 59  0000 L BNN
F 1 "PIC16F1847" H 8200 3800 59  0000 L BNN
F 2 "Datalogger:DIL18" H 8600 4700 50  0001 C CNN
F 3 "" H 8600 4700 50  0001 C CNN
	1    8600 4700
	1    0    0    -1  
$EndComp
$Comp
L Datalogger-eagle-import:SN74LV8151PW IC3
U 1 1 5ED25CA7
P 4800 3300
F 0 "IC3" H 4750 3275 59  0000 L BNN
F 1 "SN74LV8151PW" H 4600 -3300 59  0001 L BNN
F 2 "Datalogger:TSSOP24" H 4800 3300 50  0001 C CNN
F 3 "" H 4800 3300 50  0001 C CNN
	1    4800 3300
	1    0    0    -1  
$EndComp
$Comp
L Datalogger-eagle-import:SN74LV8151PW IC3
U 2 1 5ED25CAB
P 11300 1600
F 0 "IC3" H 11250 1575 59  0000 L BNN
F 1 "SN74LV8151PW" H 11100 -5000 59  0001 L BNN
F 2 "Datalogger:TSSOP24" H 11300 1600 50  0001 C CNN
F 3 "" H 11300 1600 50  0001 C CNN
	2    11300 1600
	1    0    0    -1  
$EndComp
$Comp
L Datalogger-eagle-import:GND #GND01
U 1 1 DB8695AC
P 6200 3700
F 0 "#GND01" H 6200 3700 50  0001 C CNN
F 1 "GND" H 6100 3600 59  0000 L BNN
F 2 "" H 6200 3700 50  0001 C CNN
F 3 "" H 6200 3700 50  0001 C CNN
	1    6200 3700
	1    0    0    -1  
$EndComp
$Comp
L Datalogger-eagle-import:RN08 RN1
U 1 1 DC7690A4
P 2900 4800
F 0 "RN1" V 2700 4900 59  0000 L BNN
F 1 "4.7k" H 2800 4630 59  0000 L BNN
F 2 "Datalogger:RN-9" H 2900 4800 50  0001 C CNN
F 3 "" H 2900 4800 50  0001 C CNN
	1    2900 4800
	0    1    1    0   
$EndComp
$Comp
L Datalogger-eagle-import:+5V #P+01
U 1 1 BCDF72C5
P 2900 4300
F 0 "#P+01" H 2900 4300 50  0001 C CNN
F 1 "+5V" V 2800 4100 59  0000 L BNN
F 2 "" H 2900 4300 50  0001 C CNN
F 3 "" H 2900 4300 50  0001 C CNN
	1    2900 4300
	1    0    0    -1  
$EndComp
$Comp
L Datalogger-eagle-import:+5V #P+02
U 1 1 339DE9D3
P 3500 3200
F 0 "#P+02" H 3500 3200 50  0001 C CNN
F 1 "+5V" V 3400 3000 59  0000 L BNN
F 2 "" H 3500 3200 50  0001 C CNN
F 3 "" H 3500 3200 50  0001 C CNN
	1    3500 3200
	1    0    0    -1  
$EndComp
$Comp
L Datalogger-eagle-import:GND #GND03
U 1 1 7679BDCC
P 2800 2800
F 0 "#GND03" H 2800 2800 50  0001 C CNN
F 1 "GND" H 2700 2700 59  0000 L BNN
F 2 "" H 2800 2800 50  0001 C CNN
F 3 "" H 2800 2800 50  0001 C CNN
	1    2800 2800
	1    0    0    -1  
$EndComp
$Comp
L Datalogger-eagle-import:C-USC1206K C4
U 1 1 284EA6E9
P 11000 1575
F 0 "C4" H 11040 1600 59  0000 L BNN
F 1 "100n" H 11040 1410 59  0000 L BNN
F 2 "Datalogger:C1206K" H 11000 1575 50  0001 C CNN
F 3 "" H 11000 1575 50  0001 C CNN
	1    11000 1575
	1    0    0    -1  
$EndComp
$Comp
L Datalogger-eagle-import:+5V #P+04
U 1 1 A7FDB2D8
P 11500 900
F 0 "#P+04" H 11500 900 50  0001 C CNN
F 1 "+5V" V 11400 700 59  0000 L BNN
F 2 "" H 11500 900 50  0001 C CNN
F 3 "" H 11500 900 50  0001 C CNN
	1    11500 900 
	1    0    0    -1  
$EndComp
$Comp
L Datalogger-eagle-import:+5V #P+06
U 1 1 B0F39303
P 13100 1100
F 0 "#P+06" H 13100 1100 50  0001 C CNN
F 1 "+5V" V 13000 900 59  0000 L BNN
F 2 "" H 13100 1100 50  0001 C CNN
F 3 "" H 13100 1100 50  0001 C CNN
	1    13100 1100
	1    0    0    -1  
$EndComp
$Comp
L Datalogger-eagle-import:GND #GND05
U 1 1 EF27308A
P 13900 2175
F 0 "#GND05" H 13900 2175 50  0001 C CNN
F 1 "GND" H 13800 2075 59  0000 L BNN
F 2 "" H 13900 2175 50  0001 C CNN
F 3 "" H 13900 2175 50  0001 C CNN
	1    13900 2175
	1    0    0    -1  
$EndComp
$Comp
L Datalogger-eagle-import:GND #GND06
U 1 1 A07C0193
P 2900 6800
F 0 "#GND06" H 2900 6800 50  0001 C CNN
F 1 "GND" H 2800 6700 59  0000 L BNN
F 2 "" H 2900 6800 50  0001 C CNN
F 3 "" H 2900 6800 50  0001 C CNN
	1    2900 6800
	1    0    0    -1  
$EndComp
$Comp
L Datalogger-eagle-import:R-US_M1206 R6
U 1 1 132D17D3
P 3575 2300
F 0 "R6" H 3425 2359 59  0000 L BNN
F 1 "3.3k" H 3425 2170 59  0000 L BNN
F 2 "Datalogger:M1206" H 3575 2300 50  0001 C CNN
F 3 "" H 3575 2300 50  0001 C CNN
	1    3575 2300
	-1   0    0    1   
$EndComp
$Comp
L Datalogger-eagle-import:+5V #P+08
U 1 1 B54CCCBB
P 4100 1100
F 0 "#P+08" H 4100 1100 50  0001 C CNN
F 1 "+5V" V 4000 900 59  0000 L BNN
F 2 "" H 4100 1100 50  0001 C CNN
F 3 "" H 4100 1100 50  0001 C CNN
	1    4100 1100
	1    0    0    -1  
$EndComp
$Comp
L Datalogger-eagle-import:GND #GND04
U 1 1 D896219B
P 11500 2200
F 0 "#GND04" H 11500 2200 50  0001 C CNN
F 1 "GND" H 11400 2100 59  0000 L BNN
F 2 "" H 11500 2200 50  0001 C CNN
F 3 "" H 11500 2200 50  0001 C CNN
	1    11500 2200
	1    0    0    -1  
$EndComp
$Comp
L Datalogger-eagle-import:74597N IC1
U 2 1 06F9203B
P 11700 1600
F 0 "IC1" H 11675 1575 59  0000 L BNN
F 1 "74597N" H 11400 600 59  0001 L BNN
F 2 "Datalogger:DIL16" H 11700 1600 50  0001 C CNN
F 3 "" H 11700 1600 50  0001 C CNN
	2    11700 1600
	1    0    0    -1  
$EndComp
$Comp
L Datalogger-eagle-import:C-USC1206K C1
U 1 1 218CB388
P 12000 1575
F 0 "C1" H 12040 1600 59  0000 L BNN
F 1 "100n" H 12040 1410 59  0000 L BNN
F 2 "Datalogger:C1206K" H 12000 1575 50  0001 C CNN
F 3 "" H 12000 1575 50  0001 C CNN
	1    12000 1575
	1    0    0    -1  
$EndComp
$Comp
L Datalogger-eagle-import:+5V #P+012
U 1 1 E517971B
P 9300 900
F 0 "#P+012" H 9300 900 50  0001 C CNN
F 1 "+5V" V 9237 875 59  0000 R TNN
F 2 "" H 9300 900 50  0001 C CNN
F 3 "" H 9300 900 50  0001 C CNN
	1    9300 900 
	1    0    0    -1  
$EndComp
$Comp
L Datalogger-eagle-import:GND #GND02
U 1 1 13A376EC
P 9300 1900
F 0 "#GND02" H 9300 1900 50  0001 C CNN
F 1 "GND" H 9200 1800 59  0000 L BNN
F 2 "" H 9300 1900 50  0001 C CNN
F 3 "" H 9300 1900 50  0001 C CNN
	1    9300 1900
	1    0    0    -1  
$EndComp
$Comp
L Datalogger-eagle-import:+5V #P+03
U 1 1 00F05DF6
P 7900 3300
F 0 "#P+03" H 7900 3300 50  0001 C CNN
F 1 "+5V" V 7800 3100 59  0000 L BNN
F 2 "" H 7900 3300 50  0001 C CNN
F 3 "" H 7900 3300 50  0001 C CNN
	1    7900 3300
	1    0    0    -1  
$EndComp
$Comp
L Datalogger-eagle-import:GND #GND07
U 1 1 9CDE76EF
P 8000 5600
F 0 "#GND07" H 8000 5600 50  0001 C CNN
F 1 "GND" H 7900 5500 59  0000 L BNN
F 2 "" H 8000 5600 50  0001 C CNN
F 3 "" H 8000 5600 50  0001 C CNN
	1    8000 5600
	1    0    0    -1  
$EndComp
$Comp
L Datalogger-eagle-import:XTAL_S Q1
U 1 1 D020216F
P 7500 4500
F 0 "Q1" H 7300 4650 59  0000 L BNN
F 1 "11.0592MHz" H 7300 4325 59  0000 L BNN
F 2 "Datalogger:QS" H 7500 4500 50  0001 C CNN
F 3 "" H 7500 4500 50  0001 C CNN
	1    7500 4500
	0    -1   -1   0   
$EndComp
$Comp
L Datalogger-eagle-import:C-USC0805K C2
U 1 1 BC7DD4B5
P 7200 4200
F 0 "C2" H 7240 4225 59  0000 L BNN
F 1 "22p" H 7240 4035 59  0000 L BNN
F 2 "Datalogger:C0805K" H 7200 4200 50  0001 C CNN
F 3 "" H 7200 4200 50  0001 C CNN
	1    7200 4200
	0    1    1    0   
$EndComp
$Comp
L Datalogger-eagle-import:C-USC0805K C3
U 1 1 DF924C4D
P 7200 4800
F 0 "C3" H 7240 4825 59  0000 L BNN
F 1 "22p" H 7240 4635 59  0000 L BNN
F 2 "Datalogger:C0805K" H 7200 4800 50  0001 C CNN
F 3 "" H 7200 4800 50  0001 C CNN
	1    7200 4800
	0    1    1    0   
$EndComp
$Comp
L Datalogger-eagle-import:GND #GND08
U 1 1 DF24F9E8
P 6900 5100
F 0 "#GND08" H 6900 5100 50  0001 C CNN
F 1 "GND" H 6800 5000 59  0000 L BNN
F 2 "" H 6900 5100 50  0001 C CNN
F 3 "" H 6900 5100 50  0001 C CNN
	1    6900 5100
	1    0    0    -1  
$EndComp
$Comp
L Datalogger-eagle-import:C-USC1206K C5
U 1 1 F9108C4C
P 7600 3700
F 0 "C5" H 7640 3725 59  0000 L BNN
F 1 "100n" H 7640 3535 59  0000 L BNN
F 2 "Datalogger:C1206K" H 7600 3700 50  0001 C CNN
F 3 "" H 7600 3700 50  0001 C CNN
	1    7600 3700
	1    0    0    -1  
$EndComp
$Comp
L Datalogger-eagle-import:GND #GND09
U 1 1 928DF91D
P 7600 4000
F 0 "#GND09" H 7600 4000 50  0001 C CNN
F 1 "GND" H 7500 3900 59  0000 L BNN
F 2 "" H 7600 4000 50  0001 C CNN
F 3 "" H 7600 4000 50  0001 C CNN
	1    7600 4000
	1    0    0    -1  
$EndComp
$Comp
L Datalogger-eagle-import:R-US_M1206 R1
U 1 1 1C1E0795
P 12300 8800
F 0 "R1" H 12150 8859 59  0000 L BNN
F 1 "470" H 12150 8670 59  0000 L BNN
F 2 "Datalogger:M1206" H 12300 8800 50  0001 C CNN
F 3 "" H 12300 8800 50  0001 C CNN
	1    12300 8800
	1    0    0    -1  
$EndComp
$Comp
L Datalogger-eagle-import:LED3MM ERROR1
U 1 1 37CB0074
P 12700 8800
F 0 "ERROR1" V 12840 8620 59  0000 L BNN
F 1 "LED3MM" V 12925 8620 59  0000 L BNN
F 2 "Datalogger:LED3MM" H 12700 8800 50  0001 C CNN
F 3 "" H 12700 8800 50  0001 C CNN
	1    12700 8800
	0    -1   -1   0   
$EndComp
$Comp
L Datalogger-eagle-import:GND #GND010
U 1 1 845C69E3
P 13100 9000
F 0 "#GND010" H 13100 9000 50  0001 C CNN
F 1 "GND" H 13000 8900 59  0000 L BNN
F 2 "" H 13100 9000 50  0001 C CNN
F 3 "" H 13100 9000 50  0001 C CNN
	1    13100 9000
	1    0    0    -1  
$EndComp
$Comp
L Datalogger-eagle-import:B-DIL B1
U 1 1 99FB3BEE
P 15000 1400
F 0 "B1" H 14975 1725 59  0000 L BNN
F 1 "B-DIL" H 15275 950 59  0000 R TNN
F 2 "Datalogger:B-DIL" H 15000 1400 50  0001 C CNN
F 3 "" H 15000 1400 50  0001 C CNN
	1    15000 1400
	-1   0    0    -1  
$EndComp
$Comp
L Datalogger-eagle-import:CPOL-USE5-8.5 C6
U 1 1 A9E2AE7E
P 14500 1575
F 0 "C6" H 14540 1600 59  0000 L BNN
F 1 "1000u" H 14540 1410 59  0000 L BNN
F 2 "Datalogger:E5-8,5" H 14500 1575 50  0001 C CNN
F 3 "" H 14500 1575 50  0001 C CNN
	1    14500 1575
	1    0    0    -1  
$EndComp
$Comp
L Datalogger-eagle-import:W237-102 AC_IN1
U 1 1 726E229B
P 15600 1075
F 0 "AC_IN1" H 15600 1110 59  0000 R TNN
F 1 "12 Vrms" H 15500 930 59  0000 L BNN
F 2 "Datalogger:W237-102" H 15600 1075 50  0001 C CNN
F 3 "" H 15600 1075 50  0001 C CNN
	1    15600 1075
	-1   0    0    1   
$EndComp
$Comp
L Datalogger-eagle-import:W237-102 AC_IN1
U 2 1 726E2297
P 15600 1775
F 0 "AC_IN1" H 15600 1810 59  0000 R TNN
F 1 "12 Vrms" H 15375 1380 59  0000 L BNN
F 2 "Datalogger:W237-102" H 15600 1775 50  0001 C CNN
F 3 "" H 15600 1775 50  0001 C CNN
	2    15600 1775
	-1   0    0    1   
$EndComp
$Comp
L Datalogger-eagle-import:W237-10P DIRECTION_SENSOR1
U 1 1 1A8A01EA
P 2700 5300
F 0 "DIRECTION_SENSOR1" H 2650 5335 59  0000 R TNN
F 1 "W237-10P" H 2700 5400 59  0000 L BNN
F 2 "Datalogger:W237-10P" H 2700 5300 50  0001 C CNN
F 3 "" H 2700 5300 50  0001 C CNN
	1    2700 5300
	1    0    0    -1  
$EndComp
$Comp
L Datalogger-eagle-import:W237-10P DIRECTION_SENSOR1
U 2 1 1A8A01E6
P 2700 5400
F 0 "DIRECTION_SENSOR1" H 2650 5435 59  0000 R TNN
F 1 "W237-10P" H 2700 5500 59  0000 L BNN
F 2 "Datalogger:W237-10P" H 2700 5400 50  0001 C CNN
F 3 "" H 2700 5400 50  0001 C CNN
	2    2700 5400
	1    0    0    -1  
$EndComp
$Comp
L Datalogger-eagle-import:W237-10P DIRECTION_SENSOR1
U 3 1 1A8A01E2
P 2700 5500
F 0 "DIRECTION_SENSOR1" H 2650 5535 59  0000 R TNN
F 1 "W237-10P" H 2700 5600 59  0000 L BNN
F 2 "Datalogger:W237-10P" H 2700 5500 50  0001 C CNN
F 3 "" H 2700 5500 50  0001 C CNN
	3    2700 5500
	1    0    0    -1  
$EndComp
$Comp
L Datalogger-eagle-import:W237-10P DIRECTION_SENSOR1
U 4 1 1A8A01FE
P 2700 5600
F 0 "DIRECTION_SENSOR1" H 2650 5635 59  0000 R TNN
F 1 "W237-10P" H 2700 5700 59  0000 L BNN
F 2 "Datalogger:W237-10P" H 2700 5600 50  0001 C CNN
F 3 "" H 2700 5600 50  0001 C CNN
	4    2700 5600
	1    0    0    -1  
$EndComp
$Comp
L Datalogger-eagle-import:W237-10P DIRECTION_SENSOR1
U 5 1 1A8A01FA
P 2700 5700
F 0 "DIRECTION_SENSOR1" H 2650 5735 59  0000 R TNN
F 1 "W237-10P" H 2700 5800 59  0000 L BNN
F 2 "Datalogger:W237-10P" H 2700 5700 50  0001 C CNN
F 3 "" H 2700 5700 50  0001 C CNN
	5    2700 5700
	1    0    0    -1  
$EndComp
$Comp
L Datalogger-eagle-import:W237-10P DIRECTION_SENSOR1
U 6 1 1A8A01F6
P 2700 5800
F 0 "DIRECTION_SENSOR1" H 2650 5835 59  0000 R TNN
F 1 "W237-10P" H 2700 5900 59  0000 L BNN
F 2 "Datalogger:W237-10P" H 2700 5800 50  0001 C CNN
F 3 "" H 2700 5800 50  0001 C CNN
	6    2700 5800
	1    0    0    -1  
$EndComp
$Comp
L Datalogger-eagle-import:W237-10P DIRECTION_SENSOR1
U 7 1 1A8A01F2
P 2700 5900
F 0 "DIRECTION_SENSOR1" H 2650 5935 59  0000 R TNN
F 1 "W237-10P" H 2700 6000 59  0000 L BNN
F 2 "Datalogger:W237-10P" H 2700 5900 50  0001 C CNN
F 3 "" H 2700 5900 50  0001 C CNN
	7    2700 5900
	1    0    0    -1  
$EndComp
$Comp
L Datalogger-eagle-import:W237-10P DIRECTION_SENSOR1
U 8 1 1A8A01CE
P 2700 6000
F 0 "DIRECTION_SENSOR1" H 2650 6035 59  0000 R TNN
F 1 "W237-10P" H 2700 6100 59  0000 L BNN
F 2 "Datalogger:W237-10P" H 2700 6000 50  0001 C CNN
F 3 "" H 2700 6000 50  0001 C CNN
	8    2700 6000
	1    0    0    -1  
$EndComp
$Comp
L Datalogger-eagle-import:W237-10P DIRECTION_SENSOR1
U 9 1 1A8A01CA
P 2400 6500
F 0 "DIRECTION_SENSOR1" H 2350 6535 59  0000 R TNN
F 1 "W237-10P" H 2400 6600 59  0000 L BNN
F 2 "Datalogger:W237-10P" H 2400 6500 50  0001 C CNN
F 3 "" H 2400 6500 50  0001 C CNN
	9    2400 6500
	1    0    0    -1  
$EndComp
$Comp
L Datalogger-eagle-import:W237-10P DIRECTION_SENSOR1
U 10 1 1A8A01C6
P 2400 6400
F 0 "DIRECTION_SENSOR1" H 2350 6435 59  0000 R TNN
F 1 "W237-10P" H 1925 6125 59  0000 L BNN
F 2 "Datalogger:W237-10P" H 2400 6400 50  0001 C CNN
F 3 "" H 2400 6400 50  0001 C CNN
	10   2400 6400
	1    0    0    -1  
$EndComp
$Comp
L Datalogger-eagle-import:+12V #P+05
U 1 1 33ACA7EC
P 14500 1000
F 0 "#P+05" H 14500 1000 50  0001 C CNN
F 1 "+12V" V 14400 800 59  0000 L BNN
F 2 "" H 14500 1000 50  0001 C CNN
F 3 "" H 14500 1000 50  0001 C CNN
	1    14500 1000
	1    0    0    -1  
$EndComp
$Comp
L Datalogger-eagle-import:W237-3E SPEED_SENSOR1
U 1 1 A3D53289
P 2200 2100
F 0 "SPEED_SENSOR1" H 2150 2135 59  0000 R TNN
F 1 "W237-3E" H 2200 2200 59  0001 L BNN
F 2 "Datalogger:W237-3E" H 2200 2100 50  0001 C CNN
F 3 "" H 2200 2100 50  0001 C CNN
	1    2200 2100
	1    0    0    -1  
$EndComp
$Comp
L Datalogger-eagle-import:W237-3E SPEED_SENSOR1
U 2 1 A3D53285
P 2200 2300
F 0 "SPEED_SENSOR1" H 2150 2335 59  0000 R TNN
F 1 "W237-3E" H 2200 2400 59  0001 L BNN
F 2 "Datalogger:W237-3E" H 2200 2300 50  0001 C CNN
F 3 "" H 2200 2300 50  0001 C CNN
	2    2200 2300
	1    0    0    -1  
$EndComp
$Comp
L Datalogger-eagle-import:W237-3E SPEED_SENSOR1
U 3 1 A3D53281
P 2200 2500
F 0 "SPEED_SENSOR1" H 2150 2535 59  0000 R TNN
F 1 "W237-3E" H 1925 2325 59  0000 L BNN
F 2 "Datalogger:W237-3E" H 2200 2500 50  0001 C CNN
F 3 "" H 2200 2500 50  0001 C CNN
	3    2200 2500
	1    0    0    -1  
$EndComp
$Comp
L Datalogger-eagle-import:MAX232ACSE+ U1
U 1 1 F9562130
P 10100 8800
F 0 "U1" H 9914 9959 69  0000 L BNN
F 1 "MAX232ACSE+" H 9783 7459 69  0000 L BNN
F 2 "Datalogger:SOIC127P600X175-16N" H 10100 8800 50  0001 C CNN
F 3 "" H 10100 8800 50  0001 C CNN
	1    10100 8800
	1    0    0    -1  
$EndComp
$Comp
L Datalogger-eagle-import:AD8608R IC4
U 1 1 46657C43
P 15500 5850
F 0 "IC4" H 15600 5975 59  0001 L BNN
F 1 "AD8608R" H 15600 5650 59  0001 L BNN
F 2 "Datalogger:SO-14" H 15500 5850 50  0001 C CNN
F 3 "" H 15500 5850 50  0001 C CNN
	1    15500 5850
	0    1    1    0   
$EndComp
$Comp
L Datalogger-eagle-import:AD8608R IC4
U 2 1 46657C4F
P 14800 5850
F 0 "IC4" H 14900 5975 59  0001 L BNN
F 1 "AD8608R" H 14900 5650 59  0001 L BNN
F 2 "Datalogger:SO-14" H 14800 5850 50  0001 C CNN
F 3 "" H 14800 5850 50  0001 C CNN
	2    14800 5850
	0    1    1    0   
$EndComp
$Comp
L Datalogger-eagle-import:AD8608R IC4
U 4 1 46657C57
P 14100 5850
F 0 "IC4" H 14200 5975 59  0001 L BNN
F 1 "AD8608R" H 14200 5650 59  0001 L BNN
F 2 "Datalogger:SO-14" H 14100 5850 50  0001 C CNN
F 3 "" H 14100 5850 50  0001 C CNN
	4    14100 5850
	0    1    1    0   
$EndComp
$Comp
L Datalogger-eagle-import:AD8608R IC4
U 3 1 46657C4B
P 13400 5850
F 0 "IC4" H 13500 5975 59  0001 L BNN
F 1 "AD8608R" H 13500 5650 59  0001 L BNN
F 2 "Datalogger:SO-14" H 13400 5850 50  0001 C CNN
F 3 "" H 13400 5850 50  0001 C CNN
	3    13400 5850
	0    1    1    0   
$EndComp
$Comp
L Datalogger-eagle-import:AD8608R IC4
U 5 1 46657C53
P 11500 1575
F 0 "IC4" H 11600 1700 59  0001 L BNN
F 1 "AD8608R" H 11600 1375 59  0001 L BNN
F 2 "Datalogger:SO-14" H 11500 1575 50  0001 C CNN
F 3 "" H 11500 1575 50  0001 C CNN
	5    11500 1575
	-1   0    0    -1  
$EndComp
$Comp
L Datalogger-eagle-import:AD5696RBRUZ U2
U 1 1 C2DEB937
P 12300 4500
F 0 "U2" H 12075 5474 69  0000 L BNN
F 1 "AD5696RBRUZ" H 12015 3248 69  0000 L BNN
F 2 "Datalogger:SOP65P640X120-16N" H 12300 4500 50  0001 C CNN
F 3 "" H 12300 4500 50  0001 C CNN
	1    12300 4500
	1    0    0    -1  
$EndComp
$Comp
L Datalogger-eagle-import:A3L-LOC #FRAME1
U 1 1 73DA64CA
P 900 10800
F 0 "#FRAME1" H 900 10800 50  0001 C CNN
F 1 "A3L-LOC" H 900 10800 50  0001 C CNN
F 2 "" H 900 10800 50  0001 C CNN
F 3 "" H 900 10800 50  0001 C CNN
	1    900  10800
	1    0    0    -1  
$EndComp
$Comp
L Datalogger-eagle-import:+5V #P+010
U 1 1 99CC31BE
P 6500 6925
F 0 "#P+010" H 6500 6925 50  0001 C CNN
F 1 "+5V" V 6400 6725 59  0000 L BNN
F 2 "" H 6500 6925 50  0001 C CNN
F 3 "" H 6500 6925 50  0001 C CNN
	1    6500 6925
	1    0    0    -1  
$EndComp
$Comp
L Datalogger-eagle-import:R-US_M1206 R4
U 1 1 FFC636DE
P 10800 4200
F 0 "R4" H 10650 4259 59  0000 L BNN
F 1 "4.7k" H 10650 4070 59  0000 L BNN
F 2 "Datalogger:M1206" H 10800 4200 50  0001 C CNN
F 3 "" H 10800 4200 50  0001 C CNN
	1    10800 4200
	0    -1   -1   0   
$EndComp
$Comp
L Datalogger-eagle-import:R-US_M1206 R5
U 1 1 607EDF46
P 10500 4200
F 0 "R5" H 10350 4259 59  0000 L BNN
F 1 "4.7k" H 10350 4070 59  0000 L BNN
F 2 "Datalogger:M1206" H 10500 4200 50  0001 C CNN
F 3 "" H 10500 4200 50  0001 C CNN
	1    10500 4200
	0    -1   -1   0   
$EndComp
$Comp
L Datalogger-eagle-import:+5V #P+011
U 1 1 FBD5C941
P 10650 3700
F 0 "#P+011" H 10650 3700 50  0001 C CNN
F 1 "+5V" V 10550 3500 59  0000 L BNN
F 2 "" H 10650 3700 50  0001 C CNN
F 3 "" H 10650 3700 50  0001 C CNN
	1    10650 3700
	1    0    0    -1  
$EndComp
$Comp
L Datalogger-eagle-import:C-USC0805 C9
U 1 1 27EB63CA
P 11100 5125
F 0 "C9" H 11140 5150 59  0000 L BNN
F 1 "100n" H 11140 4960 59  0000 L BNN
F 2 "Datalogger:C0805" H 11100 5125 50  0001 C CNN
F 3 "" H 11100 5125 50  0001 C CNN
	1    11100 5125
	-1   0    0    -1  
$EndComp
$Comp
L Datalogger-eagle-import:GND #GND011
U 1 1 19DA8D48
P 11100 5600
F 0 "#GND011" H 11100 5600 50  0001 C CNN
F 1 "GND" H 11000 5500 59  0000 L BNN
F 2 "" H 11100 5600 50  0001 C CNN
F 3 "" H 11100 5600 50  0001 C CNN
	1    11100 5600
	1    0    0    -1  
$EndComp
$Comp
L Datalogger-eagle-import:C-USC0805K C10
U 1 1 BF98E6C5
P 10800 3200
F 0 "C10" H 10840 3225 59  0000 L BNN
F 1 "100n" H 10840 3035 59  0000 L BNN
F 2 "Datalogger:C0805K" H 10800 3200 50  0001 C CNN
F 3 "" H 10800 3200 50  0001 C CNN
	1    10800 3200
	-1   0    0    -1  
$EndComp
$Comp
L Datalogger-eagle-import:GND #GND012
U 1 1 A5F18D96
P 10800 3550
F 0 "#GND012" H 10800 3550 50  0001 C CNN
F 1 "GND" H 10700 3450 59  0000 L BNN
F 2 "" H 10800 3550 50  0001 C CNN
F 3 "" H 10800 3550 50  0001 C CNN
	1    10800 3550
	1    0    0    -1  
$EndComp
$Comp
L Datalogger-eagle-import:+5V #P+013
U 1 1 9B33CC1C
P 10800 2800
F 0 "#P+013" H 10800 2800 50  0001 C CNN
F 1 "+5V" V 10737 2775 59  0000 R TNN
F 2 "" H 10800 2800 50  0001 C CNN
F 3 "" H 10800 2800 50  0001 C CNN
	1    10800 2800
	1    0    0    -1  
$EndComp
$Comp
L Datalogger-eagle-import:R-US_M1206 R7
U 1 1 6C012852
P 13300 3800
F 0 "R7" H 13400 3734 59  0000 L BNN
F 1 "10k" H 13200 3645 59  0000 L BNN
F 2 "Datalogger:M1206" H 13300 3800 50  0001 C CNN
F 3 "" H 13300 3800 50  0001 C CNN
	1    13300 3800
	-1   0    0    1   
$EndComp
$Comp
L Datalogger-eagle-import:R-US_M1206 R8
U 1 1 41D07F0A
P 13300 3900
F 0 "R8" H 13400 3834 59  0000 L BNN
F 1 "10k" H 13200 3645 59  0000 L BNN
F 2 "Datalogger:M1206" H 13300 3900 50  0001 C CNN
F 3 "" H 13300 3900 50  0001 C CNN
	1    13300 3900
	-1   0    0    1   
$EndComp
$Comp
L Datalogger-eagle-import:R-US_M1206 R9
U 1 1 5DE26417
P 13300 4000
F 0 "R9" H 13400 3934 59  0000 L BNN
F 1 "10k" H 13200 3645 59  0000 L BNN
F 2 "Datalogger:M1206" H 13300 4000 50  0001 C CNN
F 3 "" H 13300 4000 50  0001 C CNN
	1    13300 4000
	-1   0    0    1   
$EndComp
$Comp
L Datalogger-eagle-import:R-US_M1206 R10
U 1 1 0A067037
P 13300 4100
F 0 "R10" H 13400 4034 59  0000 L BNN
F 1 "10k" H 13210 4165 59  0000 L BNN
F 2 "Datalogger:M1206" H 13300 4100 50  0001 C CNN
F 3 "" H 13300 4100 50  0001 C CNN
	1    13300 4100
	-1   0    0    1   
$EndComp
$Comp
L Datalogger-eagle-import:C-USC1206K C12
U 1 1 5225900B
P 13725 4500
F 0 "C12" H 13765 4525 59  0000 L BNN
F 1 "100n" H 13765 4335 59  0000 L BNN
F 2 "Datalogger:C1206K" H 13725 4500 50  0001 C CNN
F 3 "" H 13725 4500 50  0001 C CNN
	1    13725 4500
	1    0    0    -1  
$EndComp
$Comp
L Datalogger-eagle-import:C-USC1206K C13
U 1 1 9AFB8C1C
P 14425 4500
F 0 "C13" H 14465 4525 59  0000 L BNN
F 1 "100n" H 14465 4335 59  0000 L BNN
F 2 "Datalogger:C1206K" H 14425 4500 50  0001 C CNN
F 3 "" H 14425 4500 50  0001 C CNN
	1    14425 4500
	1    0    0    -1  
$EndComp
$Comp
L Datalogger-eagle-import:C-USC1206K C14
U 1 1 7E2E4EF0
P 15125 4500
F 0 "C14" H 15165 4525 59  0000 L BNN
F 1 "100n" H 15165 4335 59  0000 L BNN
F 2 "Datalogger:C1206K" H 15125 4500 50  0001 C CNN
F 3 "" H 15125 4500 50  0001 C CNN
	1    15125 4500
	1    0    0    -1  
$EndComp
$Comp
L Datalogger-eagle-import:C-USC1206K C15
U 1 1 9DEF2EB6
P 15800 4500
F 0 "C15" H 15840 4525 59  0000 L BNN
F 1 "100n" H 15840 4335 59  0000 L BNN
F 2 "Datalogger:C1206K" H 15800 4500 50  0001 C CNN
F 3 "" H 15800 4500 50  0001 C CNN
	1    15800 4500
	1    0    0    -1  
$EndComp
$Comp
L Datalogger-eagle-import:GND #GND013
U 1 1 9E3D6951
P 15800 4900
F 0 "#GND013" H 15800 4900 50  0001 C CNN
F 1 "GND" H 15700 4800 59  0000 L BNN
F 2 "" H 15800 4900 50  0001 C CNN
F 3 "" H 15800 4900 50  0001 C CNN
	1    15800 4900
	1    0    0    -1  
$EndComp
$Comp
L Datalogger-eagle-import:R-US_R1206 R11
U 1 1 BC243054
P 15225 7450
F 0 "R11" H 15075 7509 59  0000 L BNN
F 1 "10k" H 15075 7320 59  0000 L BNN
F 2 "Datalogger:R1206" H 15225 7450 50  0001 C CNN
F 3 "" H 15225 7450 50  0001 C CNN
	1    15225 7450
	0    -1   -1   0   
$EndComp
$Comp
L Datalogger-eagle-import:R-US_R1206 R12
U 1 1 0E8D017C
P 14525 7450
F 0 "R12" H 14375 7509 59  0000 L BNN
F 1 "10k" H 14375 7320 59  0000 L BNN
F 2 "Datalogger:R1206" H 14525 7450 50  0001 C CNN
F 3 "" H 14525 7450 50  0001 C CNN
	1    14525 7450
	0    -1   -1   0   
$EndComp
$Comp
L Datalogger-eagle-import:R-US_R1206 R13
U 1 1 DEE37B10
P 13825 7450
F 0 "R13" H 13675 7509 59  0000 L BNN
F 1 "10k" H 13675 7320 59  0000 L BNN
F 2 "Datalogger:R1206" H 13825 7450 50  0001 C CNN
F 3 "" H 13825 7450 50  0001 C CNN
	1    13825 7450
	0    -1   -1   0   
$EndComp
$Comp
L Datalogger-eagle-import:GND #GND014
U 1 1 109F320A
P 15225 7750
F 0 "#GND014" H 15225 7750 50  0001 C CNN
F 1 "GND" H 15125 7650 59  0000 L BNN
F 2 "" H 15225 7750 50  0001 C CNN
F 3 "" H 15225 7750 50  0001 C CNN
	1    15225 7750
	1    0    0    -1  
$EndComp
$Comp
L Datalogger-eagle-import:GND #GND015
U 1 1 257B06B4
P 14525 7750
F 0 "#GND015" H 14525 7750 50  0001 C CNN
F 1 "GND" H 14425 7650 59  0000 L BNN
F 2 "" H 14525 7750 50  0001 C CNN
F 3 "" H 14525 7750 50  0001 C CNN
	1    14525 7750
	1    0    0    -1  
$EndComp
$Comp
L Datalogger-eagle-import:GND #GND016
U 1 1 99D4D269
P 13825 7750
F 0 "#GND016" H 13825 7750 50  0001 C CNN
F 1 "GND" H 13725 7650 59  0000 L BNN
F 2 "" H 13825 7750 50  0001 C CNN
F 3 "" H 13825 7750 50  0001 C CNN
	1    13825 7750
	1    0    0    -1  
$EndComp
$Comp
L Datalogger-eagle-import:R-US_0411_12 R14
U 1 1 62F1D722
P 12250 7950
F 0 "R14" H 12100 8009 59  0000 L BNN
F 1 "120" H 12100 7820 59  0000 L BNN
F 2 "Datalogger:0411_12" H 12250 7950 50  0001 C CNN
F 3 "" H 12250 7950 50  0001 C CNN
	1    12250 7950
	0    -1   -1   0   
$EndComp
$Comp
L Datalogger-eagle-import:GND #GND017
U 1 1 0A5A0AC8
P 12250 8350
F 0 "#GND017" H 12250 8350 50  0001 C CNN
F 1 "GND" H 12150 8250 59  0000 L BNN
F 2 "" H 12250 8350 50  0001 C CNN
F 3 "" H 12250 8350 50  0001 C CNN
	1    12250 8350
	1    0    0    -1  
$EndComp
$Comp
L Datalogger-eagle-import:W237-103 DIRECTION1
U 1 1 00851B23
P 13525 7850
F 0 "DIRECTION1" H 13525 7885 59  0000 R TNN
F 1 "W237-103" H 13425 7705 59  0000 L BNN
F 2 "Datalogger:W237-103" H 13525 7850 50  0001 C CNN
F 3 "" H 13525 7850 50  0001 C CNN
	1    13525 7850
	0    -1   -1   0   
$EndComp
$Comp
L Datalogger-eagle-import:W237-103 DIRECTION1
U 2 1 00851B2F
P 14225 7850
F 0 "DIRECTION1" H 14225 7885 59  0000 R TNN
F 1 "W237-103" H 14125 7705 59  0000 L BNN
F 2 "Datalogger:W237-103" H 14225 7850 50  0001 C CNN
F 3 "" H 14225 7850 50  0001 C CNN
	2    14225 7850
	0    -1   -1   0   
$EndComp
$Comp
L Datalogger-eagle-import:W237-103 DIRECTION1
U 3 1 00851B2B
P 14925 7850
F 0 "DIRECTION1" H 14925 7885 59  0000 R TNN
F 1 "W237-103" V 14645 7950 59  0000 L BNN
F 2 "Datalogger:W237-103" H 14925 7850 50  0001 C CNN
F 3 "" H 14925 7850 50  0001 C CNN
	3    14925 7850
	0    -1   -1   0   
$EndComp
$Comp
L Datalogger-eagle-import:+5V #P+018
U 1 1 21F8E9C7
P 9300 7600
F 0 "#P+018" H 9300 7600 50  0001 C CNN
F 1 "+5V" V 9200 7400 59  0000 L BNN
F 2 "" H 9300 7600 50  0001 C CNN
F 3 "" H 9300 7600 50  0001 C CNN
	1    9300 7600
	-1   0    0    -1  
$EndComp
$Comp
L Datalogger-eagle-import:GND #GND018
U 1 1 E0081D19
P 9300 10100
F 0 "#GND018" H 9300 10100 50  0001 C CNN
F 1 "GND" H 9200 10000 59  0000 L BNN
F 2 "" H 9300 10100 50  0001 C CNN
F 3 "" H 9300 10100 50  0001 C CNN
	1    9300 10100
	-1   0    0    -1  
$EndComp
$Comp
L Datalogger-eagle-import:C-USC1206K C16
U 1 1 E207C13D
P 8600 8000
F 0 "C16" H 8640 8025 59  0000 L BNN
F 1 "100n" H 8640 7835 59  0000 L BNN
F 2 "Datalogger:C1206K" H 8600 8000 50  0001 C CNN
F 3 "" H 8600 8000 50  0001 C CNN
	1    8600 8000
	1    0    0    -1  
$EndComp
$Comp
L Datalogger-eagle-import:GND #GND019
U 1 1 48B3EBD8
P 8600 8300
F 0 "#GND019" H 8600 8300 50  0001 C CNN
F 1 "GND" H 8500 8200 59  0000 L BNN
F 2 "" H 8600 8300 50  0001 C CNN
F 3 "" H 8600 8300 50  0001 C CNN
	1    8600 8300
	-1   0    0    -1  
$EndComp
$Comp
L Datalogger-eagle-import:C-USC1206K C17
U 1 1 383227E3
P 9200 8200
F 0 "C17" H 9240 8225 59  0000 L BNN
F 1 "100n" H 9240 8035 59  0000 L BNN
F 2 "Datalogger:C1206K" H 9200 8200 50  0001 C CNN
F 3 "" H 9200 8200 50  0001 C CNN
	1    9200 8200
	0    1    1    0   
$EndComp
$Comp
L Datalogger-eagle-import:C-USC0805K C18
U 1 1 52B654BE
P 9200 9000
F 0 "C18" V 9275 9040 59  0000 L BNN
F 1 "100n" V 9390 8890 59  0000 L BNN
F 2 "Datalogger:C0805K" H 9200 9000 50  0001 C CNN
F 3 "" H 9200 9000 50  0001 C CNN
	1    9200 9000
	0    -1   -1   0   
$EndComp
$Comp
L Datalogger-eagle-import:C-USC0805K C19
U 1 1 5D88D454
P 9200 9400
F 0 "C19" V 9275 9415 59  0000 L BNN
F 1 "100n" V 9390 9265 59  0000 L BNN
F 2 "Datalogger:C0805K" H 9200 9400 50  0001 C CNN
F 3 "" H 9200 9400 50  0001 C CNN
	1    9200 9400
	0    -1   -1   0   
$EndComp
$Comp
L Datalogger-eagle-import:C-USC1206K C20
U 1 1 1D7B263C
P 9000 9700
F 0 "C20" H 9040 9725 59  0000 L BNN
F 1 "100n" H 9040 9535 59  0000 L BNN
F 2 "Datalogger:C1206K" H 9000 9700 50  0001 C CNN
F 3 "" H 9000 9700 50  0001 C CNN
	1    9000 9700
	1    0    0    -1  
$EndComp
$Comp
L Datalogger-eagle-import:W237-103 RS232
U 1 1 80268AB5
P 8800 8700
F 0 "RS232" H 8800 8735 59  0000 R TNN
F 1 "W237-103" H 8700 8555 59  0000 L BNN
F 2 "Datalogger:W237-103" H 8800 8700 50  0001 C CNN
F 3 "" H 8800 8700 50  0001 C CNN
	1    8800 8700
	1    0    0    -1  
$EndComp
$Comp
L Datalogger-eagle-import:W237-103 RS232
U 2 1 80268AB9
P 8700 9950
F 0 "RS232" H 8700 9985 59  0000 R TNN
F 1 "W237-103" H 8600 9805 59  0000 L BNN
F 2 "Datalogger:W237-103" H 8700 9950 50  0001 C CNN
F 3 "" H 8700 9950 50  0001 C CNN
	2    8700 9950
	1    0    0    -1  
$EndComp
$Comp
L Datalogger-eagle-import:W237-103 RS232
U 3 1 80268ABD
P 11300 8400
F 0 "RS232" H 11300 8435 59  0000 R TNN
F 1 "W237-103" H 11200 8255 59  0000 L BNN
F 2 "Datalogger:W237-103" H 11300 8400 50  0001 C CNN
F 3 "" H 11300 8400 50  0001 C CNN
	3    11300 8400
	-1   0    0    1   
$EndComp
$Comp
L Datalogger-eagle-import:RR1A RL2
U 1 1 C6EF9853
P 8800 6250
F 0 "RL2" H 8800 6250 50  0001 C CNN
F 1 "RR1A" H 9000 6140 59  0001 L BNN
F 2 "Datalogger:RR1A" H 8800 6250 50  0001 C CNN
F 3 "" H 8800 6250 50  0001 C CNN
	1    8800 6250
	1    0    0    -1  
$EndComp
$Comp
L Datalogger-eagle-import:RR1A RL2
U 2 1 C6EF985F
P 9600 7000
F 0 "RL2" H 9600 7000 50  0001 C CNN
F 1 "RR1A" H 9650 7115 59  0001 L BNN
F 2 "Datalogger:RR1A" H 9600 7000 50  0001 C CNN
F 3 "" H 9600 7000 50  0001 C CNN
	2    9600 7000
	0    1    1    0   
$EndComp
$Comp
L Datalogger-eagle-import:W237-102 SPEED1
U 1 1 AC3053F1
P 12050 6650
F 0 "SPEED1" H 12050 6685 59  0000 R TNN
F 1 "W237-102" H 11950 6505 59  0000 L BNN
F 2 "Datalogger:W237-102" H 12050 6650 50  0001 C CNN
F 3 "" H 12050 6650 50  0001 C CNN
	1    12050 6650
	1    0    0    -1  
$EndComp
$Comp
L Datalogger-eagle-import:W237-102 SPEED1
U 2 1 AC3053FD
P 12050 6950
F 0 "SPEED1" H 12050 6985 59  0000 R TNN
F 1 "W237-102" H 11475 6780 59  0000 L BNN
F 2 "Datalogger:W237-102" H 12050 6950 50  0001 C CNN
F 3 "" H 12050 6950 50  0001 C CNN
	2    12050 6950
	1    0    0    -1  
$EndComp
$Comp
L Datalogger-eagle-import:BC547 T1
U 1 1 011D2A96
P 9900 5800
F 0 "T1" H 10025 5800 59  0000 L BNN
F 1 "BC547" H 10025 5700 59  0000 L BNN
F 2 "Datalogger:TO92" H 9900 5800 50  0001 C CNN
F 3 "" H 9900 5800 50  0001 C CNN
	1    9900 5800
	1    0    0    -1  
$EndComp
$Comp
L Datalogger-eagle-import:+12V #P+019
U 1 1 A2BCAE6A
P 10000 4900
F 0 "#P+019" H 10000 4900 50  0001 C CNN
F 1 "+12V" V 9925 4950 59  0000 R TNN
F 2 "" H 10000 4900 50  0001 C CNN
F 3 "" H 10000 4900 50  0001 C CNN
	1    10000 4900
	-1   0    0    -1  
$EndComp
$Comp
L Datalogger-eagle-import:+12V #P+020
U 1 1 0B44AC3A
P 8800 5950
F 0 "#P+020" H 8800 5950 50  0001 C CNN
F 1 "+12V" V 8500 5925 59  0000 L BNN
F 2 "" H 8800 5950 50  0001 C CNN
F 3 "" H 8800 5950 50  0001 C CNN
	1    8800 5950
	1    0    0    -1  
$EndComp
$Comp
L Datalogger-eagle-import:R-US_M1206 R2
U 1 1 E6A6F2CC
P 9600 5800
F 0 "R2" H 9450 5859 59  0000 L BNN
F 1 "4.7k" H 9450 5670 59  0000 L BNN
F 2 "Datalogger:M1206" H 9600 5800 50  0001 C CNN
F 3 "" H 9600 5800 50  0001 C CNN
	1    9600 5800
	-1   0    0    1   
$EndComp
$Comp
L Datalogger-eagle-import:GND #GND020
U 1 1 2DF12463
P 10000 6100
F 0 "#GND020" H 10000 6100 50  0001 C CNN
F 1 "GND" H 9900 6000 59  0000 L BNN
F 2 "" H 10000 6100 50  0001 C CNN
F 3 "" H 10000 6100 50  0001 C CNN
	1    10000 6100
	1    0    0    -1  
$EndComp
$Comp
L Datalogger-eagle-import:W237-103 SPEED_SW1
U 1 1 48AD450C
P 10300 6300
F 0 "SPEED_SW1" H 10300 6335 59  0000 R TNN
F 1 "W237-103" H 10200 6155 59  0000 L BNN
F 2 "Datalogger:W237-103" H 10300 6300 50  0001 C CNN
F 3 "" H 10300 6300 50  0001 C CNN
	1    10300 6300
	1    0    0    -1  
$EndComp
$Comp
L Datalogger-eagle-import:W237-103 SPEED_SW1
U 2 1 48AD4500
P 11000 6500
F 0 "SPEED_SW1" H 11000 6535 59  0000 R TNN
F 1 "W237-103" H 10900 6355 59  0000 L BNN
F 2 "Datalogger:W237-103" H 11000 6500 50  0001 C CNN
F 3 "" H 11000 6500 50  0001 C CNN
	2    11000 6500
	-1   0    0    1   
$EndComp
$Comp
L Datalogger-eagle-import:W237-103 SPEED_SW1
U 3 1 48AD4504
P 11000 6100
F 0 "SPEED_SW1" H 10975 6135 59  0000 R TNN
F 1 "W237-103" H 11175 6155 59  0000 L BNN
F 2 "Datalogger:W237-103" H 11000 6100 50  0001 C CNN
F 3 "" H 11000 6100 50  0001 C CNN
	3    11000 6100
	-1   0    0    1   
$EndComp
$Comp
L Datalogger-eagle-import:R-US_M1206 R16
U 1 1 33820BE6
P 7600 5000
F 0 "R16" H 7450 5059 59  0000 L BNN
F 1 "50k" H 7450 4870 59  0000 L BNN
F 2 "Datalogger:M1206" H 7600 5000 50  0001 C CNN
F 3 "" H 7600 5000 50  0001 C CNN
	1    7600 5000
	-1   0    0    1   
$EndComp
$Comp
L Datalogger-eagle-import:+5V #P+021
U 1 1 AF5215F4
P 7275 5000
F 0 "#P+021" H 7275 5000 50  0001 C CNN
F 1 "+5V" V 7350 5050 59  0000 R TNN
F 2 "" H 7275 5000 50  0001 C CNN
F 3 "" H 7275 5000 50  0001 C CNN
	1    7275 5000
	0    -1   1    0   
$EndComp
$Comp
L Datalogger-eagle-import:1N4004 D5
U 1 1 73B70CE6
P 9700 5300
F 0 "D5" H 9650 5394 59  0000 L BNN
F 1 "1N4004" H 9850 5241 59  0000 R TNN
F 2 "Datalogger:DO41-10" H 9700 5300 50  0001 C CNN
F 3 "" H 9700 5300 50  0001 C CNN
	1    9700 5300
	0    -1   -1   0   
$EndComp
$Comp
L Datalogger-eagle-import:MOUNT-PAD-ROUND3.3 H1
U 1 1 54E7B095
P 7200 1100
F 0 "H1" H 7310 1123 59  0000 L BNN
F 1 "MOUNT-PAD-ROUND3.3" H 7310 1003 59  0000 L BNN
F 2 "Datalogger:3,3-PAD" H 7200 1100 50  0001 C CNN
F 3 "" H 7200 1100 50  0001 C CNN
	1    7200 1100
	1    0    0    -1  
$EndComp
$Comp
L Datalogger-eagle-import:MOUNT-PAD-ROUND3.3 H2
U 1 1 FFEB2954
P 7200 1400
F 0 "H2" H 7310 1423 59  0000 L BNN
F 1 "MOUNT-PAD-ROUND3.3" H 7310 1303 59  0000 L BNN
F 2 "Datalogger:3,3-PAD" H 7200 1400 50  0001 C CNN
F 3 "" H 7200 1400 50  0001 C CNN
	1    7200 1400
	1    0    0    -1  
$EndComp
$Comp
L Datalogger-eagle-import:MOUNT-PAD-ROUND3.3 H3
U 1 1 CAE5E1D2
P 7200 1700
F 0 "H3" H 7310 1723 59  0000 L BNN
F 1 "MOUNT-PAD-ROUND3.3" H 7310 1603 59  0000 L BNN
F 2 "Datalogger:3,3-PAD" H 7200 1700 50  0001 C CNN
F 3 "" H 7200 1700 50  0001 C CNN
	1    7200 1700
	1    0    0    -1  
$EndComp
$Comp
L Datalogger-eagle-import:MOUNT-PAD-ROUND3.3 H4
U 1 1 8E35FD77
P 7200 2000
F 0 "H4" H 7310 2023 59  0000 L BNN
F 1 "MOUNT-PAD-ROUND3.3" H 7310 1903 59  0000 L BNN
F 2 "Datalogger:3,3-PAD" H 7200 2000 50  0001 C CNN
F 3 "" H 7200 2000 50  0001 C CNN
	1    7200 2000
	1    0    0    -1  
$EndComp
$Comp
L Datalogger-eagle-import:GND #GND022
U 1 1 FB1CD9CF
P 6650 1900
F 0 "#GND022" H 6650 1900 50  0001 C CNN
F 1 "GND" H 6550 1800 59  0000 L BNN
F 2 "" H 6650 1900 50  0001 C CNN
F 3 "" H 6650 1900 50  0001 C CNN
	1    6650 1900
	1    0    0    -1  
$EndComp
$Comp
L Datalogger-eagle-import:MOUNT-PAD-ROUND3.3 H5
U 1 1 1E95D56F
P 7200 2300
F 0 "H5" H 7310 2323 59  0000 L BNN
F 1 "MOUNT-PAD-ROUND3.3" H 7310 2203 59  0000 L BNN
F 2 "Datalogger:3,3-PAD" H 7200 2300 50  0001 C CNN
F 3 "" H 7200 2300 50  0001 C CNN
	1    7200 2300
	1    0    0    -1  
$EndComp
$Comp
L Datalogger-eagle-import:R-US_R1206 R17
U 1 1 408DA365
P 14100 6575
F 0 "R17" H 13950 6634 59  0000 L BNN
F 1 "10" H 13950 6445 59  0000 L BNN
F 2 "Datalogger:R1206" H 14100 6575 50  0001 C CNN
F 3 "" H 14100 6575 50  0001 C CNN
	1    14100 6575
	0    -1   -1   0   
$EndComp
$Comp
L Datalogger-eagle-import:R-US_R1206 R18
U 1 1 F1F31838
P 14800 6600
F 0 "R18" H 14650 6659 59  0000 L BNN
F 1 "10" H 14650 6470 59  0000 L BNN
F 2 "Datalogger:R1206" H 14800 6600 50  0001 C CNN
F 3 "" H 14800 6600 50  0001 C CNN
	1    14800 6600
	0    -1   -1   0   
$EndComp
$Comp
L Datalogger-eagle-import:R-US_R1206 R19
U 1 1 F2A0DD75
P 15500 6600
F 0 "R19" H 15350 6659 59  0000 L BNN
F 1 "10" H 15350 6470 59  0000 L BNN
F 2 "Datalogger:R1206" H 15500 6600 50  0001 C CNN
F 3 "" H 15500 6600 50  0001 C CNN
	1    15500 6600
	0    -1   -1   0   
$EndComp
$Comp
L Datalogger-eagle-import:R-US_R1206 R20
U 1 1 9FBAD440
P 13400 6575
F 0 "R20" H 13250 6634 59  0000 L BNN
F 1 "100" H 13250 6445 59  0000 L BNN
F 2 "Datalogger:R1206" H 13400 6575 50  0001 C CNN
F 3 "" H 13400 6575 50  0001 C CNN
	1    13400 6575
	0    -1   -1   0   
$EndComp
$Comp
L Datalogger-eagle-import:+5V #P+014
U 1 1 A9B0ECED
P 12250 6475
F 0 "#P+014" H 12250 6475 50  0001 C CNN
F 1 "+5V" V 12187 6450 59  0000 R TNN
F 2 "" H 12250 6475 50  0001 C CNN
F 3 "" H 12250 6475 50  0001 C CNN
	1    12250 6475
	1    0    0    -1  
$EndComp
$Comp
L Datalogger-eagle-import:R-US_M1206 R21
U 1 1 813153D4
P 13325 4500
F 0 "R21" H 13175 4559 59  0000 L BNN
F 1 "3.9k" H 13175 4370 59  0000 L BNN
F 2 "Datalogger:M1206" H 13325 4500 50  0001 C CNN
F 3 "" H 13325 4500 50  0001 C CNN
	1    13325 4500
	0    1    1    0   
$EndComp
$Comp
L Datalogger-eagle-import:+5V #P+07
U 1 1 BC2DCEA9
P 2500 1600
F 0 "#P+07" H 2500 1600 50  0001 C CNN
F 1 "+5V" V 2400 1400 59  0000 L BNN
F 2 "" H 2500 1600 50  0001 C CNN
F 3 "" H 2500 1600 50  0001 C CNN
	1    2500 1600
	1    0    0    -1  
$EndComp
$Comp
L Datalogger-eagle-import:+5V #P+09
U 1 1 540F2EFD
P 2900 6100
F 0 "#P+09" H 2900 6100 50  0001 C CNN
F 1 "+5V" V 2800 5900 59  0000 L BNN
F 2 "" H 2900 6100 50  0001 C CNN
F 3 "" H 2900 6100 50  0001 C CNN
	1    2900 6100
	1    0    0    -1  
$EndComp
$Comp
L Datalogger-eagle-import:C-USC1206K C21
U 1 1 09F0E208
P 3100 6400
F 0 "C21" H 3140 6425 59  0000 L BNN
F 1 "100n" H 3140 6235 59  0000 L BNN
F 2 "Datalogger:C1206K" H 3100 6400 50  0001 C CNN
F 3 "" H 3100 6400 50  0001 C CNN
	1    3100 6400
	1    0    0    -1  
$EndComp
$Comp
L Datalogger-eagle-import:C-USC1206K C22
U 1 1 66C8AD90
P 2800 1900
F 0 "C22" H 2840 1925 59  0000 L BNN
F 1 "100n" H 2840 1735 59  0000 L BNN
F 2 "Datalogger:C1206K" H 2800 1900 50  0001 C CNN
F 3 "" H 2800 1900 50  0001 C CNN
	1    2800 1900
	1    0    0    -1  
$EndComp
$Comp
L Datalogger-eagle-import:GND #GND023
U 1 1 C7080FD3
P 2800 2200
F 0 "#GND023" H 2800 2200 50  0001 C CNN
F 1 "GND" H 2700 2100 59  0000 L BNN
F 2 "" H 2800 2200 50  0001 C CNN
F 3 "" H 2800 2200 50  0001 C CNN
	1    2800 2200
	1    0    0    -1  
$EndComp
$Comp
L Datalogger-eagle-import:C-USC1206K C23
U 1 1 723FB792
P 12400 1575
F 0 "C23" H 12440 1600 59  0000 L BNN
F 1 "100n" H 12440 1410 59  0000 L BNN
F 2 "Datalogger:C1206K" H 12400 1575 50  0001 C CNN
F 3 "" H 12400 1575 50  0001 C CNN
	1    12400 1575
	1    0    0    -1  
$EndComp
$Comp
L Datalogger-eagle-import:REG IC6
U 1 1 86C21416
P 13900 1400
F 0 "IC6" H 13600 1625 59  0000 L BNN
F 1 "TSRN 1-2450" H 13600 1525 59  0000 L BNN
F 2 "Datalogger:TSRN-1" H 13900 1400 50  0001 C CNN
F 3 "" H 13900 1400 50  0001 C CNN
	1    13900 1400
	-1   0    0    -1  
$EndComp
$Comp
L Datalogger-eagle-import:C-USC1206K C7
U 1 1 B9E0DE35
P 8000 5150
F 0 "C7" H 8040 5175 59  0000 L BNN
F 1 "100n" H 8040 4985 59  0000 L BNN
F 2 "Datalogger:C1206K" H 8000 5150 50  0001 C CNN
F 3 "" H 8000 5150 50  0001 C CNN
	1    8000 5150
	-1   0    0    -1  
$EndComp
$Comp
L Datalogger-eagle-import:PINHD-1X5 ICSP1
U 1 1 D2583D52
P 9925 1500
F 0 "ICSP1" H 9675 1825 59  0000 L BNN
F 1 "PINHD-1X5" H 9675 1100 59  0000 L BNN
F 2 "Datalogger:1X05" H 9925 1500 50  0001 C CNN
F 3 "" H 9925 1500 50  0001 C CNN
	1    9925 1500
	1    0    0    -1  
$EndComp
$Comp
L Datalogger-eagle-import:GND #GND024
U 1 1 664B2FAE
P 9150 8600
F 0 "#GND024" H 9150 8600 50  0001 C CNN
F 1 "GND" H 9050 8500 59  0000 L BNN
F 2 "" H 9150 8600 50  0001 C CNN
F 3 "" H 9150 8600 50  0001 C CNN
	1    9150 8600
	0    1    -1   0   
$EndComp
$Comp
L Datalogger-eagle-import:BC557 Q4
U 1 1 323115D8
P 4000 1900
F 0 "Q4" H 3600 2200 59  0000 L BNN
F 1 "BC557" H 3600 2100 59  0000 L BNN
F 2 "Datalogger:TO92-EBC" H 4000 1900 50  0001 C CNN
F 3 "" H 4000 1900 50  0001 C CNN
	1    4000 1900
	1    0    0    -1  
$EndComp
$Comp
L Datalogger-eagle-import:R-US_M1206 R3
U 1 1 26020ECB
P 3950 2600
F 0 "R3" H 3800 2659 59  0000 L BNN
F 1 "10k" H 3800 2470 59  0000 L BNN
F 2 "Datalogger:M1206" H 3950 2600 50  0001 C CNN
F 3 "" H 3950 2600 50  0001 C CNN
	1    3950 2600
	0    1    1    0   
$EndComp
$Comp
L Datalogger-eagle-import:GND #GND025
U 1 1 2EE633C3
P 3950 2900
F 0 "#GND025" H 3950 2900 50  0001 C CNN
F 1 "GND" H 3850 2800 59  0000 L BNN
F 2 "" H 3950 2900 50  0001 C CNN
F 3 "" H 3950 2900 50  0001 C CNN
	1    3950 2900
	1    0    0    -1  
$EndComp
$Comp
L Datalogger-eagle-import:2N2219 Q2
U 1 1 DA191B3C
P 12350 7350
F 0 "Q2" H 12500 7350 59  0000 L BNN
F 1 "2N2219" H 12500 7250 59  0000 L BNN
F 2 "Datalogger:TO5" H 12350 7350 50  0001 C CNN
F 3 "" H 12350 7350 50  0001 C CNN
	1    12350 7350
	-1   0    0    -1  
$EndComp
$Comp
L Datalogger-eagle-import:R-US_M1206 R22
U 1 1 4920326A
P 3300 1900
F 0 "R22" H 3150 1959 59  0000 L BNN
F 1 "10k" H 3150 1770 59  0000 L BNN
F 2 "Datalogger:M1206" H 3300 1900 50  0001 C CNN
F 3 "" H 3300 1900 50  0001 C CNN
	1    3300 1900
	0    1    1    0   
$EndComp
$Comp
L Datalogger-eagle-import:BC547 T3
U 1 1 1478006E
P 12800 7150
F 0 "T3" H 12925 7200 59  0000 L BNN
F 1 "BC547" H 12925 7100 59  0000 L BNN
F 2 "Datalogger:TO92" H 12800 7150 50  0001 C CNN
F 3 "" H 12800 7150 50  0001 C CNN
	1    12800 7150
	-1   0    0    -1  
$EndComp
$Comp
L Datalogger-eagle-import:W237-102 SPEED_IND1
U 1 1 4378D922
P 10200 7150
F 0 "SPEED_IND1" H 10200 7185 59  0000 R TNN
F 1 "W237-102" H 10100 7005 59  0000 L BNN
F 2 "Datalogger:W237-102" H 10200 7150 50  0001 C CNN
F 3 "" H 10200 7150 50  0001 C CNN
	1    10200 7150
	-1   0    0    1   
$EndComp
$Comp
L Datalogger-eagle-import:W237-102 SPEED_IND1
U 2 1 4378D92E
P 10200 6950
F 0 "SPEED_IND1" H 10200 6985 59  0000 R TNN
F 1 "W237-102" H 10100 6805 59  0000 L BNN
F 2 "Datalogger:W237-102" H 10200 6950 50  0001 C CNN
F 3 "" H 10200 6950 50  0001 C CNN
	2    10200 6950
	-1   0    0    1   
$EndComp
$Comp
L Datalogger-eagle-import:SYS-112 RL1
U 1 1 5BADA6FD
P 10000 5300
F 0 "RL1" H 10000 5300 50  0001 C CNN
F 1 "SYS-112" H 10050 5415 59  0001 L BNN
F 2 "Datalogger:SYS" H 10000 5300 50  0001 C CNN
F 3 "" H 10000 5300 50  0001 C CNN
	1    10000 5300
	1    0    0    -1  
$EndComp
$Comp
L Datalogger-eagle-import:SYS-112 RL1
U 2 1 5BADA6F1
P 10600 6300
F 0 "RL1" H 10600 6300 50  0001 C CNN
F 1 "SYS-112" H 10650 6415 59  0001 L BNN
F 2 "Datalogger:SYS" H 10600 6300 50  0001 C CNN
F 3 "" H 10600 6300 50  0001 C CNN
	2    10600 6300
	0    1    1    0   
$EndComp
$Comp
L Datalogger-eagle-import:C-USC1210 C8
U 1 1 FA2D35D6
P 13100 1700
F 0 "C8" V 13200 1715 59  0000 L BNN
F 1 "10u" H 13060 1340 59  0000 R TNN
F 2 "Datalogger:C1210" H 13100 1700 50  0001 C CNN
F 3 "" H 13100 1700 50  0001 C CNN
	1    13100 1700
	-1   0    0    -1  
$EndComp
$Comp
L Datalogger-eagle-import:C-USC1210 C11
U 1 1 C1573C9E
P 13300 1700
F 0 "C11" V 13375 1715 59  0000 L BNN
F 1 "10u" H 13460 1340 59  0000 R TNN
F 2 "Datalogger:C1210" H 13300 1700 50  0001 C CNN
F 3 "" H 13300 1700 50  0001 C CNN
	1    13300 1700
	-1   0    0    -1  
$EndComp
$Comp
L Datalogger-eagle-import:C-USC1210 C24
U 1 1 5D02F724
P 13500 1700
F 0 "C24" V 13575 1715 59  0000 L BNN
F 1 "10u" H 13860 1340 59  0000 R TNN
F 2 "Datalogger:C1210" H 13500 1700 50  0001 C CNN
F 3 "" H 13500 1700 50  0001 C CNN
	1    13500 1700
	-1   0    0    -1  
$EndComp
$Comp
L Datalogger-eagle-import:C-USC1210 C25
U 1 1 85825804
P 12900 1700
F 0 "C25" V 13000 1715 59  0000 L BNN
F 1 "10u" H 12660 1340 59  0000 R TNN
F 2 "Datalogger:C1210" H 12900 1700 50  0001 C CNN
F 3 "" H 12900 1700 50  0001 C CNN
	1    12900 1700
	-1   0    0    -1  
$EndComp
$Comp
L Datalogger-eagle-import:R-US_R1206 R15
U 1 1 C598722D
P 13825 6575
F 0 "R15" H 13675 6634 59  0000 L BNN
F 1 "12k" H 13675 6445 59  0000 L BNN
F 2 "Datalogger:R1206" H 13825 6575 50  0001 C CNN
F 3 "" H 13825 6575 50  0001 C CNN
	1    13825 6575
	0    -1   -1   0   
$EndComp
$Comp
L Datalogger-eagle-import:R-US_R1206 R23
U 1 1 5CB907E9
P 14525 6575
F 0 "R23" H 14375 6634 59  0000 L BNN
F 1 "12k" H 14375 6445 59  0000 L BNN
F 2 "Datalogger:R1206" H 14525 6575 50  0001 C CNN
F 3 "" H 14525 6575 50  0001 C CNN
	1    14525 6575
	0    -1   -1   0   
$EndComp
$Comp
L Datalogger-eagle-import:R-US_R1206 R24
U 1 1 EA9ED18F
P 15225 6575
F 0 "R24" H 15075 6634 59  0000 L BNN
F 1 "12k" H 15075 6445 59  0000 L BNN
F 2 "Datalogger:R1206" H 15225 6575 50  0001 C CNN
F 3 "" H 15225 6575 50  0001 C CNN
	1    15225 6575
	0    -1   -1   0   
$EndComp
$Comp
L Datalogger-eagle-import:R-US_R1206 R25
U 1 1 D9A2640F
P 13825 5100
F 0 "R25" H 13675 5159 59  0000 L BNN
F 1 "20k" H 13675 4970 59  0000 L BNN
F 2 "Datalogger:R1206" H 13825 5100 50  0001 C CNN
F 3 "" H 13825 5100 50  0001 C CNN
	1    13825 5100
	0    -1   -1   0   
$EndComp
$Comp
L Datalogger-eagle-import:R-US_R1206 R26
U 1 1 F83A0F1C
P 14525 5100
F 0 "R26" H 14375 5159 59  0000 L BNN
F 1 "20k" H 14375 4970 59  0000 L BNN
F 2 "Datalogger:R1206" H 14525 5100 50  0001 C CNN
F 3 "" H 14525 5100 50  0001 C CNN
	1    14525 5100
	0    -1   -1   0   
$EndComp
$Comp
L Datalogger-eagle-import:R-US_R1206 R27
U 1 1 29EE5027
P 15225 5100
F 0 "R27" H 15075 5159 59  0000 L BNN
F 1 "20k" H 15075 4970 59  0000 L BNN
F 2 "Datalogger:R1206" H 15225 5100 50  0001 C CNN
F 3 "" H 15225 5100 50  0001 C CNN
	1    15225 5100
	0    -1   -1   0   
$EndComp
Text Notes 2850 5100 0    59   ~ 0
Direction bus (Gray code)
Text Notes 12950 2550 0    85   ~ 0
Power supply unit
Text Notes 9225 2550 0    85   ~ 0
JDM_port
Wire Notes Line
	10150 5300 10700 5300
Wire Notes Line
	10700 5300 10700 6325
Wire Notes Line
	8950 6250 9550 6250
Wire Notes Line
	9550 6250 9550 6975
Wire Notes Line
	10600 700  10600 2600
Wire Notes Line
	8700 700  16000 700 
Wire Notes Line
	16000 700  16000 2600
Wire Notes Line
	8700 2600 16000 2600
Wire Notes Line
	8700 2400 16000 2400
Wire Notes Line
	8700 700  8700 2600
$EndSCHEMATC
