(module 3,3-PAD (layer F.Cu) (tedit 0)
  (descr "<b>MOUNTING PAD</b> 3.3 mm, round")
  (fp_text reference H5 (at 0 0) (layer F.SilkS) hide
    (effects (font (size 1.27 1.27) (thickness 0.15)))
  )
  (fp_text value MOUNT-PAD-ROUND3.3 (at 0 0) (layer F.SilkS) hide
    (effects (font (size 1.27 1.27) (thickness 0.15)))
  )
  (fp_arc (start 0 0) (end -2.159 0) (angle -90) (layer F.Fab) (width 2.4892))
  (fp_arc (start 0 0) (end 0 -2.159) (angle 90) (layer F.Fab) (width 2.4892))
  (fp_circle (center 0 0) (end 3.429 0) (layer F.SilkS) (width 0.1524))
  (fp_circle (center 0 0) (end 0.762 0) (layer F.Fab) (width 0.4572))
  (fp_circle (center 0 0) (end 3.683 0) (layer Dwgs.User) (width 1.27))
  (fp_circle (center 0 0) (end 3.683 0) (layer Dwgs.User) (width 1.27))
  (fp_circle (center 0 0) (end 3.556 0) (layer Dwgs.User) (width 1.016))
  (fp_circle (center 0 0) (end 1.7 0) (layer F.SilkS) (width 0.2032))
  (pad B3,3 thru_hole circle (at 0 0) (size 5.842 5.842) (drill 3.3) (layers *.Cu *.Mask)
    (solder_mask_margin 0.254))
)
