(module C0805 (layer F.Cu) (tedit 0)
  (descr <b>CAPACITOR</b><p>)
  (fp_text reference C9 (at -1.27 -1.27) (layer F.SilkS)
    (effects (font (size 1.2065 1.2065) (thickness 0.09652)) (justify right bottom))
  )
  (fp_text value 100n (at -1.27 2.54) (layer F.Fab)
    (effects (font (size 1.2065 1.2065) (thickness 0.09652)) (justify right bottom))
  )
  (fp_line (start -1.973 -0.983) (end 1.973 -0.983) (layer Dwgs.User) (width 0.0508))
  (fp_line (start 1.973 0.983) (end -1.973 0.983) (layer Dwgs.User) (width 0.0508))
  (fp_line (start -1.973 0.983) (end -1.973 -0.983) (layer Dwgs.User) (width 0.0508))
  (fp_line (start -0.381 -0.66) (end 0.381 -0.66) (layer F.Fab) (width 0.1016))
  (fp_line (start -0.356 0.66) (end 0.381 0.66) (layer F.Fab) (width 0.1016))
  (fp_line (start 1.973 -0.983) (end 1.973 0.983) (layer Dwgs.User) (width 0.0508))
  (fp_poly (pts (xy -1.0922 0.7239) (xy -0.3421 0.7239) (xy -0.3421 -0.7262) (xy -1.0922 -0.7262)) (layer F.Fab) (width 0))
  (fp_poly (pts (xy 0.3556 0.7239) (xy 1.1057 0.7239) (xy 1.1057 -0.7262) (xy 0.3556 -0.7262)) (layer F.Fab) (width 0))
  (fp_poly (pts (xy -0.1001 0.4001) (xy 0.1001 0.4001) (xy 0.1001 -0.4001) (xy -0.1001 -0.4001)) (layer F.Adhes) (width 0))
  (pad 1 smd rect (at -0.95 0) (size 1.3 1.5) (layers F.Cu F.Paste F.Mask)
    (solder_mask_margin 0.254))
  (pad 2 smd rect (at 0.95 0) (size 1.3 1.5) (layers F.Cu F.Paste F.Mask)
    (solder_mask_margin 0.254))
)
