(module C1210 (layer F.Cu) (tedit 0)
  (descr <b>CAPACITOR</b>)
  (fp_text reference C25 (at -1.905 -1.905 -270) (layer F.SilkS)
    (effects (font (size 1.2065 1.2065) (thickness 0.09652)) (justify left top))
  )
  (fp_text value 10u (at -1.905 3.175 -180) (layer F.Fab)
    (effects (font (size 1.2065 1.2065) (thickness 0.09652)) (justify left top))
  )
  (fp_line (start -2.473 -1.483) (end 2.473 -1.483) (layer Dwgs.User) (width 0.0508))
  (fp_line (start 2.473 1.483) (end -2.473 1.483) (layer Dwgs.User) (width 0.0508))
  (fp_line (start -2.473 1.483) (end -2.473 -1.483) (layer Dwgs.User) (width 0.0508))
  (fp_line (start -0.9652 -1.2446) (end 0.9652 -1.2446) (layer F.Fab) (width 0.1016))
  (fp_line (start -0.9652 1.2446) (end 0.9652 1.2446) (layer F.Fab) (width 0.1016))
  (fp_line (start 2.473 -1.483) (end 2.473 1.483) (layer Dwgs.User) (width 0.0508))
  (fp_poly (pts (xy -1.7018 1.2954) (xy -0.9517 1.2954) (xy -0.9517 -1.3045) (xy -1.7018 -1.3045)) (layer F.Fab) (width 0))
  (fp_poly (pts (xy 0.9517 1.3045) (xy 1.7018 1.3045) (xy 1.7018 -1.2954) (xy 0.9517 -1.2954)) (layer F.Fab) (width 0))
  (fp_poly (pts (xy -0.1999 0.4001) (xy 0.1999 0.4001) (xy 0.1999 -0.4001) (xy -0.1999 -0.4001)) (layer F.Adhes) (width 0))
  (pad 1 smd rect (at -1.4 0) (size 1.6 2.7) (layers F.Cu F.Paste F.Mask)
    (solder_mask_margin 0.254))
  (pad 2 smd rect (at 1.4 0) (size 1.6 2.7) (layers F.Cu F.Paste F.Mask)
    (solder_mask_margin 0.254))
)
