(module RR1A (layer F.Cu) (tedit 0)
  (descr "<b>RELAY</b><p>\nreed, polarity, 1 x norm. open with shield")
  (fp_text reference RL2 (at -2.54 -3.175 -180) (layer F.SilkS)
    (effects (font (size 1.2065 1.2065) (thickness 0.12065)) (justify right top))
  )
  (fp_text value "" (at -3.81 4.445 -180) (layer F.Fab)
    (effects (font (size 1.2065 1.2065) (thickness 0.12065)) (justify right top))
  )
  (fp_line (start -0.635 0.254) (end 0.635 0.254) (layer F.SilkS) (width 0.254))
  (fp_line (start 0.635 2.286) (end -0.635 2.286) (layer F.SilkS) (width 0.254))
  (fp_line (start -0.635 2.286) (end -0.635 1.27) (layer F.SilkS) (width 0.254))
  (fp_line (start -0.635 1.27) (end -0.635 0.635) (layer F.SilkS) (width 0.254))
  (fp_line (start 0.635 0.254) (end 0.635 1.27) (layer F.SilkS) (width 0.254))
  (fp_line (start 0.635 1.27) (end 0.635 1.905) (layer F.SilkS) (width 0.254))
  (fp_line (start -0.635 0.635) (end 0.635 1.905) (layer F.SilkS) (width 0.1524))
  (fp_line (start -0.635 0.635) (end -0.635 0.254) (layer F.SilkS) (width 0.254))
  (fp_line (start 0.635 1.905) (end 0.635 2.286) (layer F.SilkS) (width 0.1524))
  (fp_arc (start -8.763 0) (end -8.763 -0.635) (angle 180) (layer F.SilkS) (width 0.1524))
  (fp_line (start 9.652 -2.794) (end -9.652 -2.794) (layer F.SilkS) (width 0.1524))
  (fp_line (start 9.652 2.794) (end -9.652 2.794) (layer F.SilkS) (width 0.1524))
  (fp_line (start 9.652 2.794) (end 9.652 -2.794) (layer F.SilkS) (width 0.1524))
  (fp_line (start -8.763 -0.635) (end -9.652 -0.635) (layer F.SilkS) (width 0.1524))
  (fp_line (start -9.652 -0.635) (end -9.652 -2.794) (layer F.SilkS) (width 0.1524))
  (fp_line (start -8.763 0.635) (end -9.652 0.635) (layer F.SilkS) (width 0.1524))
  (fp_line (start -9.652 0.635) (end -9.652 2.794) (layer F.SilkS) (width 0.1524))
  (fp_line (start -9.652 0.635) (end -9.652 -0.635) (layer F.SilkS) (width 0.1524))
  (fp_line (start -5.08 2.54) (end -5.08 1.27) (layer F.SilkS) (width 0.1524))
  (fp_line (start -5.08 1.27) (end -0.635 1.27) (layer F.SilkS) (width 0.1524))
  (fp_line (start 5.08 2.54) (end 5.08 1.27) (layer F.SilkS) (width 0.1524))
  (fp_line (start -1.905 1.905) (end -1.143 1.905) (layer F.SilkS) (width 0.1524))
  (fp_line (start -1.524 1.524) (end -1.524 2.286) (layer F.SilkS) (width 0.1524))
  (fp_line (start 1.143 1.905) (end 1.905 1.905) (layer F.SilkS) (width 0.1524))
  (fp_line (start 7.62 2.54) (end 7.62 -1.27) (layer F.SilkS) (width 0.1524))
  (fp_line (start 7.62 -1.27) (end 7.62 -2.54) (layer F.SilkS) (width 0.1524))
  (fp_line (start 1.27 -1.27) (end 7.62 -1.27) (layer F.SilkS) (width 0.1524))
  (fp_line (start -7.62 -1.27) (end -7.62 2.54) (layer F.SilkS) (width 0.1524))
  (fp_line (start -7.62 -1.27) (end -1.27 -1.27) (layer F.SilkS) (width 0.1524))
  (fp_line (start -7.62 -2.54) (end -7.62 -1.27) (layer F.SilkS) (width 0.1524))
  (fp_line (start 5.08 1.27) (end 0.635 1.27) (layer F.SilkS) (width 0.1524))
  (fp_line (start -1.27 -1.27) (end 1.27 -1.905) (layer F.SilkS) (width 0.1524))
  (fp_line (start 3.81 -0.635) (end 2.54 -0.635) (layer F.SilkS) (width 0.1524))
  (fp_line (start 1.905 -0.635) (end 0.635 -0.635) (layer F.SilkS) (width 0.1524))
  (fp_line (start 0 -0.635) (end -1.27 -0.635) (layer F.SilkS) (width 0.1524))
  (fp_line (start -1.905 -0.635) (end -3.175 -0.635) (layer F.SilkS) (width 0.1524))
  (fp_line (start 4.445 -0.635) (end 5.08 -0.635) (layer F.SilkS) (width 0.1524))
  (fp_line (start 5.08 -0.635) (end 5.08 -1.016) (layer F.SilkS) (width 0.1524))
  (fp_line (start 5.08 -2.54) (end 5.08 -1.524) (layer F.SilkS) (width 0.1524))
  (fp_circle (center 7.62 -1.27) (end 7.747 -1.27) (layer F.SilkS) (width 0.3048))
  (fp_circle (center -7.62 -1.27) (end -7.493 -1.27) (layer F.SilkS) (width 0.3048))
  (fp_text user 1 (at -8.001 2.286 90) (layer F.SilkS)
    (effects (font (size 1.2065 1.2065) (thickness 0.127)) (justify left bottom))
  )
  (pad 1 thru_hole oval (at -7.62 3.81 90) (size 2.6416 1.3208) (drill 0.8128) (layers *.Cu *.Mask)
    (solder_mask_margin 0.254))
  (pad 2 thru_hole oval (at -5.08 3.81 90) (size 2.6416 1.3208) (drill 0.8128) (layers *.Cu *.Mask)
    (solder_mask_margin 0.254))
  (pad 6 thru_hole oval (at 5.08 3.81 90) (size 2.6416 1.3208) (drill 0.8128) (layers *.Cu *.Mask)
    (solder_mask_margin 0.254))
  (pad 7 thru_hole oval (at 7.62 3.81 90) (size 2.6416 1.3208) (drill 0.8128) (layers *.Cu *.Mask)
    (solder_mask_margin 0.254))
  (pad 8 thru_hole oval (at 7.62 -3.81 90) (size 2.6416 1.3208) (drill 0.8128) (layers *.Cu *.Mask)
    (solder_mask_margin 0.254))
  (pad 9 thru_hole oval (at 5.08 -3.81 90) (size 2.6416 1.3208) (drill 0.8128) (layers *.Cu *.Mask)
    (solder_mask_margin 0.254))
  (pad 13 thru_hole oval (at -5.08 -3.81 90) (size 2.6416 1.3208) (drill 0.8128) (layers *.Cu *.Mask)
    (solder_mask_margin 0.254))
  (pad 14 thru_hole oval (at -7.62 -3.81 90) (size 2.6416 1.3208) (drill 0.8128) (layers *.Cu *.Mask)
    (solder_mask_margin 0.254))
)
