(module SOIC127P600X175-16N (layer F.Cu) (tedit 0)
  (fp_text reference U1 (at -3.4544 -6.985) (layer F.SilkS)
    (effects (font (size 0.9652 0.9652) (thickness 0.09652)) (justify right bottom))
  )
  (fp_text value MAX232ACSE+ (at -3.4544 8.255) (layer F.Fab)
    (effects (font (size 1.97866 1.97866) (thickness 0.197866)) (justify right bottom))
  )
  (fp_line (start -2.0066 -4.191) (end -2.0066 -4.699) (layer F.Fab) (width 0.1))
  (fp_line (start -2.0066 -4.699) (end -3.0988 -4.699) (layer F.Fab) (width 0.1))
  (fp_line (start -3.0988 -4.699) (end -3.0988 -4.191) (layer F.Fab) (width 0.1))
  (fp_line (start -3.0988 -4.191) (end -2.0066 -4.191) (layer F.Fab) (width 0.1))
  (fp_line (start -2.0066 -2.921) (end -2.0066 -3.429) (layer F.Fab) (width 0.1))
  (fp_line (start -2.0066 -3.429) (end -3.0988 -3.429) (layer F.Fab) (width 0.1))
  (fp_line (start -3.0988 -3.429) (end -3.0988 -2.921) (layer F.Fab) (width 0.1))
  (fp_line (start -3.0988 -2.921) (end -2.0066 -2.921) (layer F.Fab) (width 0.1))
  (fp_line (start -2.0066 -1.651) (end -2.0066 -2.159) (layer F.Fab) (width 0.1))
  (fp_line (start -2.0066 -2.159) (end -3.0988 -2.159) (layer F.Fab) (width 0.1))
  (fp_line (start -3.0988 -2.159) (end -3.0988 -1.651) (layer F.Fab) (width 0.1))
  (fp_line (start -3.0988 -1.651) (end -2.0066 -1.651) (layer F.Fab) (width 0.1))
  (fp_line (start -2.0066 -0.381) (end -2.0066 -0.889) (layer F.Fab) (width 0.1))
  (fp_line (start -2.0066 -0.889) (end -3.0988 -0.889) (layer F.Fab) (width 0.1))
  (fp_line (start -3.0988 -0.889) (end -3.0988 -0.381) (layer F.Fab) (width 0.1))
  (fp_line (start -3.0988 -0.381) (end -2.0066 -0.381) (layer F.Fab) (width 0.1))
  (fp_line (start -2.0066 0.889) (end -2.0066 0.381) (layer F.Fab) (width 0.1))
  (fp_line (start -2.0066 0.381) (end -3.0988 0.381) (layer F.Fab) (width 0.1))
  (fp_line (start -3.0988 0.381) (end -3.0988 0.889) (layer F.Fab) (width 0.1))
  (fp_line (start -3.0988 0.889) (end -2.0066 0.889) (layer F.Fab) (width 0.1))
  (fp_line (start -2.0066 2.159) (end -2.0066 1.651) (layer F.Fab) (width 0.1))
  (fp_line (start -2.0066 1.651) (end -3.0988 1.651) (layer F.Fab) (width 0.1))
  (fp_line (start -3.0988 1.651) (end -3.0988 2.159) (layer F.Fab) (width 0.1))
  (fp_line (start -3.0988 2.159) (end -2.0066 2.159) (layer F.Fab) (width 0.1))
  (fp_line (start -2.0066 3.429) (end -2.0066 2.921) (layer F.Fab) (width 0.1))
  (fp_line (start -2.0066 2.921) (end -3.0988 2.921) (layer F.Fab) (width 0.1))
  (fp_line (start -3.0988 2.921) (end -3.0988 3.429) (layer F.Fab) (width 0.1))
  (fp_line (start -3.0988 3.429) (end -2.0066 3.429) (layer F.Fab) (width 0.1))
  (fp_line (start -2.0066 4.699) (end -2.0066 4.191) (layer F.Fab) (width 0.1))
  (fp_line (start -2.0066 4.191) (end -3.0988 4.191) (layer F.Fab) (width 0.1))
  (fp_line (start -3.0988 4.191) (end -3.0988 4.699) (layer F.Fab) (width 0.1))
  (fp_line (start -3.0988 4.699) (end -2.0066 4.699) (layer F.Fab) (width 0.1))
  (fp_line (start 2.0066 4.191) (end 2.0066 4.699) (layer F.Fab) (width 0.1))
  (fp_line (start 2.0066 4.699) (end 3.0988 4.699) (layer F.Fab) (width 0.1))
  (fp_line (start 3.0988 4.699) (end 3.0988 4.191) (layer F.Fab) (width 0.1))
  (fp_line (start 3.0988 4.191) (end 2.0066 4.191) (layer F.Fab) (width 0.1))
  (fp_line (start 2.0066 2.921) (end 2.0066 3.429) (layer F.Fab) (width 0.1))
  (fp_line (start 2.0066 3.429) (end 3.0988 3.429) (layer F.Fab) (width 0.1))
  (fp_line (start 3.0988 3.429) (end 3.0988 2.921) (layer F.Fab) (width 0.1))
  (fp_line (start 3.0988 2.921) (end 2.0066 2.921) (layer F.Fab) (width 0.1))
  (fp_line (start 2.0066 1.651) (end 2.0066 2.159) (layer F.Fab) (width 0.1))
  (fp_line (start 2.0066 2.159) (end 3.0988 2.159) (layer F.Fab) (width 0.1))
  (fp_line (start 3.0988 2.159) (end 3.0988 1.651) (layer F.Fab) (width 0.1))
  (fp_line (start 3.0988 1.651) (end 2.0066 1.651) (layer F.Fab) (width 0.1))
  (fp_line (start 2.0066 0.381) (end 2.0066 0.889) (layer F.Fab) (width 0.1))
  (fp_line (start 2.0066 0.889) (end 3.0988 0.889) (layer F.Fab) (width 0.1))
  (fp_line (start 3.0988 0.889) (end 3.0988 0.381) (layer F.Fab) (width 0.1))
  (fp_line (start 3.0988 0.381) (end 2.0066 0.381) (layer F.Fab) (width 0.1))
  (fp_line (start 2.0066 -0.889) (end 2.0066 -0.381) (layer F.Fab) (width 0.1))
  (fp_line (start 2.0066 -0.381) (end 3.0988 -0.381) (layer F.Fab) (width 0.1))
  (fp_line (start 3.0988 -0.381) (end 3.0988 -0.889) (layer F.Fab) (width 0.1))
  (fp_line (start 3.0988 -0.889) (end 2.0066 -0.889) (layer F.Fab) (width 0.1))
  (fp_line (start 2.0066 -2.159) (end 2.0066 -1.651) (layer F.Fab) (width 0.1))
  (fp_line (start 2.0066 -1.651) (end 3.0988 -1.651) (layer F.Fab) (width 0.1))
  (fp_line (start 3.0988 -1.651) (end 3.0988 -2.159) (layer F.Fab) (width 0.1))
  (fp_line (start 3.0988 -2.159) (end 2.0066 -2.159) (layer F.Fab) (width 0.1))
  (fp_line (start 2.0066 -3.429) (end 2.0066 -2.921) (layer F.Fab) (width 0.1))
  (fp_line (start 2.0066 -2.921) (end 3.0988 -2.921) (layer F.Fab) (width 0.1))
  (fp_line (start 3.0988 -2.921) (end 3.0988 -3.429) (layer F.Fab) (width 0.1))
  (fp_line (start 3.0988 -3.429) (end 2.0066 -3.429) (layer F.Fab) (width 0.1))
  (fp_line (start 2.0066 -4.699) (end 2.0066 -4.191) (layer F.Fab) (width 0.1))
  (fp_line (start 2.0066 -4.191) (end 3.0988 -4.191) (layer F.Fab) (width 0.1))
  (fp_line (start 3.0988 -4.191) (end 3.0988 -4.699) (layer F.Fab) (width 0.1))
  (fp_line (start 3.0988 -4.699) (end 2.0066 -4.699) (layer F.Fab) (width 0.1))
  (fp_line (start -2.0066 5.0038) (end 2.0066 5.0038) (layer F.Fab) (width 0.1))
  (fp_line (start 2.0066 5.0038) (end 2.0066 -5.0038) (layer F.Fab) (width 0.1))
  (fp_line (start 2.0066 -5.0038) (end 0.3048 -5.0038) (layer F.Fab) (width 0.1))
  (fp_line (start 0.3048 -5.0038) (end -0.3048 -5.0038) (layer F.Fab) (width 0.1))
  (fp_line (start -0.3048 -5.0038) (end -2.0066 -5.0038) (layer F.Fab) (width 0.1))
  (fp_line (start -2.0066 -5.0038) (end -2.0066 5.0038) (layer F.Fab) (width 0.1))
  (fp_arc (start 0 -5.0038) (end 0.3048 -5.0038) (angle 180) (layer F.Fab) (width 0.1))
  (fp_text user * (at -3.302 -4.8514) (layer F.Fab)
    (effects (font (size 1.2065 1.2065) (thickness 0.0762)) (justify left bottom))
  )
  (fp_line (start 3.81 3.1496) (end 4.8514 3.1496) (layer F.SilkS) (width 0.1524))
  (fp_line (start -1.2954 5.0038) (end 1.2954 5.0038) (layer F.SilkS) (width 0.1524))
  (fp_line (start 1.2954 -5.0038) (end 0.3048 -5.0038) (layer F.SilkS) (width 0.1524))
  (fp_line (start 0.3048 -5.0038) (end -0.3048 -5.0038) (layer F.SilkS) (width 0.1524))
  (fp_line (start -0.3048 -5.0038) (end -1.2954 -5.0038) (layer F.SilkS) (width 0.1524))
  (fp_arc (start 0 -5.0038) (end 0.3048 -5.0038) (angle 180) (layer F.SilkS) (width 0.1524))
  (fp_text user * (at -3.302 -4.8514) (layer F.SilkS)
    (effects (font (size 1.2065 1.2065) (thickness 0.0762)) (justify left bottom))
  )
  (pad 1 smd rect (at -2.4638 -4.445) (size 1.9812 0.5334) (layers F.Cu F.Paste F.Mask)
    (solder_mask_margin 0.254))
  (pad 2 smd rect (at -2.4638 -3.175) (size 1.9812 0.5334) (layers F.Cu F.Paste F.Mask)
    (solder_mask_margin 0.254))
  (pad 3 smd rect (at -2.4638 -1.905) (size 1.9812 0.5334) (layers F.Cu F.Paste F.Mask)
    (solder_mask_margin 0.254))
  (pad 4 smd rect (at -2.4638 -0.635) (size 1.9812 0.5334) (layers F.Cu F.Paste F.Mask)
    (solder_mask_margin 0.254))
  (pad 5 smd rect (at -2.4638 0.635) (size 1.9812 0.5334) (layers F.Cu F.Paste F.Mask)
    (solder_mask_margin 0.254))
  (pad 6 smd rect (at -2.4638 1.905) (size 1.9812 0.5334) (layers F.Cu F.Paste F.Mask)
    (solder_mask_margin 0.254))
  (pad 7 smd rect (at -2.4638 3.175) (size 1.9812 0.5334) (layers F.Cu F.Paste F.Mask)
    (solder_mask_margin 0.254))
  (pad 8 smd rect (at -2.4638 4.445) (size 1.9812 0.5334) (layers F.Cu F.Paste F.Mask)
    (solder_mask_margin 0.254))
  (pad 9 smd rect (at 2.4638 4.445) (size 1.9812 0.5334) (layers F.Cu F.Paste F.Mask)
    (solder_mask_margin 0.254))
  (pad 10 smd rect (at 2.4638 3.175) (size 1.9812 0.5334) (layers F.Cu F.Paste F.Mask)
    (solder_mask_margin 0.254))
  (pad 11 smd rect (at 2.4638 1.905) (size 1.9812 0.5334) (layers F.Cu F.Paste F.Mask)
    (solder_mask_margin 0.254))
  (pad 12 smd rect (at 2.4638 0.635) (size 1.9812 0.5334) (layers F.Cu F.Paste F.Mask)
    (solder_mask_margin 0.254))
  (pad 13 smd rect (at 2.4638 -0.635) (size 1.9812 0.5334) (layers F.Cu F.Paste F.Mask)
    (solder_mask_margin 0.254))
  (pad 14 smd rect (at 2.4638 -1.905) (size 1.9812 0.5334) (layers F.Cu F.Paste F.Mask)
    (solder_mask_margin 0.254))
  (pad 15 smd rect (at 2.4638 -3.175) (size 1.9812 0.5334) (layers F.Cu F.Paste F.Mask)
    (solder_mask_margin 0.254))
  (pad 16 smd rect (at 2.4638 -4.445) (size 1.9812 0.5334) (layers F.Cu F.Paste F.Mask)
    (solder_mask_margin 0.254))
)
