(module SOP65P640X120-16N (layer F.Cu) (tedit 0)
  (fp_text reference U2 (at -4.6482 -3.4798 90) (layer F.SilkS)
    (effects (font (size 0.9652 0.9652) (thickness 0.09652)) (justify left bottom))
  )
  (fp_text value AD5696RBRUZ (at -5.461 5.6134) (layer F.Fab)
    (effects (font (size 1.97866 1.97866) (thickness 0.197866)) (justify left bottom))
  )
  (fp_line (start -2.2606 -2.1336) (end -2.2606 -2.413) (layer F.Fab) (width 0.1524))
  (fp_line (start -2.2606 -2.413) (end -3.2004 -2.413) (layer F.Fab) (width 0.1524))
  (fp_line (start -3.2004 -2.413) (end -3.2004 -2.1336) (layer F.Fab) (width 0.1524))
  (fp_line (start -3.2004 -2.1336) (end -2.2606 -2.1336) (layer F.Fab) (width 0.1524))
  (fp_line (start -2.2606 -1.4732) (end -2.2606 -1.778) (layer F.Fab) (width 0.1524))
  (fp_line (start -2.2606 -1.778) (end -3.2004 -1.778) (layer F.Fab) (width 0.1524))
  (fp_line (start -3.2004 -1.778) (end -3.2004 -1.4732) (layer F.Fab) (width 0.1524))
  (fp_line (start -3.2004 -1.4732) (end -2.2606 -1.4732) (layer F.Fab) (width 0.1524))
  (fp_line (start -2.2606 -0.8128) (end -2.2606 -1.1176) (layer F.Fab) (width 0.1524))
  (fp_line (start -2.2606 -1.1176) (end -3.2004 -1.1176) (layer F.Fab) (width 0.1524))
  (fp_line (start -3.2004 -1.1176) (end -3.2004 -0.8128) (layer F.Fab) (width 0.1524))
  (fp_line (start -3.2004 -0.8128) (end -2.2606 -0.8128) (layer F.Fab) (width 0.1524))
  (fp_line (start -2.2606 -0.1778) (end -2.2606 -0.4826) (layer F.Fab) (width 0.1524))
  (fp_line (start -2.2606 -0.4826) (end -3.2004 -0.4826) (layer F.Fab) (width 0.1524))
  (fp_line (start -3.2004 -0.4826) (end -3.2004 -0.1778) (layer F.Fab) (width 0.1524))
  (fp_line (start -3.2004 -0.1778) (end -2.2606 -0.1778) (layer F.Fab) (width 0.1524))
  (fp_line (start -2.2606 0.4826) (end -2.2606 0.1778) (layer F.Fab) (width 0.1524))
  (fp_line (start -2.2606 0.1778) (end -3.2004 0.1778) (layer F.Fab) (width 0.1524))
  (fp_line (start -3.2004 0.1778) (end -3.2004 0.4826) (layer F.Fab) (width 0.1524))
  (fp_line (start -3.2004 0.4826) (end -2.2606 0.4826) (layer F.Fab) (width 0.1524))
  (fp_line (start -2.2606 1.1176) (end -2.2606 0.8128) (layer F.Fab) (width 0.1524))
  (fp_line (start -2.2606 0.8128) (end -3.2004 0.8128) (layer F.Fab) (width 0.1524))
  (fp_line (start -3.2004 0.8128) (end -3.2004 1.1176) (layer F.Fab) (width 0.1524))
  (fp_line (start -3.2004 1.1176) (end -2.2606 1.1176) (layer F.Fab) (width 0.1524))
  (fp_line (start -2.2606 1.778) (end -2.2606 1.4732) (layer F.Fab) (width 0.1524))
  (fp_line (start -2.2606 1.4732) (end -3.2004 1.4732) (layer F.Fab) (width 0.1524))
  (fp_line (start -3.2004 1.4732) (end -3.2004 1.778) (layer F.Fab) (width 0.1524))
  (fp_line (start -3.2004 1.778) (end -2.2606 1.778) (layer F.Fab) (width 0.1524))
  (fp_line (start -2.2606 2.413) (end -2.2606 2.1336) (layer F.Fab) (width 0.1524))
  (fp_line (start -2.2606 2.1336) (end -3.2004 2.1336) (layer F.Fab) (width 0.1524))
  (fp_line (start -3.2004 2.1336) (end -3.2004 2.413) (layer F.Fab) (width 0.1524))
  (fp_line (start -3.2004 2.413) (end -2.2606 2.413) (layer F.Fab) (width 0.1524))
  (fp_line (start 2.2606 2.1336) (end 2.2606 2.413) (layer F.Fab) (width 0.1524))
  (fp_line (start 2.2606 2.413) (end 3.2004 2.413) (layer F.Fab) (width 0.1524))
  (fp_line (start 3.2004 2.413) (end 3.2004 2.1336) (layer F.Fab) (width 0.1524))
  (fp_line (start 3.2004 2.1336) (end 2.2606 2.1336) (layer F.Fab) (width 0.1524))
  (fp_line (start 2.2606 1.4732) (end 2.2606 1.778) (layer F.Fab) (width 0.1524))
  (fp_line (start 2.2606 1.778) (end 3.2004 1.778) (layer F.Fab) (width 0.1524))
  (fp_line (start 3.2004 1.778) (end 3.2004 1.4732) (layer F.Fab) (width 0.1524))
  (fp_line (start 3.2004 1.4732) (end 2.2606 1.4732) (layer F.Fab) (width 0.1524))
  (fp_line (start 2.2606 0.8128) (end 2.2606 1.1176) (layer F.Fab) (width 0.1524))
  (fp_line (start 2.2606 1.1176) (end 3.2004 1.1176) (layer F.Fab) (width 0.1524))
  (fp_line (start 3.2004 1.1176) (end 3.2004 0.8128) (layer F.Fab) (width 0.1524))
  (fp_line (start 3.2004 0.8128) (end 2.2606 0.8128) (layer F.Fab) (width 0.1524))
  (fp_line (start 2.2606 0.1778) (end 2.2606 0.4826) (layer F.Fab) (width 0.1524))
  (fp_line (start 2.2606 0.4826) (end 3.2004 0.4826) (layer F.Fab) (width 0.1524))
  (fp_line (start 3.2004 0.4826) (end 3.2004 0.1778) (layer F.Fab) (width 0.1524))
  (fp_line (start 3.2004 0.1778) (end 2.2606 0.1778) (layer F.Fab) (width 0.1524))
  (fp_line (start 2.2606 -0.4826) (end 2.2606 -0.1778) (layer F.Fab) (width 0.1524))
  (fp_line (start 2.2606 -0.1778) (end 3.2004 -0.1778) (layer F.Fab) (width 0.1524))
  (fp_line (start 3.2004 -0.1778) (end 3.2004 -0.4826) (layer F.Fab) (width 0.1524))
  (fp_line (start 3.2004 -0.4826) (end 2.2606 -0.4826) (layer F.Fab) (width 0.1524))
  (fp_line (start 2.2606 -1.1176) (end 2.2606 -0.8128) (layer F.Fab) (width 0.1524))
  (fp_line (start 2.2606 -0.8128) (end 3.2004 -0.8128) (layer F.Fab) (width 0.1524))
  (fp_line (start 3.2004 -0.8128) (end 3.2004 -1.1176) (layer F.Fab) (width 0.1524))
  (fp_line (start 3.2004 -1.1176) (end 2.2606 -1.1176) (layer F.Fab) (width 0.1524))
  (fp_line (start 2.2606 -1.778) (end 2.2606 -1.4732) (layer F.Fab) (width 0.1524))
  (fp_line (start 2.2606 -1.4732) (end 3.2004 -1.4732) (layer F.Fab) (width 0.1524))
  (fp_line (start 3.2004 -1.4732) (end 3.2004 -1.778) (layer F.Fab) (width 0.1524))
  (fp_line (start 3.2004 -1.778) (end 2.2606 -1.778) (layer F.Fab) (width 0.1524))
  (fp_line (start 2.2606 -2.413) (end 2.2606 -2.1336) (layer F.Fab) (width 0.1524))
  (fp_line (start 2.2606 -2.1336) (end 3.2004 -2.1336) (layer F.Fab) (width 0.1524))
  (fp_line (start 3.2004 -2.1336) (end 3.2004 -2.413) (layer F.Fab) (width 0.1524))
  (fp_line (start 3.2004 -2.413) (end 2.2606 -2.413) (layer F.Fab) (width 0.1524))
  (fp_line (start -2.2606 2.54) (end 2.2606 2.54) (layer F.Fab) (width 0.1524))
  (fp_line (start 2.2606 2.54) (end 2.2606 -2.54) (layer F.Fab) (width 0.1524))
  (fp_line (start 2.2606 -2.54) (end 0.3048 -2.54) (layer F.Fab) (width 0.1524))
  (fp_line (start 0.3048 -2.54) (end -0.3048 -2.54) (layer F.Fab) (width 0.1524))
  (fp_line (start -0.3048 -2.54) (end -2.2606 -2.54) (layer F.Fab) (width 0.1524))
  (fp_line (start -2.2606 -2.54) (end -2.2606 2.54) (layer F.Fab) (width 0.1524))
  (fp_arc (start 0 -2.54) (end 0.3048 -2.54) (angle 180) (layer F.Fab) (width 0.1524))
  (fp_text user * (at -3.6576 -2.4892) (layer F.Fab)
    (effects (font (size 1.2065 1.2065) (thickness 0.0762)) (justify left bottom))
  )
  (fp_line (start 4.064 1.4224) (end 4.064 1.8034) (layer Cmts.User) (width 0.1524))
  (fp_line (start 4.064 1.8034) (end 3.81 1.8034) (layer Cmts.User) (width 0.1524))
  (fp_line (start 3.81 1.8034) (end 3.81 1.4224) (layer Cmts.User) (width 0.1524))
  (fp_line (start 3.81 2.794) (end -3.81 2.794) (layer Dwgs.User) (width 0.1524))
  (fp_line (start -3.81 2.794) (end -3.81 -2.794) (layer Dwgs.User) (width 0.1524))
  (fp_line (start -3.81 -2.794) (end 3.81 -2.794) (layer Dwgs.User) (width 0.1524))
  (fp_line (start 3.81 -2.794) (end 3.81 2.794) (layer Dwgs.User) (width 0.1524))
  (fp_line (start -1.778 2.54) (end 1.778 2.54) (layer F.SilkS) (width 0.1524))
  (fp_line (start 1.778 -2.54) (end 0.3048 -2.54) (layer F.SilkS) (width 0.1524))
  (fp_line (start 0.3048 -2.54) (end -0.3048 -2.54) (layer F.SilkS) (width 0.1524))
  (fp_line (start -0.3048 -2.54) (end -1.778 -2.54) (layer F.SilkS) (width 0.1524))
  (fp_arc (start 0 -2.54) (end 0.3048 -2.54) (angle 180) (layer F.SilkS) (width 0.1524))
  (fp_text user * (at -3.6576 -2.4892) (layer F.SilkS)
    (effects (font (size 1.2065 1.2065) (thickness 0.0762)) (justify left bottom))
  )
  (pad 1 smd rect (at -2.8194 -2.286) (size 1.4732 0.3556) (layers F.Cu F.Paste F.Mask)
    (solder_mask_margin 0.254))
  (pad 2 smd rect (at -2.8194 -1.6256) (size 1.4732 0.3556) (layers F.Cu F.Paste F.Mask)
    (solder_mask_margin 0.254))
  (pad 3 smd rect (at -2.8194 -0.9652) (size 1.4732 0.3556) (layers F.Cu F.Paste F.Mask)
    (solder_mask_margin 0.254))
  (pad 4 smd rect (at -2.8194 -0.3302) (size 1.4732 0.3556) (layers F.Cu F.Paste F.Mask)
    (solder_mask_margin 0.254))
  (pad 5 smd rect (at -2.8194 0.3302) (size 1.4732 0.3556) (layers F.Cu F.Paste F.Mask)
    (solder_mask_margin 0.254))
  (pad 6 smd rect (at -2.8194 0.9652) (size 1.4732 0.3556) (layers F.Cu F.Paste F.Mask)
    (solder_mask_margin 0.254))
  (pad 7 smd rect (at -2.8194 1.6256) (size 1.4732 0.3556) (layers F.Cu F.Paste F.Mask)
    (solder_mask_margin 0.254))
  (pad 8 smd rect (at -2.8194 2.286) (size 1.4732 0.3556) (layers F.Cu F.Paste F.Mask)
    (solder_mask_margin 0.254))
  (pad 9 smd rect (at 2.8194 2.286) (size 1.4732 0.3556) (layers F.Cu F.Paste F.Mask)
    (solder_mask_margin 0.254))
  (pad 10 smd rect (at 2.8194 1.6256) (size 1.4732 0.3556) (layers F.Cu F.Paste F.Mask)
    (solder_mask_margin 0.254))
  (pad 11 smd rect (at 2.8194 0.9652) (size 1.4732 0.3556) (layers F.Cu F.Paste F.Mask)
    (solder_mask_margin 0.254))
  (pad 12 smd rect (at 2.8194 0.3302) (size 1.4732 0.3556) (layers F.Cu F.Paste F.Mask)
    (solder_mask_margin 0.254))
  (pad 13 smd rect (at 2.8194 -0.3302) (size 1.4732 0.3556) (layers F.Cu F.Paste F.Mask)
    (solder_mask_margin 0.254))
  (pad 14 smd rect (at 2.8194 -0.9652) (size 1.4732 0.3556) (layers F.Cu F.Paste F.Mask)
    (solder_mask_margin 0.254))
  (pad 15 smd rect (at 2.8194 -1.6256) (size 1.4732 0.3556) (layers F.Cu F.Paste F.Mask)
    (solder_mask_margin 0.254))
  (pad 16 smd rect (at 2.8194 -2.286) (size 1.4732 0.3556) (layers F.Cu F.Paste F.Mask)
    (solder_mask_margin 0.254))
)
