(module SYS (layer F.Cu) (tedit 0)
  (fp_text reference RL1 (at 0 0 90) (layer F.SilkS) hide
    (effects (font (size 1.2065 1.2065) (thickness 0.09652)) (justify left bottom))
  )
  (fp_text value "" (at 0 0) (layer F.SilkS) hide
    (effects (font (size 1.2065 1.2065) (thickness 0.09652)) (justify left bottom))
  )
  (fp_line (start -6.35 3.81) (end -6.35 -3.81) (layer F.SilkS) (width 0.127))
  (fp_line (start 6.35 3.81) (end -6.35 3.81) (layer F.SilkS) (width 0.127))
  (fp_line (start -6.35 -3.81) (end 6.35 -3.81) (layer F.SilkS) (width 0.127))
  (fp_line (start 6.35 -3.81) (end 6.35 3.81) (layer F.SilkS) (width 0.127))
  (fp_text user >Name (at -6.35 -4.445) (layer F.SilkS)
    (effects (font (size 1.2065 1.2065) (thickness 0.1016)) (justify left bottom))
  )
  (fp_text user >Value (at -6.35 5.715) (layer F.Fab)
    (effects (font (size 1.2065 1.2065) (thickness 0.1016)) (justify left bottom))
  )
  (pad 1 thru_hole circle (at -5.08 2.54) (size 1.778 1.778) (drill 0.8) (layers *.Cu *.Mask)
    (solder_mask_margin 0.254))
  (pad 8 thru_hole circle (at -5.08 -2.54) (size 1.778 1.778) (drill 0.8) (layers *.Cu *.Mask)
    (solder_mask_margin 0.254))
  (pad 7 thru_hole rect (at 2.54 -2.54 90) (size 1.778 1.778) (drill 0.8) (layers *.Cu *.Mask)
    (solder_mask_margin 0.254))
  (pad 6 thru_hole circle (at 5.08 -2.54) (size 1.778 1.778) (drill 0.8) (layers *.Cu *.Mask)
    (solder_mask_margin 0.254))
  (pad 4 thru_hole rect (at 2.54 2.54) (size 1.778 1.778) (drill 0.8) (layers *.Cu *.Mask)
    (solder_mask_margin 0.254))
  (pad 5 thru_hole circle (at 5.08 2.54) (size 1.778 1.778) (drill 0.8) (layers *.Cu *.Mask)
    (solder_mask_margin 0.254))
)
