(module TO5 (layer F.Cu) (tedit 0)
  (descr "<b>TO 5</b>")
  (fp_text reference Q2 (at -2.54 -5.08 -135) (layer F.SilkS)
    (effects (font (size 1.2065 1.2065) (thickness 0.12065)) (justify left bottom))
  )
  (fp_text value 2N2219 (at -3.175 0.635 -270) (layer F.Fab)
    (effects (font (size 1.2065 1.2065) (thickness 0.12065)) (justify left bottom))
  )
  (fp_line (start -4.0386 3.5306) (end -3.5052 2.9972) (layer F.SilkS) (width 0.127))
  (fp_line (start -2.9718 3.5306) (end -3.5052 4.064) (layer F.SilkS) (width 0.127))
  (fp_line (start -3.5052 4.064) (end -4.0386 3.5306) (layer F.SilkS) (width 0.127))
  (fp_circle (center 0 0) (end 4.572 0) (layer F.SilkS) (width 0.127))
  (fp_circle (center 0 0) (end 3.8608 0) (layer F.SilkS) (width 0.0508))
  (pad 1 thru_hole circle (at 0 2.54) (size 1.3208 1.3208) (drill 0.8128) (layers *.Cu *.Mask)
    (solder_mask_margin 0.254))
  (pad 2 thru_hole circle (at 2.54 0) (size 1.3208 1.3208) (drill 0.8128) (layers *.Cu *.Mask)
    (solder_mask_margin 0.254))
  (pad 3 thru_hole circle (at 0 -2.54) (size 1.3208 1.3208) (drill 0.8128) (layers *.Cu *.Mask)
    (solder_mask_margin 0.254))
)
