(module W237-3E (layer F.Cu) (tedit 0)
  (descr "<b>WAGO SREW CLAMP</b>")
  (fp_text reference SPEED_SENSOR (at -6.35 6.858 -180) (layer F.SilkS)
    (effects (font (size 1.2065 1.2065) (thickness 0.12065)) (justify right top))
  )
  (fp_text value "" (at -6.35 4.318 -180) (layer F.Fab)
    (effects (font (size 1.2065 1.2065) (thickness 0.12065)) (justify right top))
  )
  (fp_line (start -6.0706 1.651) (end -4.064 -0.3556) (layer F.Fab) (width 0.254))
  (fp_line (start -0.9144 1.6764) (end 0.9906 -0.3556) (layer F.Fab) (width 0.254))
  (fp_line (start 4.0894 1.651) (end 6.096 -0.3556) (layer F.Fab) (width 0.254))
  (fp_line (start -7.62 4.826) (end 7.62 4.826) (layer F.SilkS) (width 0.1524))
  (fp_line (start -7.62 4.826) (end -7.62 2.413) (layer F.SilkS) (width 0.1524))
  (fp_line (start -7.62 2.413) (end -7.62 -4.191) (layer F.SilkS) (width 0.1524))
  (fp_line (start -7.62 2.413) (end -6.096 2.413) (layer F.SilkS) (width 0.1524))
  (fp_line (start -6.096 2.413) (end -4.064 2.413) (layer F.Fab) (width 0.1524))
  (fp_line (start -4.064 2.413) (end -1.016 2.413) (layer F.SilkS) (width 0.1524))
  (fp_line (start 1.016 2.413) (end 4.064 2.413) (layer F.SilkS) (width 0.1524))
  (fp_line (start 6.096 2.413) (end 7.62 2.413) (layer F.SilkS) (width 0.1524))
  (fp_line (start -7.62 -4.191) (end 7.62 -4.191) (layer F.SilkS) (width 0.1524))
  (fp_line (start -7.62 -4.191) (end -7.62 -4.445) (layer F.SilkS) (width 0.1524))
  (fp_line (start 7.62 -4.445) (end 7.62 -4.191) (layer F.SilkS) (width 0.1524))
  (fp_line (start 7.62 -4.445) (end -7.62 -4.445) (layer F.SilkS) (width 0.1524))
  (fp_line (start 7.62 2.413) (end 7.62 4.826) (layer F.SilkS) (width 0.1524))
  (fp_line (start 7.62 -4.191) (end 7.62 2.413) (layer F.SilkS) (width 0.1524))
  (fp_line (start 4.064 2.413) (end 6.096 2.413) (layer F.Fab) (width 0.1524))
  (fp_line (start -1.016 2.413) (end 1.016 2.413) (layer F.Fab) (width 0.1524))
  (fp_circle (center -5.08 0.635) (end -3.5814 0.635) (layer F.Fab) (width 0.1524))
  (fp_circle (center -5.08 -2.8448) (end -4.572 -2.8448) (layer F.SilkS) (width 0.1524))
  (fp_circle (center 0 0.635) (end 1.4986 0.635) (layer F.Fab) (width 0.1524))
  (fp_circle (center 0 -2.8448) (end 0.508 -2.8448) (layer F.SilkS) (width 0.1524))
  (fp_circle (center 5.08 0.635) (end 6.5786 0.635) (layer F.Fab) (width 0.1524))
  (fp_circle (center 5.08 -2.8448) (end 5.588 -2.8448) (layer F.SilkS) (width 0.1524))
  (fp_text user 1 (at -6.985 -1.27) (layer F.Fab)
    (effects (font (size 1.2065 1.2065) (thickness 0.127)) (justify left bottom))
  )
  (fp_text user 2 (at -1.8542 -1.2192) (layer F.Fab)
    (effects (font (size 1.2065 1.2065) (thickness 0.127)) (justify left bottom))
  )
  (fp_text user 3 (at 3.175 -1.27) (layer F.Fab)
    (effects (font (size 1.2065 1.2065) (thickness 0.127)) (justify left bottom))
  )
  (pad 1 thru_hole oval (at -5.08 0.635 90) (size 3.5814 1.7907) (drill 1.1938) (layers *.Cu *.Mask)
    (solder_mask_margin 0.254))
  (pad 2 thru_hole oval (at 0 0.635 90) (size 3.5814 1.7907) (drill 1.1938) (layers *.Cu *.Mask)
    (solder_mask_margin 0.254))
  (pad 3 thru_hole oval (at 5.08 0.635 90) (size 3.5814 1.7907) (drill 1.1938) (layers *.Cu *.Mask)
    (solder_mask_margin 0.254))
)
